,lsoa_code,actual,predicted
0,E01015023,0,0
1,E01015024,0,0
2,E01015025,0,0
3,E01015026,0,0
4,E01015027,0,0
5,E01015028,0,0
6,E01015029,0,0
7,E01015030,0,0
8,E01015031,0,0
9,E01015032,1,1
10,E01015033,0,0
11,E01015034,0,0
12,E01015035,0,0
13,E01015036,0,0
14,E01015037,0,0
15,E01015038,0,0
16,E01015039,0,0
17,E01015040,0,0
18,E01015041,0,0
19,E01015042,0,0
20,E01015043,0,0
21,E01015044,0,0
22,E01015045,1,1
23,E01015046,1,1
24,E01015047,1,1
25,E01015048,0,0
26,E01015049,0,0
27,E01015050,1,1
28,E01015051,0,0
29,E01015052,0,0
30,E01015053,0,0
31,E01015054,1,1
32,E01015055,1,1
33,E01015056,0,0
34,E01015057,0,0
35,E01015058,0,0
36,E01015059,0,0
37,E01015060,0,0
38,E01015061,0,0
39,E01015062,0,0
40,E01015063,0,0
41,E01015064,0,0
42,E01015065,0,0
43,E01015066,0,0
44,E01015067,0,0
45,E01015068,0,0
46,E01015069,0,0
47,E01015070,0,0
48,E01015071,0,0
49,E01015072,0,0
50,E01015073,0,0
51,E01015074,0,0
52,E01015075,1,1
53,E01015076,0,0
54,E01015077,0,0
55,E01015078,0,0
56,E01015079,0,0
57,E01015080,0,0
58,E01015081,0,0
59,E01015082,0,0
60,E01015083,0,0
61,E01015084,0,0
62,E01015085,0,0
63,E01015086,0,0
64,E01015087,0,0
65,E01015088,0,0
66,E01015089,1,1
67,E01015090,0,0
68,E01015091,0,0
69,E01015092,1,1
70,E01015093,0,0
71,E01015094,0,0
72,E01015095,0,0
73,E01015096,0,0
74,E01015097,0,0
75,E01015098,0,0
76,E01015099,0,0
77,E01015100,0,0
78,E01015101,0,0
79,E01015102,0,0
80,E01015103,0,0
81,E01015104,0,0
82,E01015105,0,0
83,E01015106,1,1
84,E01015107,0,0
85,E01015108,0,0
86,E01015109,0,0
87,E01015110,0,0
88,E01015111,0,0
89,E01015112,0,0
90,E01015113,0,0
91,E01015114,0,0
92,E01015115,0,0
93,E01015116,0,0
94,E01015117,0,0
95,E01015118,0,0
96,E01015119,0,0
97,E01015120,0,0
98,E01015121,0,0
99,E01015122,0,0
100,E01015123,0,0
101,E01015124,0,0
102,E01015125,0,0
103,E01015126,0,0
104,E01015127,0,0
105,E01015128,0,0
106,E01015129,0,0
107,E01015130,0,0
108,E01015131,0,0
109,E01015132,0,0
110,E01015133,0,0
111,E01015134,0,0
112,E01015135,1,1
113,E01015136,0,0
114,E01015137,0,0
115,E01015138,0,0
116,E01015139,0,0
117,E01015140,0,0
118,E01015141,0,0
119,E01015142,0,0
120,E01015143,0,0
121,E01015144,0,0
122,E01015145,0,0
123,E01015146,0,0
124,E01015147,0,0
125,E01015148,0,0
126,E01015149,0,0
127,E01015150,0,0
128,E01015151,1,1
129,E01015152,1,1
130,E01015153,1,1
131,E01015155,1,1
132,E01015156,1,1
133,E01015157,1,1
134,E01015158,1,1
135,E01015159,0,0
136,E01015160,0,0
137,E01015161,0,0
138,E01015162,0,0
139,E01015163,0,0
140,E01015164,0,0
141,E01015165,0,0
142,E01015166,0,0
143,E01015167,0,0
144,E01015168,0,0
145,E01015169,0,0
146,E01015170,0,0
147,E01015171,0,0
148,E01015172,1,1
149,E01015173,0,0
150,E01015174,0,0
151,E01015175,0,0
152,E01015176,0,0
153,E01015177,0,0
154,E01015178,0,0
155,E01015179,0,0
156,E01015180,0,1
157,E01015181,1,1
158,E01015182,1,1
159,E01015183,0,0
160,E01015184,0,0
161,E01015185,0,0
162,E01015186,0,0
163,E01015187,0,0
164,E01015188,0,0
165,E01015189,0,0
166,E01015190,0,0
167,E01015191,0,0
168,E01015192,0,0
169,E01015193,0,0
170,E01015194,0,0
171,E01015195,1,1
172,E01015196,0,0
173,E01015197,0,0
174,E01015198,0,0
175,E01015199,0,0
176,E01015200,0,0
177,E01015201,0,0
178,E01015202,0,0
179,E01015203,0,0
180,E01015204,0,0
181,E01015205,0,0
182,E01015206,0,0
183,E01015207,0,0
184,E01015208,0,0
185,E01015209,0,0
186,E01015210,0,0
187,E01015211,0,0
188,E01015212,0,0
189,E01015213,0,0
190,E01015214,0,0
191,E01015215,0,0
192,E01015216,0,0
193,E01015217,1,1
194,E01015218,0,0
195,E01015219,0,0
196,E01015220,0,0
197,E01015221,0,0
198,E01015222,0,0
199,E01015223,0,0
200,E01015224,0,0
201,E01015225,0,0
202,E01015226,0,0
203,E01015227,0,0
204,E01015228,0,0
205,E01015229,0,0
206,E01015230,0,0
207,E01015231,1,1
208,E01015232,1,1
209,E01015233,0,0
210,E01015234,0,0
211,E01015235,0,0
212,E01015236,0,0
213,E01015237,0,0
214,E01015238,0,0
215,E01015239,0,0
216,E01015240,0,0
217,E01015241,0,0
218,E01015242,0,0
219,E01015243,0,0
220,E01015244,0,0
221,E01015245,0,0
222,E01015246,0,0
223,E01015247,0,0
224,E01015248,0,0
225,E01015249,0,0
226,E01015250,0,0
227,E01015251,0,0
228,E01015252,1,1
229,E01015253,0,0
230,E01015254,0,0
231,E01015255,1,1
232,E01015256,1,1
233,E01015257,0,0
234,E01015258,0,0
235,E01015259,1,1
236,E01015260,0,0
237,E01015261,1,1
238,E01015262,0,0
239,E01015263,0,0
240,E01015264,0,0
241,E01015265,0,0
242,E01015266,0,0
243,E01015267,1,1
244,E01015268,0,0
245,E01015269,0,0
246,E01015270,0,0
247,E01015271,0,0
248,E01018750,0,0
249,E01018751,1,1
250,E01018752,0,0
251,E01018753,0,0
252,E01018754,0,0
253,E01018755,0,0
254,E01018756,0,0
255,E01018757,0,0
256,E01018758,0,0
257,E01018759,0,0
258,E01018760,0,0
259,E01018761,0,0
260,E01018762,0,0
261,E01018763,0,0
262,E01018764,0,0
263,E01018765,0,0
264,E01018766,0,0
265,E01018767,0,0
266,E01018768,0,0
267,E01018769,0,0
268,E01018770,0,0
269,E01018771,0,0
270,E01018772,0,0
271,E01018773,0,0
272,E01018774,0,0
273,E01018775,0,0
274,E01018776,0,0
275,E01018777,0,0
276,E01018778,0,0
277,E01018779,0,0
278,E01018780,0,0
279,E01018781,0,0
280,E01018782,0,0
281,E01018783,0,0
282,E01018784,0,0
283,E01018785,0,0
284,E01018786,0,0
285,E01018787,0,0
286,E01018788,0,0
287,E01018789,0,0
288,E01018790,0,0
289,E01018791,0,0
290,E01018792,0,0
291,E01018793,0,0
292,E01018794,0,0
293,E01018795,0,0
294,E01018796,0,0
295,E01018797,0,0
296,E01018798,0,0
297,E01018799,0,0
298,E01018800,0,0
299,E01018803,0,0
300,E01018804,1,1
301,E01018805,0,0
302,E01018806,0,0
303,E01018807,0,0
304,E01018808,0,0
305,E01018809,1,1
306,E01018810,0,0
307,E01018811,0,0
308,E01018812,0,0
309,E01018813,0,0
310,E01018814,0,0
311,E01018815,0,0
312,E01018816,0,0
313,E01018817,0,0
314,E01018818,0,0
315,E01018819,0,0
316,E01018820,0,0
317,E01018821,0,0
318,E01018822,0,0
319,E01018823,0,0
320,E01018824,0,0
321,E01018825,0,0
322,E01018826,0,0
323,E01018827,0,0
324,E01018828,0,0
325,E01018829,0,0
326,E01018830,0,0
327,E01018831,0,0
328,E01018832,0,0
329,E01018833,0,0
330,E01018834,0,0
331,E01018835,0,0
332,E01018836,0,0
333,E01018837,0,0
334,E01018838,0,0
335,E01018839,0,0
336,E01018840,1,1
337,E01018841,0,0
338,E01018842,0,0
339,E01018843,0,0
340,E01018844,0,0
341,E01018845,0,0
342,E01018846,0,0
343,E01018847,0,0
344,E01018848,0,0
345,E01018849,0,0
346,E01018850,0,0
347,E01018851,0,0
348,E01018852,0,0
349,E01018853,0,0
350,E01018854,0,0
351,E01018855,1,1
352,E01018856,0,0
353,E01018857,0,0
354,E01018858,0,0
355,E01018859,0,0
356,E01018860,0,0
357,E01018861,0,0
358,E01018862,0,0
359,E01018863,0,0
360,E01018864,0,0
361,E01018865,0,0
362,E01018866,0,1
363,E01018867,0,0
364,E01018868,1,1
365,E01018869,0,0
366,E01018870,0,0
367,E01018871,0,0
368,E01018872,0,0
369,E01018873,0,0
370,E01018874,0,0
371,E01018875,0,0
372,E01018876,0,0
373,E01018877,0,0
374,E01018878,1,1
375,E01018879,0,0
376,E01018880,0,0
377,E01018881,0,0
378,E01018882,0,0
379,E01018883,0,0
380,E01018884,0,0
381,E01018885,0,0
382,E01018886,0,0
383,E01018887,0,0
384,E01018888,0,0
385,E01018889,0,0
386,E01018890,0,0
387,E01018891,0,0
388,E01018892,0,0
389,E01018893,0,0
390,E01018894,0,0
391,E01018895,1,1
392,E01018896,0,0
393,E01018897,1,1
394,E01018898,0,0
395,E01018899,0,0
396,E01018900,0,0
397,E01018901,0,0
398,E01018902,0,0
399,E01018903,0,0
400,E01018904,0,0
401,E01018905,0,0
402,E01018906,0,0
403,E01018907,0,0
404,E01018908,0,0
405,E01018909,0,0
406,E01018910,0,0
407,E01018911,1,1
408,E01018912,0,0
409,E01018913,0,0
410,E01018914,0,0
411,E01018915,0,0
412,E01018916,0,0
413,E01018917,0,0
414,E01018918,0,0
415,E01018919,0,0
416,E01018920,0,0
417,E01018921,0,0
418,E01018922,0,0
419,E01018923,0,0
420,E01018924,0,0
421,E01018925,0,0
422,E01018926,0,0
423,E01018927,0,0
424,E01018928,1,1
425,E01018929,0,0
426,E01018930,0,0
427,E01018931,0,0
428,E01018932,1,1
429,E01018933,1,1
430,E01018934,1,1
431,E01018935,0,0
432,E01018936,0,0
433,E01018937,1,1
434,E01018938,0,0
435,E01018940,0,0
436,E01018941,0,0
437,E01018942,0,0
438,E01018943,0,0
439,E01018944,0,0
440,E01018945,0,0
441,E01018946,0,0
442,E01018947,0,0
443,E01018948,0,0
444,E01018949,0,0
445,E01018950,0,0
446,E01018951,0,0
447,E01018952,0,0
448,E01018953,0,0
449,E01018954,0,0
450,E01018955,0,0
451,E01018956,0,0
452,E01018957,0,0
453,E01018958,0,0
454,E01018959,0,0
455,E01018960,0,0
456,E01018961,0,1
457,E01018962,0,0
458,E01018965,0,0
459,E01018966,0,0
460,E01018967,0,0
461,E01018968,0,0
462,E01018969,0,0
463,E01018970,0,0
464,E01018971,0,0
465,E01018972,0,0
466,E01018973,0,0
467,E01018974,0,0
468,E01018975,0,0
469,E01018976,0,0
470,E01018977,0,0
471,E01018978,1,1
472,E01018979,0,0
473,E01018980,0,0
474,E01018981,0,0
475,E01018982,0,0
476,E01018983,0,0
477,E01018984,1,1
478,E01018985,0,0
479,E01018986,0,0
480,E01018987,0,0
481,E01018988,0,0
482,E01018989,0,0
483,E01018990,0,0
484,E01018991,0,0
485,E01018992,0,0
486,E01018993,0,0
487,E01018994,0,0
488,E01018995,1,1
489,E01018996,0,0
490,E01018997,0,0
491,E01018998,0,0
492,E01018999,1,1
493,E01019000,0,0
494,E01019001,0,1
495,E01019002,0,0
496,E01019003,0,0
497,E01019004,0,0
498,E01019005,0,0
499,E01019006,0,0
500,E01019007,0,0
501,E01019008,0,0
502,E01019009,0,0
503,E01019010,0,0
504,E01019011,0,0
505,E01019012,1,1
506,E01019013,1,1
507,E01019014,0,0
508,E01019015,0,0
509,E01019016,0,0
510,E01019017,0,0
511,E01019018,0,0
512,E01019019,0,0
513,E01019020,1,1
514,E01019021,0,0
515,E01019022,0,0
516,E01019023,0,0
517,E01019024,0,0
518,E01019025,0,0
519,E01019026,0,0
520,E01019027,0,0
521,E01019028,1,1
522,E01019029,1,1
523,E01019030,0,0
524,E01019031,0,0
525,E01019032,0,0
526,E01019033,1,1
527,E01019034,0,0
528,E01019035,0,0
529,E01019036,0,0
530,E01019037,0,0
531,E01019038,0,0
532,E01019039,0,0
533,E01019040,0,0
534,E01019041,0,0
535,E01019042,0,1
536,E01019043,1,1
537,E01019044,0,0
538,E01019045,0,0
539,E01019046,0,0
540,E01019047,1,1
541,E01019048,1,1
542,E01019049,1,1
543,E01019050,0,0
544,E01019051,0,0
545,E01019052,0,0
546,E01019053,0,0
547,E01019054,0,0
548,E01019055,0,0
549,E01019056,0,0
550,E01019057,0,0
551,E01019058,0,0
552,E01019059,0,0
553,E01019060,0,0
554,E01019061,0,0
555,E01019062,0,0
556,E01019063,0,0
557,E01019064,0,0
558,E01019065,0,0
559,E01019066,0,0
560,E01019067,0,0
561,E01019068,0,0
562,E01019069,0,0
563,E01019070,0,0
564,E01019071,0,0
565,E01019072,0,0
566,E01019073,0,0
567,E01019074,0,0
568,E01019075,0,0
569,E01019076,0,0
570,E01019077,0,0
571,E01019886,0,0
572,E01019887,0,0
573,E01019888,0,0
574,E01019889,0,0
575,E01019890,0,0
576,E01019891,0,0
577,E01019892,0,0
578,E01019893,1,1
579,E01019894,0,0
580,E01019895,0,0
581,E01019896,0,0
582,E01019897,0,0
583,E01019898,0,0
584,E01019899,0,0
585,E01019900,0,0
586,E01019901,0,0
587,E01019902,0,0
588,E01019903,0,0
589,E01019904,0,0
590,E01019905,0,0
591,E01019906,0,0
592,E01019907,0,0
593,E01019908,0,0
594,E01019909,0,0
595,E01019910,0,0
596,E01019911,0,0
597,E01019912,0,0
598,E01019913,0,0
599,E01019914,1,1
600,E01019915,0,0
601,E01019916,1,1
602,E01019917,0,0
603,E01019918,1,1
604,E01019919,0,0
605,E01019920,0,0
606,E01019921,0,0
607,E01019922,0,0
608,E01019923,0,0
609,E01019924,0,0
610,E01019925,0,0
611,E01019927,0,0
612,E01019928,0,0
613,E01019929,0,0
614,E01019930,0,0
615,E01019931,0,0
616,E01019932,0,0
617,E01019933,0,0
618,E01019934,0,0
619,E01019935,0,0
620,E01019936,0,0
621,E01019937,0,0
622,E01019938,0,0
623,E01019939,0,0
624,E01019940,0,0
625,E01019942,0,0
626,E01019943,0,0
627,E01019944,0,0
628,E01019945,1,1
629,E01019946,0,0
630,E01019947,0,0
631,E01019948,0,0
632,E01019949,0,0
633,E01019950,0,0
634,E01019951,0,0
635,E01019952,0,0
636,E01019953,0,0
637,E01019954,1,1
638,E01019955,0,0
639,E01019956,0,0
640,E01019957,0,0
641,E01019958,0,0
642,E01019959,0,0
643,E01019960,0,0
644,E01019961,0,0
645,E01019962,0,0
646,E01019963,0,0
647,E01019964,0,0
648,E01019965,0,0
649,E01019966,0,0
650,E01019967,0,0
651,E01019968,0,0
652,E01019969,1,1
653,E01019970,0,0
654,E01019971,0,0
655,E01019972,0,0
656,E01019973,0,0
657,E01019974,0,0
658,E01019975,0,0
659,E01019976,0,0
660,E01019977,0,0
661,E01019980,0,0
662,E01019981,0,0
663,E01019982,0,0
664,E01019983,0,0
665,E01019984,0,0
666,E01019985,0,0
667,E01019986,1,1
668,E01019987,0,0
669,E01019988,0,0
670,E01019989,0,0
671,E01019990,0,0
672,E01019991,0,0
673,E01019992,0,0
674,E01019993,0,0
675,E01019994,0,0
676,E01019995,1,1
677,E01019996,0,0
678,E01019997,0,0
679,E01019998,0,0
680,E01019999,0,0
681,E01020000,0,0
682,E01020001,0,0
683,E01020002,0,0
684,E01020003,0,0
685,E01020004,0,0
686,E01020005,1,1
687,E01020006,1,1
688,E01020007,0,0
689,E01020008,0,0
690,E01020009,0,0
691,E01020010,0,0
692,E01020011,0,0
693,E01020012,0,0
694,E01020013,1,1
695,E01020014,0,0
696,E01020015,0,0
697,E01020016,1,1
698,E01020017,1,1
699,E01020018,1,1
700,E01020019,0,0
701,E01020020,0,0
702,E01020021,0,0
703,E01020022,1,1
704,E01020023,0,0
705,E01020024,0,0
706,E01020025,0,0
707,E01020026,0,0
708,E01020027,0,0
709,E01020029,0,0
710,E01020030,1,1
711,E01020031,0,0
712,E01020032,0,0
713,E01020033,0,0
714,E01020035,0,0
715,E01020036,0,0
716,E01020037,0,0
717,E01020038,0,0
718,E01020039,0,0
719,E01020040,0,0
720,E01020041,1,1
721,E01020042,0,0
722,E01020043,0,0
723,E01020044,0,0
724,E01020045,0,0
725,E01020046,0,0
726,E01020047,0,0
727,E01020048,1,1
728,E01020049,0,0
729,E01020050,0,0
730,E01020051,0,0
731,E01020052,0,1
732,E01020053,0,0
733,E01020054,0,0
734,E01020055,1,1
735,E01020056,0,0
736,E01020057,0,0
737,E01020058,0,0
738,E01020059,0,0
739,E01020060,0,0
740,E01020061,0,0
741,E01020062,0,0
742,E01020063,0,0
743,E01020064,0,0
744,E01020065,1,1
745,E01020066,0,0
746,E01020067,0,0
747,E01020068,0,0
748,E01020069,0,0
749,E01020070,0,0
750,E01020071,0,0
751,E01020072,0,0
752,E01020073,0,0
753,E01020074,0,0
754,E01020075,0,0
755,E01020076,0,0
756,E01020077,0,0
757,E01020078,0,0
758,E01020079,0,0
759,E01020080,0,0
760,E01020081,0,0
761,E01020082,0,0
762,E01020083,0,0
763,E01020084,0,0
764,E01020085,0,0
765,E01020086,0,0
766,E01020087,0,0
767,E01020088,0,0
768,E01020089,0,0
769,E01020090,0,0
770,E01020091,0,0
771,E01020092,0,0
772,E01020093,0,0
773,E01020094,1,1
774,E01020095,0,0
775,E01020096,1,1
776,E01020097,0,0
777,E01020098,0,0
778,E01020099,0,0
779,E01020100,0,0
780,E01020101,0,0
781,E01020102,0,0
782,E01020103,0,0
783,E01020104,0,0
784,E01020105,0,0
785,E01020106,0,0
786,E01020107,0,0
787,E01020108,0,1
788,E01020109,0,0
789,E01020110,0,0
790,E01020111,0,0
791,E01020112,1,1
792,E01020113,1,1
793,E01020114,0,0
794,E01020115,0,0
795,E01020116,0,0
796,E01020117,0,0
797,E01020118,0,0
798,E01020119,0,0
799,E01020120,0,1
800,E01020121,0,0
801,E01020122,0,0
802,E01020123,0,0
803,E01020124,1,1
804,E01020125,0,0
805,E01020126,0,0
806,E01020127,0,0
807,E01020128,1,1
808,E01020129,1,1
809,E01020130,0,0
810,E01020131,0,0
811,E01020132,0,0
812,E01020133,0,0
813,E01020134,0,0
814,E01020135,0,0
815,E01020136,0,0
816,E01020137,0,0
817,E01020138,0,0
818,E01020139,0,0
819,E01020140,0,0
820,E01020141,0,0
821,E01020142,0,0
822,E01020143,0,0
823,E01020144,0,0
824,E01020145,0,0
825,E01020146,0,0
826,E01020147,0,0
827,E01020148,0,0
828,E01020149,0,0
829,E01020150,0,0
830,E01020151,0,0
831,E01020152,0,0
832,E01020153,0,0
833,E01020154,0,0
834,E01020155,0,0
835,E01020156,0,0
836,E01020157,0,0
837,E01020158,0,0
838,E01020159,1,1
839,E01020160,0,0
840,E01020161,0,0
841,E01020162,0,0
842,E01020163,0,0
843,E01020164,0,0
844,E01020165,0,0
845,E01020166,0,0
846,E01020167,0,0
847,E01020168,0,0
848,E01020169,0,0
849,E01020170,1,1
850,E01020171,0,0
851,E01020172,0,0
852,E01020173,0,0
853,E01020174,0,0
854,E01020175,0,0
855,E01020176,0,0
856,E01020177,0,0
857,E01020178,0,0
858,E01020179,0,0
859,E01020180,0,0
860,E01020181,0,0
861,E01020182,0,0
862,E01020183,1,1
863,E01020184,0,0
864,E01020185,0,0
865,E01020186,0,0
866,E01020187,0,0
867,E01020188,0,0
868,E01020189,0,0
869,E01020190,0,0
870,E01020191,0,0
871,E01020192,0,0
872,E01020193,0,0
873,E01020194,0,0
874,E01020195,0,0
875,E01020196,0,0
876,E01020197,0,0
877,E01020198,0,0
878,E01020199,0,0
879,E01020200,0,0
880,E01020201,0,0
881,E01020202,0,0
882,E01020203,0,0
883,E01020204,0,0
884,E01020205,0,0
885,E01020206,0,0
886,E01020207,0,0
887,E01020208,0,0
888,E01020209,0,0
889,E01020210,0,0
890,E01020211,0,0
891,E01020212,0,0
892,E01020213,0,0
893,E01020214,0,0
894,E01020215,0,0
895,E01020216,0,0
896,E01020217,1,1
897,E01020218,1,1
898,E01020219,0,0
899,E01020220,0,0
900,E01020221,0,0
901,E01020222,0,0
902,E01020223,0,0
903,E01020224,0,0
904,E01020225,1,1
905,E01020226,0,0
906,E01020227,0,0
907,E01020228,0,0
908,E01020229,1,1
909,E01020230,0,0
910,E01020231,0,0
911,E01020232,0,0
912,E01020233,0,0
913,E01020234,0,0
914,E01020235,0,0
915,E01020236,0,0
916,E01020237,0,0
917,E01020238,0,0
918,E01020239,0,0
919,E01020240,0,0
920,E01020241,0,0
921,E01020242,0,0
922,E01020243,0,0
923,E01020244,0,0
924,E01020245,0,0
925,E01020246,0,0
926,E01020247,0,0
927,E01020248,0,0
928,E01020249,0,0
929,E01020250,0,0
930,E01020251,0,0
931,E01020252,0,0
932,E01020253,0,0
933,E01020254,0,0
934,E01020255,0,0
935,E01020256,0,0
936,E01020257,0,0
937,E01020258,0,0
938,E01020259,0,0
939,E01020260,0,0
940,E01020261,0,0
941,E01020262,0,0
942,E01020263,0,0
943,E01020264,0,0
944,E01020265,0,0
945,E01020266,0,0
946,E01020267,0,0
947,E01020268,0,0
948,E01020269,1,1
949,E01020270,0,0
950,E01020271,0,0
951,E01020272,0,0
952,E01020273,0,0
953,E01020274,0,0
954,E01020275,0,0
955,E01020276,0,0
956,E01020277,0,0
957,E01020278,0,0
958,E01020279,0,0
959,E01020280,1,1
960,E01020281,0,0
961,E01020282,1,1
962,E01020283,0,0
963,E01020284,0,0
964,E01020285,0,0
965,E01020286,0,0
966,E01020287,0,0
967,E01020288,0,0
968,E01020289,0,0
969,E01020290,0,0
970,E01020291,0,0
971,E01020292,0,0
972,E01020293,0,0
973,E01020294,0,0
974,E01020295,0,0
975,E01020296,0,0
976,E01020297,0,0
977,E01020298,0,0
978,E01020299,0,0
979,E01020300,0,0
980,E01020301,0,0
981,E01020302,0,0
982,E01020303,0,0
983,E01020304,0,0
984,E01020305,0,0
985,E01020306,0,0
986,E01020307,0,0
987,E01020308,0,0
988,E01020309,0,0
989,E01020310,0,0
990,E01020311,0,0
991,E01020312,0,0
992,E01020313,0,0
993,E01020314,0,0
994,E01020315,0,0
995,E01020316,0,0
996,E01020317,0,0
997,E01020318,0,0
998,E01020319,0,0
999,E01020320,0,0
1000,E01020321,0,0
1001,E01020322,0,0
1002,E01020323,0,0
1003,E01020324,0,0
1004,E01020325,0,0
1005,E01020326,0,0
1006,E01020327,0,0
1007,E01020328,0,0
1008,E01020329,0,0
1009,E01020330,0,0
1010,E01020331,0,0
1011,E01020332,0,1
1012,E01020333,0,0
1013,E01020334,0,0
1014,E01020335,0,0
1015,E01020336,0,0
1016,E01020337,0,0
1017,E01020338,1,1
1018,E01020339,0,0
1019,E01020340,0,0
1020,E01020341,0,0
1021,E01020342,0,0
1022,E01032628,0,0
1023,E01032657,1,1
1024,E01032658,1,1
1025,E01033232,0,0
1026,E01033233,1,1
1027,E01033234,1,1
1028,E01033235,0,0
1029,E01033236,0,0
1030,E01033289,0,0
1031,E01033291,0,0
1032,E01033292,0,0
1033,E01033294,0,0
