,lsoa_code,actual,predicted
0,E01015023,8.0,9.958223629568106
1,E01015024,1.0,3.905351935943767
2,E01015025,8.0,6.844764011420942
3,E01015026,17.0,17.14315387426899
4,E01015027,7.0,6.34806742973962
5,E01015028,19.0,17.71957320226071
6,E01015029,13.0,11.81810651154402
7,E01015030,20.0,19.162446759259247
8,E01015031,9.0,18.628731150793662
9,E01015032,65.0,74.37718584656083
10,E01015033,6.0,6.050037773917606
11,E01015034,9.0,8.190843329124576
12,E01015035,5.0,4.715825136588243
13,E01015036,6.0,6.322142281254961
14,E01015037,3.0,5.934086037375567
15,E01015038,6.0,6.2885555921577945
16,E01015039,10.0,18.774242724867722
17,E01015040,16.0,14.69696372317334
18,E01015041,11.0,12.215883682478154
19,E01015042,7.0,11.470426587301587
20,E01015043,17.0,32.72778670634922
21,E01015044,22.0,26.5314623015873
22,E01015045,27.0,48.97399933862438
23,E01015046,27.0,48.83808630952383
24,E01015047,31.0,32.070683621933654
25,E01015048,20.0,54.459381283068836
26,E01015049,18.0,24.251727813852817
27,E01015050,44.0,61.377312800625305
28,E01015051,25.0,24.974719576719572
29,E01015052,57.0,63.507445226070196
30,E01015053,25.0,47.94420138888888
31,E01015054,43.0,45.5994255952381
32,E01015055,18.0,14.533332581770066
33,E01015056,12.0,11.39367498473749
34,E01015057,17.0,17.03954298941799
35,E01015058,12.0,11.493931878306878
36,E01015059,9.0,10.608802910052919
37,E01015060,17.0,15.44871536237234
38,E01015061,22.0,24.199761574074074
39,E01015062,46.0,44.10607702020203
40,E01015063,6.0,8.183728303652085
41,E01015064,2.0,3.93750153707782
42,E01015065,6.0,8.272741732804231
43,E01015066,3.0,3.0235570490023145
44,E01015067,3.0,2.9201690418362656
45,E01015068,1.0,2.280269764843255
46,E01015069,9.0,9.023747618852886
47,E01015070,4.0,9.59571031746032
48,E01015071,7.0,8.283917579547227
49,E01015072,13.0,13.198645256552231
50,E01015073,2.0,6.39130224867725
51,E01015074,15.0,13.631927910052935
52,E01015075,23.0,16.589069859726838
53,E01015076,8.0,8.209237145016742
54,E01015077,9.0,11.558404160654169
55,E01015078,21.0,18.076600258537752
56,E01015079,6.0,6.939695922760457
57,E01015080,4.0,10.808444444444449
58,E01015081,10.0,9.892150005087494
59,E01015082,7.0,9.797614147426646
60,E01015083,22.0,18.59444742063491
61,E01015084,8.0,8.258443836256335
62,E01015085,15.0,12.308410714285724
63,E01015086,2.0,6.46019378306878
64,E01015087,13.0,12.634644368916495
65,E01015088,9.0,13.170505952380957
66,E01015089,9.0,9.54228366001282
67,E01015090,2.0,3.4710708892816147
68,E01015091,7.0,7.174627251600433
69,E01015092,50.0,38.511545003607495
70,E01015093,6.0,7.336933835608838
71,E01015094,13.0,11.721329695767203
72,E01015095,6.0,7.700743817618248
73,E01015096,10.0,10.138225318662807
74,E01015097,1.0,3.5914012080303936
75,E01015098,2.0,6.8554510582010595
76,E01015099,8.0,9.27802988215488
77,E01015100,11.0,11.831727513227513
78,E01015101,7.0,7.225077183810601
79,E01015102,15.0,14.818830357142854
80,E01015103,1.0,4.8843175469456135
81,E01015104,2.0,3.4513781011939764
82,E01015105,2.0,4.517555669990411
83,E01015106,20.0,14.112043140342784
84,E01015107,2.0,3.521395447441073
85,E01015108,2.0,4.360107725145224
86,E01015109,1.0,4.304490606055566
87,E01015110,0.0,1.758814405547964
88,E01015111,6.0,6.11971690696537
89,E01015112,5.0,5.783177196363486
90,E01015113,17.0,9.224322060090199
91,E01015114,3.0,4.118370243227343
92,E01015115,5.0,7.791713955026453
93,E01015116,3.0,3.117966545672909
94,E01015117,5.0,4.851107078855691
95,E01015118,3.0,3.619841151489295
96,E01015119,0.0,1.4260813262584415
97,E01015120,1.0,2.562140866042402
98,E01015121,1.0,2.309911487276975
99,E01015122,2.0,2.680512116295591
100,E01015123,5.0,5.9658797292580115
101,E01015124,3.0,3.7926496815490167
102,E01015125,0.0,1.72136854401274
103,E01015126,3.0,2.840676870464097
104,E01015127,2.0,3.212239824622875
105,E01015128,1.0,3.120970615985345
106,E01015129,7.0,8.008073558659298
107,E01015130,4.0,3.9267600781472303
108,E01015131,1.0,1.9523560404113285
109,E01015132,4.0,4.88774109312053
110,E01015133,0.0,2.3990538271343533
111,E01015134,2.0,4.479023959184949
112,E01015135,24.0,17.464254191889392
113,E01015136,11.0,8.972240574313444
114,E01015137,3.0,3.914826911599752
115,E01015138,5.0,5.499897256083332
116,E01015139,5.0,5.130444546061315
117,E01015140,0.0,2.266192302279508
118,E01015141,2.0,2.2221914477527003
119,E01015142,10.0,9.912788167900931
120,E01015143,7.0,7.367301765214064
121,E01015144,8.0,9.621128510378515
122,E01015145,15.0,20.12296197089944
123,E01015146,7.0,11.268045845358353
124,E01015147,4.0,6.517941704424438
125,E01015148,8.0,9.326968253968253
126,E01015149,14.0,13.993953042328048
127,E01015150,6.0,7.337214024279818
128,E01015151,112.0,113.8742857142857
129,E01015152,144.0,148.75523247354488
130,E01015153,78.0,86.20071263227517
131,E01015155,167.0,145.01938525132275
132,E01015156,164.0,156.29492162698386
133,E01015157,65.0,84.93654629629637
134,E01015158,198.0,179.30644639850877
135,E01015159,8.0,8.749278337403348
136,E01015160,0.0,1.4759565229250968
137,E01015161,7.0,8.203918981481479
138,E01015162,9.0,9.575288464216095
139,E01015163,2.0,4.496025398031679
140,E01015164,3.0,7.918165602453111
141,E01015165,3.0,4.467827185011677
142,E01015166,6.0,9.989741115731237
143,E01015167,9.0,11.153613304093566
144,E01015168,19.0,21.296809854497383
145,E01015169,29.0,35.54798346560846
146,E01015170,12.0,16.299366402116394
147,E01015171,16.0,24.695856812169353
148,E01015172,27.0,29.203828703703707
149,E01015173,21.0,19.658314814814837
150,E01015174,4.0,6.572250196562697
151,E01015175,15.0,19.07002609427609
152,E01015176,11.0,12.746150793650783
153,E01015177,15.0,17.548349867724884
154,E01015178,25.0,27.955607804232805
155,E01015179,21.0,24.81127116402114
156,E01015180,44.0,48.67932064694566
157,E01015181,42.0,49.25135449735451
158,E01015182,53.0,44.72839186507939
159,E01015183,11.0,12.449952922077927
160,E01015184,0.0,3.218256900544149
161,E01015185,2.0,5.544877314814809
162,E01015186,43.0,32.783194113756615
163,E01015187,7.0,6.815835422203066
164,E01015188,2.0,3.931725516097705
165,E01015189,8.0,9.533521296296295
166,E01015190,18.0,13.819582698891526
167,E01015191,9.0,8.647291168210527
168,E01015192,6.0,7.7120335601762084
169,E01015193,16.0,13.039096316646313
170,E01015194,10.0,10.287337680837677
171,E01015195,28.0,19.958241437484094
172,E01015196,9.0,11.280229601782247
173,E01015197,0.0,1.6771098462104357
174,E01015198,4.0,4.213678517337528
175,E01015199,1.0,3.0824255267765275
176,E01015200,2.0,3.547327986547819
177,E01015201,4.0,4.418831423765802
178,E01015202,2.0,3.5644197899262835
179,E01015203,3.0,3.1685776804051438
180,E01015204,11.0,10.526715277777775
181,E01015205,2.0,3.6718408528346282
182,E01015206,17.0,13.998357558139533
183,E01015207,8.0,8.088091860469474
184,E01015208,15.0,11.255626148035692
185,E01015209,6.0,11.425001863876869
186,E01015210,18.0,15.611814063251561
187,E01015211,4.0,4.027000980148193
188,E01015212,11.0,12.308029303791542
189,E01015213,3.0,4.4539148708221035
190,E01015214,27.0,25.445977392977397
191,E01015215,6.0,7.382111316370832
192,E01015216,16.0,18.797411255411255
193,E01015217,56.0,51.78702359908611
194,E01015218,4.0,7.333519971450108
195,E01015219,11.0,11.09681851153798
196,E01015220,10.0,7.8706929071096265
197,E01015221,9.0,9.348859126984125
198,E01015222,5.0,5.277764105384584
199,E01015223,2.0,3.2801525068348827
200,E01015224,6.0,6.7843845504519855
201,E01015225,13.0,10.657967143094131
202,E01015226,3.0,2.7833000125814467
203,E01015227,1.0,2.921764630985924
204,E01015228,16.0,14.89333771686967
205,E01015229,11.0,12.580220984065447
206,E01015230,2.0,2.352565414474862
207,E01015231,78.0,69.64993253968255
208,E01015232,55.0,62.08559169071672
209,E01015233,21.0,27.174165674603202
210,E01015234,12.0,13.4074336289985
211,E01015235,7.0,11.650220929533438
212,E01015236,14.0,12.235538457254242
213,E01015237,1.0,4.062965321430676
214,E01015238,2.0,6.596924357081334
215,E01015239,9.0,19.067481481481476
216,E01015240,16.0,16.309078583453605
217,E01015241,9.0,12.460025577620055
218,E01015242,18.0,17.11544832251082
219,E01015243,3.0,4.187283417251367
220,E01015244,6.0,5.365196462163959
221,E01015245,4.0,7.288287548100041
222,E01015246,6.0,5.6668772874381155
223,E01015247,5.0,6.4393856720504274
224,E01015248,8.0,10.768817520442525
225,E01015249,5.0,7.236144925864403
226,E01015250,3.0,4.391527238034607
227,E01015251,22.0,13.206671913686153
228,E01015252,52.0,30.28047552910047
229,E01015253,7.0,9.109422017797009
230,E01015254,15.0,10.409516437469522
231,E01015255,76.0,86.03275297619048
232,E01015256,177.0,150.55363888888883
233,E01015257,21.0,17.95133693524391
234,E01015258,21.0,21.48381484487734
235,E01015259,25.0,19.1078754152824
236,E01015260,21.0,34.30808134920639
237,E01015261,205.0,104.35255291005303
238,E01015262,7.0,7.971436210086202
239,E01015263,6.0,9.841584039011668
240,E01015264,2.0,3.1493403734997387
241,E01015265,8.0,7.432861097758068
242,E01015266,12.0,12.744954695767204
243,E01015267,52.0,43.00428385040888
244,E01015268,14.0,14.208588834776329
245,E01015269,2.0,7.495783068783074
246,E01015270,10.0,14.90657212000963
247,E01015271,14.0,9.75288950898787
248,E01018750,0.0,2.9035287266809466
249,E01018751,10.0,13.829795634920634
250,E01018752,1.0,4.797432139592766
251,E01018753,0.0,1.175062298296707
252,E01018754,3.0,3.735069468049507
253,E01018755,2.0,2.6935952758154857
254,E01018756,4.0,4.860620905653093
255,E01018757,4.0,4.277445146397364
256,E01018758,6.0,6.531439928345428
257,E01018759,0.0,1.5688717086857558
258,E01018760,1.0,1.8468003595171563
259,E01018761,8.0,8.387635660439763
260,E01018762,6.0,5.90670944617558
261,E01018763,7.0,5.191993311149611
262,E01018764,0.0,1.5267985069427716
263,E01018765,2.0,2.9430999246176532
264,E01018766,1.0,3.1286929293649233
265,E01018767,12.0,12.56111648671097
266,E01018768,4.0,5.359291614761408
267,E01018769,4.0,7.718052774218536
268,E01018770,17.0,13.800523232742698
269,E01018771,22.0,23.794832010581985
270,E01018772,6.0,5.0291990370498585
271,E01018773,9.0,8.42168500793868
272,E01018774,1.0,4.762083944281524
273,E01018775,14.0,10.247967386091847
274,E01018776,7.0,8.88854386123136
275,E01018777,1.0,2.187774211369643
276,E01018778,5.0,4.655898925762094
277,E01018779,6.0,5.657353825844526
278,E01018780,5.0,5.823657995375938
279,E01018781,5.0,5.103023621574092
280,E01018782,1.0,2.534027325592823
281,E01018783,5.0,4.25166827121359
282,E01018784,0.0,1.4101309266111508
283,E01018785,11.0,8.04478420762398
284,E01018786,2.0,2.6968542252296404
285,E01018787,8.0,6.358990535754415
286,E01018788,10.0,9.684021164021152
287,E01018789,5.0,5.2391014795133755
288,E01018790,4.0,5.678556225244126
289,E01018791,5.0,6.4416217160372495
290,E01018792,3.0,5.095043322451398
291,E01018793,12.0,13.238998451967936
292,E01018794,0.0,1.8351969638914511
293,E01018795,3.0,2.7822122079145597
294,E01018796,0.0,1.5145956086951409
295,E01018797,17.0,16.091481150793648
296,E01018798,6.0,6.78227227673884
297,E01018799,4.0,9.188158068783055
298,E01018800,1.0,3.6116268672141207
299,E01018803,18.0,24.9495505952381
300,E01018804,20.0,23.249912367724868
301,E01018805,2.0,3.9868248610050045
302,E01018806,3.0,8.48295337301587
303,E01018807,21.0,15.471625000000007
304,E01018808,0.0,4.253872390549577
305,E01018809,92.0,68.28382506613762
306,E01018810,7.0,8.157480173761432
307,E01018811,0.0,2.289317866972355
308,E01018812,10.0,10.423499212781195
309,E01018813,5.0,4.998090572688166
310,E01018814,2.0,3.1918994034488914
311,E01018815,12.0,9.845943174350841
312,E01018816,7.0,6.233712038545134
313,E01018817,1.0,2.3963337447059607
314,E01018818,5.0,4.110897103052496
315,E01018819,10.0,9.092017827080326
316,E01018820,9.0,7.926156205099516
317,E01018821,5.0,4.282579109644174
318,E01018822,4.0,4.577643642299653
319,E01018823,4.0,5.7117521238293305
320,E01018824,8.0,9.279388244102917
321,E01018825,3.0,4.966091236442664
322,E01018826,9.0,7.144499128644397
323,E01018827,0.0,2.074810317226213
324,E01018828,2.0,3.3906933389278207
325,E01018829,5.0,4.755559155344225
326,E01018830,1.0,1.542424031667102
327,E01018831,0.0,2.2446402995133696
328,E01018832,0.0,1.8114275746555697
329,E01018833,3.0,3.130580396311414
330,E01018834,12.0,10.455850347751682
331,E01018835,11.0,13.068502399409367
332,E01018836,9.0,13.797814153439152
333,E01018837,12.0,16.71951157407407
334,E01018838,5.0,8.410443452380948
335,E01018839,10.0,11.984204034391535
336,E01018840,18.0,20.087426256613753
337,E01018841,11.0,11.660749918459533
338,E01018842,10.0,7.966361722306666
339,E01018843,3.0,3.2079525242763802
340,E01018844,14.0,14.100085317460328
341,E01018845,5.0,4.944036919812031
342,E01018846,2.0,3.146614835697996
343,E01018847,4.0,4.525392117332912
344,E01018848,3.0,3.275809386476172
345,E01018849,4.0,5.305556338242261
346,E01018850,0.0,1.2872203575086132
347,E01018851,2.0,4.047308225357134
348,E01018852,9.0,7.507679975588981
349,E01018853,9.0,10.39853869047619
350,E01018854,14.0,13.098830461570593
351,E01018855,33.0,23.574176917989426
352,E01018856,11.0,11.22971065679526
353,E01018857,9.0,10.084634920634917
354,E01018858,4.0,4.783726811226958
355,E01018859,14.0,10.9589327963277
356,E01018860,6.0,9.086919066076037
357,E01018861,4.0,4.011859747605654
358,E01018862,1.0,2.483648302736119
359,E01018863,1.0,2.0601136320236826
360,E01018864,5.0,5.337272746261251
361,E01018865,27.0,24.133344636844665
362,E01018866,23.0,14.73282909748658
363,E01018867,18.0,17.844804894179898
364,E01018868,44.0,31.595387896825407
365,E01018869,15.0,11.495922373945556
366,E01018870,21.0,20.038145833333324
367,E01018871,31.0,17.6647528325198
368,E01018872,1.0,2.772527150392027
369,E01018873,1.0,3.333469538574466
370,E01018874,7.0,9.352704375589068
371,E01018875,7.0,10.357347160514937
372,E01018876,7.0,6.637772753901586
373,E01018877,87.0,32.61020390945894
374,E01018878,57.0,37.92471431577676
375,E01018879,3.0,3.5097248473967593
376,E01018880,3.0,3.9066386114900116
377,E01018881,0.0,2.360306703470947
378,E01018882,0.0,2.1579905178811964
379,E01018883,3.0,3.7283361609923644
380,E01018884,3.0,3.6451259109865606
381,E01018885,10.0,9.849445767195766
382,E01018886,17.0,16.720862704425205
383,E01018887,15.0,14.894525756413007
384,E01018888,12.0,16.007479888167385
385,E01018889,2.0,2.7059731814942287
386,E01018890,3.0,3.836877560062077
387,E01018891,6.0,4.8051093862822425
388,E01018892,7.0,5.710880217079242
389,E01018893,10.0,9.266448203724318
390,E01018894,1.0,3.4244019573765643
391,E01018895,16.0,13.415150770844726
392,E01018896,4.0,5.51414171135672
393,E01018897,37.0,28.167687830687797
394,E01018898,7.0,9.240946428571434
395,E01018899,27.0,21.60121254208753
396,E01018900,0.0,1.7593924521609536
397,E01018901,5.0,5.9463911354033305
398,E01018902,1.0,2.140729974993264
399,E01018903,2.0,9.621812590187591
400,E01018904,3.0,4.075783048110925
401,E01018905,10.0,7.48702457745739
402,E01018906,3.0,3.4675462068470364
403,E01018907,9.0,7.547929641389222
404,E01018908,7.0,6.35062604678478
405,E01018909,8.0,8.10427228134029
406,E01018910,19.0,19.264124549062064
407,E01018911,25.0,22.84552149470901
408,E01018912,12.0,8.168906814433628
409,E01018913,17.0,21.235013888888933
410,E01018914,10.0,10.80300484529561
411,E01018915,3.0,6.68482457453342
412,E01018916,6.0,5.736626165715758
413,E01018917,2.0,2.420163535877885
414,E01018918,4.0,4.713206964459247
415,E01018919,1.0,1.9754042851720506
416,E01018920,2.0,3.55432083248849
417,E01018921,2.0,3.0551644536735942
418,E01018922,4.0,4.542245628076592
419,E01018923,2.0,2.3011872534855815
420,E01018924,0.0,2.2177501100443675
421,E01018925,4.0,3.88525787353079
422,E01018926,2.0,3.503503465010287
423,E01018927,12.0,10.864934893237768
424,E01018928,19.0,19.67659958791205
425,E01018929,16.0,12.467453196228995
426,E01018930,9.0,12.803986040153813
427,E01018931,3.0,3.924449471644063
428,E01018932,20.0,19.106706679894167
429,E01018933,19.0,25.119505952380937
430,E01018934,19.0,11.61455561265408
431,E01018935,5.0,8.338360558408217
432,E01018936,14.0,14.367388227513223
433,E01018937,6.0,8.167556593869092
434,E01018938,13.0,10.875128545610163
435,E01018940,4.0,3.964984817261207
436,E01018941,1.0,3.298496379326487
437,E01018942,6.0,5.902114948705614
438,E01018943,10.0,7.811693765674631
439,E01018944,4.0,3.8330183394065647
440,E01018945,10.0,6.585713122896196
441,E01018946,18.0,13.685192460317461
442,E01018947,8.0,13.760308531746045
443,E01018948,5.0,7.3443708791208735
444,E01018949,8.0,9.32466633597884
445,E01018950,16.0,22.298849537037047
446,E01018951,1.0,2.5989799765421657
447,E01018952,1.0,1.7989368673119108
448,E01018953,3.0,3.5757915354682375
449,E01018954,1.0,3.1130924116305625
450,E01018955,1.0,2.8607893132546742
451,E01018956,2.0,2.9854988460015646
452,E01018957,3.0,4.871882155912365
453,E01018958,1.0,6.151703533026113
454,E01018959,2.0,3.4362710253602016
455,E01018960,3.0,5.586615820480904
456,E01018961,6.0,9.639252645502644
457,E01018962,5.0,5.096328844326935
458,E01018965,3.0,3.972186544448616
459,E01018966,1.0,1.7164037805679482
460,E01018967,4.0,3.177500324507461
461,E01018968,1.0,3.0816553972503415
462,E01018969,2.0,2.893866553090658
463,E01018970,4.0,3.7091851310922372
464,E01018971,3.0,4.597965229010902
465,E01018972,11.0,14.794471746211881
466,E01018973,0.0,2.7983808722768955
467,E01018974,4.0,5.173622610295571
468,E01018975,4.0,4.198199416709308
469,E01018976,4.0,5.1491873949892195
470,E01018977,8.0,10.400865410052901
471,E01018978,4.0,4.1333841537917735
472,E01018979,0.0,2.6330835356300826
473,E01018980,2.0,3.626790633254865
474,E01018981,7.0,7.463556870524762
475,E01018982,8.0,10.575635964912287
476,E01018983,5.0,6.209107723775192
477,E01018984,17.0,15.642589947089943
478,E01018985,4.0,5.161814922977062
479,E01018986,1.0,4.850262566137564
480,E01018987,7.0,5.705569042433176
481,E01018988,2.0,3.6774707524943158
482,E01018989,2.0,3.227648191811623
483,E01018990,2.0,4.138580587204156
484,E01018991,6.0,5.409096310962073
485,E01018992,1.0,2.988378409719281
486,E01018993,0.0,5.726761021833602
487,E01018994,8.0,8.75031150793651
488,E01018995,42.0,40.60208928571424
489,E01018996,26.0,22.678496693121705
490,E01018997,14.0,17.915620701058202
491,E01018998,10.0,13.779779100529101
492,E01018999,44.0,48.358094246031776
493,E01019000,5.0,8.798294523411364
494,E01019001,35.0,31.405943121693113
495,E01019002,2.0,4.666396760150468
496,E01019003,5.0,4.845391878193174
497,E01019004,4.0,8.26618958855472
498,E01019005,0.0,3.3131411240550266
499,E01019006,2.0,2.991627858696661
500,E01019007,6.0,6.0111028660113135
501,E01019008,4.0,7.306272222671121
502,E01019009,9.0,9.740259720127366
503,E01019010,1.0,4.4978344426121755
504,E01019011,6.0,7.147052528490023
505,E01019012,8.0,15.392215277777787
506,E01019013,6.0,8.133449608088435
507,E01019014,3.0,3.6988047698829307
508,E01019015,11.0,9.336407440560391
509,E01019016,4.0,5.050796080893108
510,E01019017,8.0,6.946528325945181
511,E01019018,10.0,6.539126325332819
512,E01019019,11.0,11.679197039072035
513,E01019020,91.0,62.73234788359788
514,E01019021,9.0,7.448296323498623
515,E01019022,16.0,15.98915475631173
516,E01019023,12.0,11.661524891774887
517,E01019024,2.0,2.9824256896314902
518,E01019025,3.0,3.3596901350346036
519,E01019026,4.0,3.5814945004382865
520,E01019027,1.0,3.6388299285019254
521,E01019028,32.0,40.823782738095254
522,E01019029,59.0,51.55973541967294
523,E01019030,7.0,9.218776130255257
524,E01019031,3.0,7.992288207163212
525,E01019032,2.0,3.8639496499341766
526,E01019033,27.0,23.44789228036175
527,E01019034,19.0,15.749074128606102
528,E01019035,1.0,3.378287966924053
529,E01019036,3.0,3.8771411646673095
530,E01019037,3.0,4.130334296163931
531,E01019038,4.0,5.140127862877862
532,E01019039,2.0,2.5293950794814717
533,E01019040,2.0,3.1672993901359168
534,E01019041,9.0,14.150179277106918
535,E01019042,9.0,11.85797055137844
536,E01019043,12.0,10.247361562049072
537,E01019044,8.0,6.809589984914671
538,E01019045,10.0,12.377547919672915
539,E01019046,5.0,7.979864087301587
540,E01019047,42.0,25.141003968253983
541,E01019048,38.0,22.266995548433034
542,E01019049,14.0,16.731560846560832
543,E01019050,16.0,12.716962436832166
544,E01019051,8.0,9.60989153439153
545,E01019052,2.0,4.497058295404958
546,E01019053,5.0,6.834865452738043
547,E01019054,3.0,4.478338674150432
548,E01019055,3.0,6.2479415790302895
549,E01019056,17.0,14.090908068783056
550,E01019057,7.0,7.906713293650792
551,E01019058,8.0,7.270282793595285
552,E01019059,6.0,6.017337038347465
553,E01019060,2.0,3.6930953744559734
554,E01019061,2.0,3.797612172535153
555,E01019062,11.0,11.473458415119003
556,E01019063,12.0,9.091548054738904
557,E01019064,5.0,6.1586196632445915
558,E01019065,4.0,5.367347713739993
559,E01019066,2.0,2.9401726923060187
560,E01019067,5.0,5.002675446072812
561,E01019068,3.0,3.4641952199794126
562,E01019069,2.0,3.638925854609062
563,E01019070,2.0,4.998655753968253
564,E01019071,5.0,5.103797130405825
565,E01019072,1.0,3.57288830141926
566,E01019073,6.0,4.716648306420429
567,E01019074,6.0,8.162008650097459
568,E01019075,11.0,8.494161050104072
569,E01019076,18.0,15.714108796296289
570,E01019077,16.0,20.39906084656083
571,E01019886,12.0,11.47284788359788
572,E01019887,32.0,22.575548941798942
573,E01019888,11.0,11.959198412698417
574,E01019889,1.0,3.0183114846247814
575,E01019890,3.0,3.7471883897683664
576,E01019891,3.0,3.7648745114175814
577,E01019892,6.0,10.76094808201058
578,E01019893,8.0,9.490977820926341
579,E01019894,2.0,4.4596100270882175
580,E01019895,0.0,1.3360067397627482
581,E01019896,2.0,3.9865964037971664
582,E01019897,0.0,3.2996358402694326
583,E01019898,13.0,9.14136363660736
584,E01019899,2.0,3.150784852224808
585,E01019900,2.0,2.820552285339464
586,E01019901,1.0,1.8814229787464842
587,E01019902,3.0,3.9005175425219907
588,E01019903,1.0,2.63825114513052
589,E01019904,2.0,3.4202828827978116
590,E01019905,0.0,1.5951556938623754
591,E01019906,5.0,4.347580268937066
592,E01019907,1.0,1.8732762355405999
593,E01019908,1.0,3.7449758673039937
594,E01019909,5.0,4.4418719711238435
595,E01019910,17.0,10.904804610030956
596,E01019911,4.0,3.8550084099283564
597,E01019912,14.0,12.897517765186882
598,E01019913,10.0,9.445138437950947
599,E01019914,18.0,15.926916997354484
600,E01019915,2.0,4.342155066920474
601,E01019916,56.0,50.71556514550269
602,E01019917,9.0,9.415386724386726
603,E01019918,31.0,33.14251818783071
604,E01019919,12.0,14.833029812779799
605,E01019920,10.0,8.830779180065866
606,E01019921,6.0,5.057018773797702
607,E01019922,4.0,6.839547571241546
608,E01019923,0.0,2.1481081422226755
609,E01019924,3.0,4.400400119090065
610,E01019925,4.0,3.457488095540106
611,E01019927,7.0,9.825574074074076
612,E01019928,6.0,5.552069985835494
613,E01019929,1.0,2.468612433086551
614,E01019930,2.0,2.7976905260828806
615,E01019931,0.0,1.5195027147156934
616,E01019932,19.0,17.370358465608465
617,E01019933,4.0,6.160415942368559
618,E01019934,5.0,5.222638968502477
619,E01019935,2.0,2.3497302749823725
620,E01019936,1.0,1.6931079539637148
621,E01019937,2.0,2.6365277073017097
622,E01019938,4.0,3.9787118395958485
623,E01019939,1.0,2.0265624987645743
624,E01019940,2.0,2.78511913282897
625,E01019942,14.0,10.710062039922068
626,E01019943,2.0,2.736481330708398
627,E01019944,2.0,4.759260073406535
628,E01019945,5.0,4.8943011562708465
629,E01019946,1.0,2.723141336482841
630,E01019947,3.0,15.002417989417996
631,E01019948,4.0,4.476028498893662
632,E01019949,1.0,2.4510948466423486
633,E01019950,8.0,7.070941783882013
634,E01019951,7.0,5.643004610997858
635,E01019952,4.0,4.4159606574278625
636,E01019953,5.0,4.739845280658247
637,E01019954,2.0,5.712460621705193
638,E01019955,6.0,5.9819497109132245
639,E01019956,8.0,8.590364943199491
640,E01019957,3.0,6.12780360679626
641,E01019958,2.0,4.635577649535148
642,E01019959,1.0,1.6498206022601145
643,E01019960,1.0,1.7326683975814956
644,E01019961,2.0,3.2311292944607963
645,E01019962,3.0,3.6499038938389594
646,E01019963,1.0,2.1925129025000007
647,E01019964,5.0,12.59000736531987
648,E01019965,0.0,2.758273000272672
649,E01019966,0.0,1.38637450715275
650,E01019967,0.0,1.7450117619547458
651,E01019968,6.0,7.380978683353672
652,E01019969,10.0,9.839875489282457
653,E01019970,13.0,10.32900195078394
654,E01019971,18.0,24.124651455026445
655,E01019972,10.0,13.119414411976914
656,E01019973,9.0,9.326931216931213
657,E01019974,2.0,4.8408113447767525
658,E01019975,3.0,7.269140919758422
659,E01019976,6.0,6.450473534095318
660,E01019977,1.0,4.125815187245974
661,E01019980,5.0,10.474686507936502
662,E01019981,13.0,12.178827847109826
663,E01019982,8.0,11.999124547479797
664,E01019983,3.0,5.443824582824585
665,E01019984,1.0,3.1679000288955055
666,E01019985,15.0,15.427201719576736
667,E01019986,11.0,10.19295704711955
668,E01019987,7.0,15.4317833994709
669,E01019988,6.0,8.563889550264557
670,E01019989,3.0,8.529958122895628
671,E01019990,15.0,15.071923941798946
672,E01019991,14.0,13.969859457671959
673,E01019992,9.0,8.82804844802943
674,E01019993,0.0,3.0500739590207733
675,E01019994,31.0,38.38789021164023
676,E01019995,233.0,191.00339649470888
677,E01019996,9.0,26.091941768879256
678,E01019997,14.0,18.310948082010565
679,E01019998,1.0,6.151793809808615
680,E01019999,0.0,5.284824895459974
681,E01020000,10.0,12.549265271765274
682,E01020001,6.0,7.020069410563233
683,E01020002,18.0,14.281562915282393
684,E01020003,3.0,4.079406691840737
685,E01020004,8.0,7.2321877942405335
686,E01020005,19.0,15.130561507936493
687,E01020006,33.0,29.4731517857143
688,E01020007,18.0,22.286257936507944
689,E01020008,15.0,21.295429894179883
690,E01020009,4.0,10.376975198412705
691,E01020010,15.0,16.59610317460319
692,E01020011,12.0,9.188083056674287
693,E01020012,9.0,9.757769052706557
694,E01020013,25.0,21.812301256613768
695,E01020014,5.0,10.13381078643578
696,E01020015,8.0,14.915589285714274
697,E01020016,338.0,244.39679034391506
698,E01020017,133.0,132.36384623015863
699,E01020018,160.0,155.58761078042323
700,E01020019,2.0,12.197884920634914
701,E01020020,14.0,22.588093253968264
702,E01020021,40.0,36.10759358465605
703,E01020022,71.0,82.85206150793655
704,E01020023,14.0,15.120522486772488
705,E01020024,9.0,9.423780423280428
706,E01020025,18.0,22.987413660413672
707,E01020026,6.0,7.7087618326118275
708,E01020027,9.0,9.299573218448202
709,E01020029,20.0,17.6295472883598
710,E01020030,45.0,39.72338326719581
711,E01020031,6.0,9.264493837181337
712,E01020032,24.0,21.51177414021167
713,E01020033,12.0,11.20624734524735
714,E01020035,10.0,13.380600859788352
715,E01020036,10.0,8.978767464289524
716,E01020037,9.0,10.592419861941975
717,E01020038,14.0,13.150848875661373
718,E01020039,7.0,11.35806036556037
719,E01020040,9.0,9.849818121693119
720,E01020041,4.0,9.404888888888882
721,E01020042,4.0,4.3958788221851135
722,E01020043,7.0,5.684146689533666
723,E01020044,1.0,2.011585617836716
724,E01020045,8.0,5.305961064595606
725,E01020046,2.0,2.444014481650449
726,E01020047,4.0,4.998438563986682
727,E01020048,41.0,36.11201752645503
728,E01020049,1.0,1.6644697574289067
729,E01020050,3.0,3.3424813443438053
730,E01020051,6.0,4.663111292188297
731,E01020052,40.0,27.801165939572954
732,E01020053,1.0,3.888646108691544
733,E01020054,31.0,18.2354521649303
734,E01020055,17.0,15.535684075914324
735,E01020056,4.0,4.924634044751045
736,E01020057,1.0,7.786286833536831
737,E01020058,5.0,5.478734995250449
738,E01020059,8.0,6.904948507968038
739,E01020060,9.0,14.32325076580339
740,E01020061,11.0,9.819022193999157
741,E01020062,4.0,3.826712484255141
742,E01020063,1.0,4.483368322421957
743,E01020064,2.0,4.478064072431697
744,E01020065,26.0,21.9410396825397
745,E01020066,10.0,11.277741753616747
746,E01020067,7.0,10.567651539621025
747,E01020068,2.0,2.753193120272491
748,E01020069,2.0,2.509421999670841
749,E01020070,1.0,1.7647898056514293
750,E01020071,0.0,2.8678673237514762
751,E01020072,1.0,1.8765533218285042
752,E01020073,3.0,2.9721461568093415
753,E01020074,1.0,2.275249444116025
754,E01020075,3.0,3.3237385367215615
755,E01020076,2.0,2.7214978498526747
756,E01020077,1.0,1.8086309012678812
757,E01020078,10.0,11.883911044973534
758,E01020079,11.0,10.105001984126982
759,E01020080,2.0,2.732954525452585
760,E01020081,2.0,3.8865501576128425
761,E01020082,0.0,1.3193146203531245
762,E01020083,3.0,4.79853506983728
763,E01020084,4.0,4.4856992421565165
764,E01020085,13.0,9.680555330740114
765,E01020086,9.0,7.442181682949305
766,E01020087,2.0,3.0732842302415833
767,E01020088,5.0,5.285774215960842
768,E01020089,14.0,11.521794850219424
769,E01020090,1.0,2.110489184206391
770,E01020091,6.0,5.343452476530187
771,E01020092,6.0,5.838693459268744
772,E01020093,19.0,16.289705266955274
773,E01020094,231.0,149.1555221560847
774,E01020095,11.0,14.423740949596215
775,E01020096,30.0,28.556869047619045
776,E01020097,8.0,6.380454912009776
777,E01020098,2.0,3.9524184906675806
778,E01020099,3.0,3.989140999573686
779,E01020100,3.0,4.314926566299443
780,E01020101,3.0,4.523639625519968
781,E01020102,9.0,8.28142579472185
782,E01020103,18.0,16.80898677248677
783,E01020104,12.0,13.659081538228662
784,E01020105,12.0,9.491653873707959
785,E01020106,1.0,2.55558987024537
786,E01020107,3.0,3.101950336627377
787,E01020108,11.0,13.058532407407403
788,E01020109,11.0,7.972675707744109
789,E01020110,9.0,20.31188955026455
790,E01020111,30.0,25.055276124338608
791,E01020112,33.0,39.30164914021161
792,E01020113,48.0,38.28364252645501
793,E01020114,20.0,17.66146226434951
794,E01020115,10.0,7.633888395306209
795,E01020116,15.0,14.470819444444452
796,E01020117,6.0,6.088810491874634
797,E01020118,10.0,11.620181929181944
798,E01020119,8.0,6.071480875969582
799,E01020120,6.0,5.544483644169482
800,E01020121,12.0,8.90372658188133
801,E01020122,32.0,15.690200543904178
802,E01020123,7.0,7.379702023480098
803,E01020124,43.0,23.27516428881753
804,E01020125,6.0,5.156464005352546
805,E01020126,10.0,9.77266018377049
806,E01020127,3.0,3.1764714072855718
807,E01020128,25.0,14.257075891345293
808,E01020129,31.0,21.110674101809188
809,E01020130,12.0,14.257735327903092
810,E01020131,2.0,3.9656670653731383
811,E01020132,14.0,12.614899470899466
812,E01020133,4.0,5.070292191282694
813,E01020134,34.0,24.387987433862452
814,E01020135,8.0,8.833950246512742
815,E01020136,9.0,9.235433669380726
816,E01020137,14.0,14.590184193121708
817,E01020138,2.0,3.2569761965172743
818,E01020139,22.0,19.52376770683022
819,E01020140,10.0,9.366227377061934
820,E01020141,17.0,16.98770763471989
821,E01020142,10.0,9.179743717631101
822,E01020143,4.0,6.060904378029379
823,E01020144,2.0,3.148057658699696
824,E01020145,10.0,10.779122955747955
825,E01020146,0.0,4.233793847678522
826,E01020147,7.0,5.734756341223133
827,E01020148,3.0,3.0384851343335404
828,E01020149,10.0,6.878929009999894
829,E01020150,5.0,5.418353568542392
830,E01020151,2.0,4.101939822795211
831,E01020152,8.0,10.635452380952385
832,E01020153,2.0,3.4520521825239765
833,E01020154,4.0,10.287133537758532
834,E01020155,4.0,9.141100529100521
835,E01020156,4.0,3.8233006374360965
836,E01020157,7.0,6.2075851396938715
837,E01020158,3.0,3.723086703830196
838,E01020159,9.0,6.5716230329810585
839,E01020160,8.0,6.594324492370275
840,E01020161,19.0,15.745296354652986
841,E01020162,1.0,2.4563148583400594
842,E01020163,1.0,2.42037422411162
843,E01020164,5.0,5.1770029911606965
844,E01020165,1.0,2.8680074960219413
845,E01020166,0.0,1.3298882555850617
846,E01020167,5.0,4.1433842076949
847,E01020168,23.0,15.611589290733555
848,E01020169,27.0,22.196283399470882
849,E01020170,10.0,7.363034863042068
850,E01020171,1.0,3.369321982962827
851,E01020172,11.0,8.692695270903977
852,E01020173,6.0,6.228257262399906
853,E01020174,2.0,2.448337919449749
854,E01020175,1.0,2.106230473948291
855,E01020176,0.0,2.4236919141627338
856,E01020177,3.0,4.123088103296705
857,E01020178,4.0,3.746808876207715
858,E01020179,4.0,4.564986865652742
859,E01020180,52.0,30.428165117970256
860,E01020181,11.0,9.044108377280434
861,E01020182,5.0,7.064681929741699
862,E01020183,26.0,25.068742724867707
863,E01020184,19.0,16.41298511904762
864,E01020185,2.0,2.1891240104792744
865,E01020186,0.0,1.0714688383345754
866,E01020187,10.0,8.325605486288689
867,E01020188,5.0,4.443860311103017
868,E01020189,26.0,21.463149651274648
869,E01020190,3.0,3.219121200880537
870,E01020191,25.0,20.34829927248679
871,E01020192,5.0,4.016415491337324
872,E01020193,1.0,2.267164089605171
873,E01020194,2.0,2.539704390237078
874,E01020195,2.0,3.4547897086760266
875,E01020196,4.0,7.773897764645749
876,E01020197,7.0,5.675136452416544
877,E01020198,6.0,7.99355504348711
878,E01020199,9.0,9.453263556033965
879,E01020200,1.0,2.3483146202321903
880,E01020201,1.0,2.086697326561122
881,E01020202,4.0,4.361887431780359
882,E01020203,1.0,1.9916176830905428
883,E01020204,11.0,9.796554292929287
884,E01020205,4.0,3.6035654510803563
885,E01020206,5.0,5.078335990073404
886,E01020207,6.0,8.076049573112078
887,E01020208,11.0,9.325325325566192
888,E01020209,4.0,4.693008935566062
889,E01020210,4.0,2.962597683905296
890,E01020211,15.0,15.123114417989427
891,E01020212,1.0,4.388564877455289
892,E01020213,4.0,5.431905722335265
893,E01020214,4.0,3.894735669748789
894,E01020215,3.0,2.813607108960965
895,E01020216,8.0,10.405505559985839
896,E01020217,33.0,28.810745580808053
897,E01020218,79.0,49.13552380952381
898,E01020219,27.0,20.3188288690476
899,E01020220,7.0,7.372015447501639
900,E01020221,9.0,7.772068775893998
901,E01020222,3.0,2.9314632893299724
902,E01020223,8.0,6.227061888345252
903,E01020224,5.0,9.698774712002956
904,E01020225,24.0,21.138762566137572
905,E01020226,17.0,11.339960285790216
906,E01020227,45.0,25.904287408424892
907,E01020228,12.0,16.37552050264551
908,E01020229,8.0,11.48755798771121
909,E01020230,3.0,4.5787073941328655
910,E01020231,5.0,5.092922599480529
911,E01020232,2.0,5.1108729588609325
912,E01020233,3.0,3.528868758714381
913,E01020234,3.0,4.920300655223568
914,E01020235,6.0,7.51962139666008
915,E01020236,6.0,4.5993156011457765
916,E01020237,3.0,3.3201682223401883
917,E01020238,0.0,1.5334246626310133
918,E01020239,2.0,2.5569958574695173
919,E01020240,22.0,13.1614703992689
920,E01020241,22.0,13.028595309060858
921,E01020242,2.0,3.4748028187517837
922,E01020243,3.0,3.2605674952094885
923,E01020244,1.0,2.4043603297341996
924,E01020245,3.0,3.3985618898857384
925,E01020246,5.0,4.45825737797676
926,E01020247,2.0,4.088418446508159
927,E01020248,4.0,4.21872923345302
928,E01020249,4.0,4.512838130092341
929,E01020250,4.0,4.742782335616354
930,E01020251,4.0,4.204536050848781
931,E01020252,27.0,17.78499383718135
932,E01020253,0.0,1.9766344943034202
933,E01020254,6.0,6.095619039201093
934,E01020255,6.0,4.9762210681957395
935,E01020256,11.0,8.251144661771889
936,E01020257,2.0,2.721689853364703
937,E01020258,4.0,5.767539143740795
938,E01020259,3.0,3.2765905098144903
939,E01020260,0.0,2.188401423612288
940,E01020261,3.0,3.920809594759525
941,E01020262,4.0,3.806032696371149
942,E01020263,3.0,2.8797858167156174
943,E01020264,12.0,12.872368801525788
944,E01020265,2.0,2.6343461052859283
945,E01020266,9.0,8.247913590060229
946,E01020267,6.0,5.928211289235224
947,E01020268,0.0,2.935132079366345
948,E01020269,12.0,30.964110209235194
949,E01020270,5.0,4.874286121029686
950,E01020271,15.0,13.963460732742709
951,E01020272,8.0,10.406641172942043
952,E01020273,1.0,1.97061620885339
953,E01020274,1.0,2.183572794405704
954,E01020275,1.0,3.3594269779519768
955,E01020276,0.0,2.5098836037306276
956,E01020277,19.0,16.993562830687818
957,E01020278,2.0,3.295307304145131
958,E01020279,17.0,16.461359758297263
959,E01020280,51.0,45.601678240740725
960,E01020281,3.0,4.799306684214333
961,E01020282,40.0,26.567985058922552
962,E01020283,12.0,8.74648943708452
963,E01020284,25.0,20.16545601851852
964,E01020285,10.0,11.680341269841273
965,E01020286,1.0,2.10214029656945
966,E01020287,8.0,6.011715168539265
967,E01020288,0.0,2.7220682943963905
968,E01020289,2.0,2.3481925490242643
969,E01020290,2.0,2.5395973112559704
970,E01020291,4.0,4.157568921762112
971,E01020292,2.0,3.336320959207588
972,E01020293,5.0,6.635321966420989
973,E01020294,6.0,7.655892836962227
974,E01020295,4.0,3.458834330766336
975,E01020296,6.0,4.8665589119942645
976,E01020297,4.0,6.561698488370688
977,E01020298,0.0,2.195147674378286
978,E01020299,5.0,5.1798944863920395
979,E01020300,18.0,11.060961283385566
980,E01020301,3.0,3.1588612069882043
981,E01020302,1.0,2.6146365456263783
982,E01020303,1.0,1.7902975100011016
983,E01020304,4.0,6.015805997073798
984,E01020305,13.0,13.655425018457008
985,E01020306,1.0,2.818082165242569
986,E01020307,5.0,6.983186186099981
987,E01020308,2.0,2.726335544357995
988,E01020309,0.0,1.3056676577505766
989,E01020310,10.0,11.403822751322748
990,E01020311,0.0,2.2955759498124086
991,E01020312,2.0,2.388721257163764
992,E01020313,1.0,4.139699532956416
993,E01020314,2.0,2.5236342670392293
994,E01020315,3.0,4.042655674918192
995,E01020316,3.0,3.3727392154275897
996,E01020317,7.0,4.9325763379543845
997,E01020318,2.0,3.6961675316431966
998,E01020319,6.0,4.652942492842602
999,E01020320,1.0,2.1621017298174925
1000,E01020321,7.0,8.00148905398755
1001,E01020322,5.0,7.62280521099271
1002,E01020323,20.0,19.21856117724869
1003,E01020324,7.0,4.881703062758369
1004,E01020325,3.0,3.183099718165314
1005,E01020326,4.0,4.963576096395711
1006,E01020327,3.0,5.0307202700922815
1007,E01020328,25.0,19.554548130110614
1008,E01020329,13.0,11.465041946479433
1009,E01020330,37.0,28.443737944925463
1010,E01020331,3.0,3.0665771503807564
1011,E01020332,30.0,24.706608134920636
1012,E01020333,6.0,5.659197055866264
1013,E01020334,26.0,18.20267139440316
1014,E01020335,9.0,7.819765143135842
1015,E01020336,3.0,3.3158241632480614
1016,E01020337,12.0,11.835403033330362
1017,E01020338,19.0,14.658499927849922
1018,E01020339,1.0,2.0879418555155214
1019,E01020340,3.0,3.1252992675912177
1020,E01020341,16.0,8.15750299738592
1021,E01020342,5.0,4.972180801144389
1022,E01032628,3.0,3.134328601024079
1023,E01032657,36.0,65.13385975829728
1024,E01032658,347.0,235.18514120370338
1025,E01033232,7.0,10.352841269841282
1026,E01033233,40.0,41.96543154761904
1027,E01033234,29.0,20.594458994709
1028,E01033235,1.0,5.7295261243386255
1029,E01033236,0.0,2.94548511904762
1030,E01033289,1.0,3.7269766102249773
1031,E01033291,3.0,3.3864308066467994
1032,E01033292,8.0,10.131891203703704
1033,E01033294,2.0,6.2251398207299555
