,lsoa_code,actual,predicted
0,E01015023,40.0,30.981561507936508
1,E01015024,7.0,11.87524422799423
2,E01015025,14.0,15.925505501442995
3,E01015026,27.0,25.106497564935072
4,E01015027,14.0,16.84118614718615
5,E01015028,32.0,28.57506304112553
6,E01015029,24.0,21.762364357864367
7,E01015030,42.0,34.16675375319125
8,E01015031,39.0,38.06657593101346
9,E01015032,89.0,68.10059722222223
10,E01015033,43.0,29.704785714285713
11,E01015034,28.0,26.033892857142845
12,E01015035,20.0,18.639781926406926
13,E01015036,23.0,19.558835775335783
14,E01015037,26.0,23.45766162309912
15,E01015038,33.0,28.258155844155866
16,E01015039,8.0,15.272554292929302
17,E01015040,13.0,17.67813536463536
18,E01015041,3.0,9.782023448773451
19,E01015042,20.0,21.921090818903316
20,E01015043,23.0,27.39186904761904
21,E01015044,72.0,56.519438852813856
22,E01015045,18.0,26.4754512987013
23,E01015046,6.0,18.87084740259741
24,E01015047,24.0,25.921338293650777
25,E01015048,10.0,24.98247411616161
26,E01015049,38.0,35.58382368326122
27,E01015050,49.0,50.67957693001445
28,E01015051,31.0,30.69942956349209
29,E01015052,51.0,45.2040233585859
30,E01015053,23.0,31.829266955266952
31,E01015054,21.0,27.702301226551235
32,E01015055,18.0,18.367533459595965
33,E01015056,13.0,15.68569005994005
34,E01015057,42.0,34.94513825757574
35,E01015058,15.0,17.64624134199134
36,E01015059,21.0,21.317136904761906
37,E01015060,36.0,29.7614824134199
38,E01015061,55.0,45.40770607864358
39,E01015062,44.0,41.38508982683983
40,E01015063,16.0,18.665546321733828
41,E01015064,10.0,13.770231150793652
42,E01015065,7.0,13.232965277777783
43,E01015066,15.0,14.884247023809534
44,E01015067,9.0,11.477386904761904
45,E01015068,9.0,11.63133856421356
46,E01015069,23.0,23.05966026334777
47,E01015070,47.0,39.843180555555534
48,E01015071,24.0,24.336677128427137
49,E01015072,12.0,18.31906908369408
50,E01015073,12.0,15.200922348484857
51,E01015074,21.0,19.85865566378066
52,E01015075,27.0,25.284955537518048
53,E01015076,19.0,19.368681727994236
54,E01015077,42.0,36.37238221500722
55,E01015078,19.0,22.578222187534674
56,E01015079,19.0,18.983041486291487
57,E01015080,15.0,17.67828445165945
58,E01015081,31.0,25.808787247474744
59,E01015082,4.0,11.799545634920635
60,E01015083,13.0,16.675386870074373
61,E01015084,18.0,17.96576875901877
62,E01015085,34.0,28.071446969696964
63,E01015086,18.0,19.333404130591635
64,E01015087,41.0,32.5713299963925
65,E01015088,13.0,17.533426316738815
66,E01015089,57.0,40.084555104617614
67,E01015090,25.0,19.002683892496393
68,E01015091,18.0,16.618031343656337
69,E01015092,38.0,34.26743515512267
70,E01015093,22.0,20.99683012126764
71,E01015094,17.0,18.11255510461761
72,E01015095,20.0,19.544365079365097
73,E01015096,15.0,16.545139430014427
74,E01015097,12.0,13.394543109668113
75,E01015098,32.0,30.677126963314453
76,E01015099,30.0,29.63979725829727
77,E01015100,41.0,34.73101269563768
78,E01015101,33.0,28.55754338023087
79,E01015102,31.0,27.59761525974025
80,E01015103,16.0,18.274654852092354
81,E01015104,22.0,19.09425481462982
82,E01015105,29.0,25.5282895923521
83,E01015106,20.0,19.979273358585864
84,E01015107,10.0,13.955596049783551
85,E01015108,5.0,9.933304743867243
86,E01015109,9.0,13.672094246031739
87,E01015110,12.0,12.939007936507934
88,E01015111,15.0,16.790996031746026
89,E01015112,6.0,10.72979023060273
90,E01015113,14.0,14.101634289321785
91,E01015114,11.0,13.102999639249632
92,E01015115,5.0,12.6996731948607
93,E01015116,10.0,11.946620761183262
94,E01015117,11.0,12.016941891441887
95,E01015118,17.0,16.433454545454545
96,E01015119,7.0,10.427525467587968
97,E01015120,14.0,14.519787518037514
98,E01015121,7.0,10.794252344877348
99,E01015122,6.0,9.742595328282828
100,E01015123,12.0,15.244287823287818
101,E01015124,13.0,14.280750721500727
102,E01015125,8.0,9.719974178599182
103,E01015126,6.0,8.587018939393937
104,E01015127,8.0,11.057124549062044
105,E01015128,15.0,14.662790848040851
106,E01015129,6.0,9.749744498556995
107,E01015130,11.0,12.528702471139974
108,E01015131,12.0,12.683884108946613
109,E01015132,19.0,17.89595725108226
110,E01015133,16.0,14.162414224664229
111,E01015134,20.0,18.587249188311702
112,E01015135,34.0,27.067483134920618
113,E01015136,17.0,16.16365791847042
114,E01015137,16.0,15.066623376623387
115,E01015138,4.0,9.095984848484845
116,E01015139,5.0,7.7624659021534015
117,E01015140,10.0,11.751282106782106
118,E01015141,7.0,9.815460497835497
119,E01015142,9.0,12.953029310966805
120,E01015143,14.0,16.58781394300145
121,E01015144,14.0,17.24371013708515
122,E01015145,12.0,17.54861447580198
123,E01015146,12.0,16.69937076118326
124,E01015147,25.0,20.906750992063493
125,E01015148,12.0,16.258617334054836
126,E01015149,27.0,23.147674873737387
127,E01015150,19.0,19.27562896825397
128,E01015151,56.0,47.984302128427146
129,E01015152,40.0,39.014753427128454
130,E01015153,22.0,29.426566558441554
131,E01015155,45.0,39.55748214285714
132,E01015156,32.0,35.14713573232324
133,E01015157,48.0,48.64093885281386
134,E01015158,52.0,50.80865413059164
135,E01015159,18.0,17.45406989538241
136,E01015160,12.0,13.06450225468976
137,E01015161,8.0,12.82168807581308
138,E01015162,29.0,26.363000180375185
139,E01015163,11.0,13.337856150793657
140,E01015164,10.0,15.060563852813855
141,E01015165,7.0,12.157116341991339
142,E01015166,14.0,17.704686389998898
143,E01015167,19.0,20.628220418470413
144,E01015168,25.0,26.703545093795096
145,E01015169,61.0,51.1973684163059
146,E01015170,27.0,27.53133729464977
147,E01015171,52.0,45.32549540043289
148,E01015172,38.0,37.3697186077811
149,E01015173,80.0,58.41574053030301
150,E01015174,33.0,28.773817730880243
151,E01015175,43.0,39.68398664529913
152,E01015176,31.0,27.77448502886003
153,E01015177,36.0,33.44878652597402
154,E01015178,36.0,34.97632260101011
155,E01015179,33.0,35.42292595598846
156,E01015180,16.0,27.337551316738814
157,E01015181,32.0,35.99533802308802
158,E01015182,46.0,38.96146338383838
159,E01015183,10.0,10.053168740981244
160,E01015184,4.0,6.716180826118324
161,E01015185,8.0,10.270412518037524
162,E01015186,11.0,13.1332683982684
163,E01015187,9.0,8.652266865079369
164,E01015188,3.0,6.311024801587305
165,E01015189,10.0,10.643735209235215
166,E01015190,16.0,14.96801325757576
167,E01015191,30.0,25.794485389610387
168,E01015192,12.0,13.582163149350642
169,E01015193,38.0,25.632023393273386
170,E01015194,19.0,17.30469191919191
171,E01015195,39.0,28.376479437229456
172,E01015196,25.0,24.832828914141423
173,E01015197,3.0,5.663249632312134
174,E01015198,12.0,12.372134650072148
175,E01015199,10.0,11.100983134920634
176,E01015200,7.0,9.745206807081805
177,E01015201,21.0,17.81240729409481
178,E01015202,16.0,15.265108530358534
179,E01015203,17.0,14.766366411366416
180,E01015204,11.0,13.086590818903316
181,E01015205,30.0,22.260407294094797
182,E01015206,18.0,18.00168253968254
183,E01015207,15.0,15.313718406593402
184,E01015208,50.0,36.33975793650794
185,E01015209,48.0,37.84570211038961
186,E01015210,15.0,16.745785263347763
187,E01015211,13.0,13.566728715728713
188,E01015212,20.0,19.33143299062049
189,E01015213,13.0,13.914214285714285
190,E01015214,43.0,34.82220229076477
191,E01015215,16.0,15.321427398989906
192,E01015216,17.0,19.171458333333327
193,E01015217,64.0,51.9966076839827
194,E01015218,16.0,16.829705627705625
195,E01015219,28.0,25.328860715673205
196,E01015220,27.0,19.453938256188263
197,E01015221,19.0,16.739328823953816
198,E01015222,16.0,14.556917936230443
199,E01015223,10.0,10.292804112554114
200,E01015224,31.0,25.513510246697734
201,E01015225,32.0,23.79486841630593
202,E01015226,15.0,13.488202290764798
203,E01015227,21.0,17.97064125457875
204,E01015228,26.0,23.552893779831283
205,E01015229,27.0,25.32240297896547
206,E01015230,12.0,12.58043470418471
207,E01015231,51.0,46.49375126262626
208,E01015232,50.0,45.68636056998555
209,E01015233,30.0,29.858559343434376
210,E01015234,12.0,15.873095328282835
211,E01015235,26.0,25.003659056221565
212,E01015236,26.0,21.38090367965368
213,E01015237,18.0,17.302813492063493
214,E01015238,14.0,16.998443452380947
215,E01015239,15.0,18.854634920634904
216,E01015240,35.0,29.13534514790765
217,E01015241,35.0,27.18018253968254
218,E01015242,25.0,23.650553841991336
219,E01015243,10.0,12.523910082972586
220,E01015244,9.0,8.56464104645355
221,E01015245,5.0,6.552541666666665
222,E01015246,6.0,7.543079635642132
223,E01015247,10.0,10.835198953823953
224,E01015248,8.0,9.672676948051947
225,E01015249,20.0,17.9019448953824
226,E01015250,15.0,15.158625450937945
227,E01015251,14.0,14.60260624098124
228,E01015252,35.0,30.768448953823977
229,E01015253,12.0,15.91617640692641
230,E01015254,22.0,19.010349206349222
231,E01015255,92.0,70.75762211399712
232,E01015256,59.0,51.49703715728714
233,E01015257,26.0,23.14985975829727
234,E01015258,37.0,35.05731854256855
235,E01015259,43.0,32.98887842712844
236,E01015260,56.0,50.948778589466066
237,E01015261,45.0,41.89209505772004
238,E01015262,31.0,23.725024621212118
239,E01015263,22.0,21.149022546897548
240,E01015264,13.0,12.844934072871574
241,E01015265,13.0,12.57242207792207
242,E01015266,18.0,18.745752074314577
243,E01015267,33.0,35.1839338023088
244,E01015268,29.0,28.18095108363859
245,E01015269,30.0,26.145891289266295
246,E01015270,10.0,18.34922718253968
247,E01015271,20.0,17.274200702075714
248,E01018750,16.0,14.991538690476197
249,E01018751,9.0,14.022077561327562
250,E01018752,10.0,11.95730916305916
251,E01018753,3.0,4.684012355699858
252,E01018754,9.0,9.815284000721503
253,E01018755,6.0,7.182587481962478
254,E01018756,4.0,5.55459226190476
255,E01018757,5.0,7.768329725829725
256,E01018758,13.0,12.95476597014097
257,E01018759,7.0,8.128080447330447
258,E01018760,5.0,5.908021554834055
259,E01018761,12.0,9.873739267676765
260,E01018762,3.0,5.38017703823954
261,E01018763,11.0,10.192808982683983
262,E01018764,3.0,4.641890692640693
263,E01018765,5.0,6.0807170815295795
264,E01018766,10.0,10.517947150072157
265,E01018767,19.0,17.031077110389596
266,E01018768,11.0,12.810811507936508
267,E01018769,26.0,22.549739087301585
268,E01018770,20.0,17.280717171717168
269,E01018771,21.0,21.422797168109664
270,E01018772,19.0,14.614516414141416
271,E01018773,13.0,13.483892114829597
272,E01018774,10.0,10.482794823232316
273,E01018775,8.0,8.675518127705628
274,E01018776,2.0,5.949238816738818
275,E01018777,10.0,10.945087572150076
276,E01018778,10.0,10.343438311688317
277,E01018779,8.0,8.31663834776335
278,E01018780,4.0,6.716836670274171
279,E01018781,11.0,10.538757395382401
280,E01018782,4.0,5.945264332889335
281,E01018783,8.0,7.543929834054832
282,E01018784,7.0,6.896707341269843
283,E01018785,8.0,8.77282738095238
284,E01018786,11.0,11.764287941225431
285,E01018787,27.0,19.03996320346321
286,E01018788,10.0,11.876744678932177
287,E01018789,7.0,8.403352487789991
288,E01018790,6.0,8.779918470418473
289,E01018791,12.0,13.054702713952729
290,E01018792,17.0,18.08523394660894
291,E01018793,24.0,21.524842414529914
292,E01018794,5.0,7.752467712842722
293,E01018795,1.0,5.740998813686314
294,E01018796,4.0,8.033902867965372
295,E01018797,7.0,8.496472548285048
296,E01018798,5.0,9.219536796536795
297,E01018799,8.0,11.41986796536797
298,E01018800,6.0,8.053889700577194
299,E01018803,10.0,15.190835588023097
300,E01018804,14.0,17.547379474691965
301,E01018805,11.0,12.23323971861472
302,E01018806,16.0,16.177645736208227
303,E01018807,15.0,16.388121898934397
304,E01018808,3.0,7.913164862914863
305,E01018809,33.0,33.03750748556999
306,E01018810,6.0,9.094359758297253
307,E01018811,4.0,6.860345591908089
308,E01018812,7.0,10.441429202741702
309,E01018813,3.0,6.419612373737368
310,E01018814,25.0,18.06139844877345
311,E01018815,16.0,17.20238194444444
312,E01018816,10.0,10.982969246031741
313,E01018817,4.0,6.779774059274058
314,E01018818,5.0,6.606624819624817
315,E01018819,10.0,12.681877164502163
316,E01018820,14.0,13.672469787157286
317,E01018821,2.0,6.527255140692642
318,E01018822,6.0,8.767344246031747
319,E01018823,1.0,6.661180375180375
320,E01018824,6.0,9.342829455266957
321,E01018825,22.0,18.16090647546897
322,E01018826,12.0,13.005516594516594
323,E01018827,1.0,5.143534632034631
324,E01018828,3.0,5.258728854478855
325,E01018829,7.0,8.306754148629146
326,E01018830,2.0,5.401773809523812
327,E01018831,4.0,5.758023538961039
328,E01018832,3.0,5.123753878066379
329,E01018833,17.0,12.549249528249513
330,E01018834,7.0,9.355086489898994
331,E01018835,14.0,18.071859085359083
332,E01018836,12.0,13.430953373015873
333,E01018837,24.0,22.06278327922078
334,E01018838,15.0,15.643256583694079
335,E01018839,21.0,18.178602994227983
336,E01018840,18.0,18.82519793401042
337,E01018841,15.0,13.743148042929292
338,E01018842,15.0,11.640271464646471
339,E01018843,6.0,8.11089024170274
340,E01018844,31.0,23.296527146464655
341,E01018845,1.0,5.660185515873016
342,E01018846,8.0,8.468405122655126
343,E01018847,11.0,11.207229978354976
344,E01018848,2.0,5.408691017316014
345,E01018849,6.0,8.894184884559884
346,E01018850,20.0,15.353712121212125
347,E01018851,10.0,11.238854347041848
348,E01018852,41.0,27.957660443722954
349,E01018853,9.0,14.039107052669552
350,E01018854,8.0,10.407076479076476
351,E01018855,15.0,19.156323051948057
352,E01018856,10.0,13.033141504329013
353,E01018857,6.0,10.042197330447328
354,E01018858,7.0,9.386190483127985
355,E01018859,17.0,16.002928751803747
356,E01018860,12.0,13.222594246031742
357,E01018861,5.0,6.419554383116885
358,E01018862,2.0,4.531851821789321
359,E01018863,10.0,9.958480158730158
360,E01018864,10.0,12.136366973304478
361,E01018865,20.0,20.956132124819618
362,E01018866,10.0,11.216266865079369
363,E01018867,18.0,20.667959415584424
364,E01018868,22.0,21.288366612554096
365,E01018869,8.0,10.932007846320344
366,E01018870,9.0,12.070549062049064
367,E01018871,15.0,13.249183531746027
368,E01018872,9.0,9.01815115440116
369,E01018873,2.0,5.736303391053392
370,E01018874,5.0,10.758750992063492
371,E01018875,3.0,9.675895597458101
372,E01018876,13.0,12.412968253968247
373,E01018877,4.0,5.632645202020204
374,E01018878,23.0,23.437858315295813
375,E01018879,12.0,11.482454635642139
376,E01018880,4.0,6.332455266955268
377,E01018881,8.0,7.581885697635695
378,E01018882,2.0,4.502436507936507
379,E01018883,3.0,5.866388888888887
380,E01018884,2.0,5.436473845598845
381,E01018885,14.0,14.663822746697756
382,E01018886,10.0,13.634055284992787
383,E01018887,14.0,14.274477182539693
384,E01018888,2.0,9.598136273448773
385,E01018889,3.0,8.034717081529577
386,E01018890,9.0,9.260862103174606
387,E01018891,14.0,12.264787427849933
388,E01018892,5.0,7.265412698412697
389,E01018893,12.0,12.13774738455988
390,E01018894,14.0,13.683147817460311
391,E01018895,15.0,17.392415674603175
392,E01018896,5.0,9.107373286435783
393,E01018897,32.0,26.965238275613284
394,E01018898,11.0,13.453310786435791
395,E01018899,17.0,19.099404942279943
396,E01018900,8.0,9.677329274891775
397,E01018901,5.0,10.686238941613935
398,E01018902,3.0,4.271887792762794
399,E01018903,4.0,11.812446879509377
400,E01018904,6.0,7.986086670274167
401,E01018905,12.0,10.160823322510826
402,E01018906,6.0,6.772507395382396
403,E01018907,4.0,5.886653762903761
404,E01018908,10.0,10.30112689393939
405,E01018909,31.0,23.026888271450762
406,E01018910,19.0,19.162907106782093
407,E01018911,31.0,27.065258567821083
408,E01018912,18.0,14.836579635642142
409,E01018913,11.0,16.175549603174602
410,E01018914,15.0,15.310739808802312
411,E01018915,16.0,18.17497348484849
412,E01018916,6.0,7.249803536741033
413,E01018917,7.0,8.007814393939393
414,E01018918,13.0,12.425239177489173
415,E01018919,8.0,9.45372650960151
416,E01018920,5.0,5.8323224206349185
417,E01018921,7.0,8.233205537518035
418,E01018922,7.0,8.032604333166832
419,E01018923,9.0,8.42093407287157
420,E01018924,10.0,10.432893759018759
421,E01018925,6.0,8.082776119713623
422,E01018926,6.0,7.89758414502164
423,E01018927,17.0,15.366930826118324
424,E01018928,15.0,18.43721759490509
425,E01018929,18.0,16.012995039682536
426,E01018930,11.0,13.815266865079373
427,E01018931,15.0,12.799379960317458
428,E01018932,25.0,22.833670634920626
429,E01018933,17.0,22.51484325396825
430,E01018934,26.0,20.253351551226555
431,E01018935,23.0,20.921319264069247
432,E01018936,5.0,9.238290674603173
433,E01018937,9.0,10.068964736652234
434,E01018938,10.0,9.901368596681094
435,E01018940,3.0,5.5437996031746035
436,E01018941,4.0,5.448830357142859
437,E01018942,2.0,5.733435876623376
438,E01018943,9.0,9.602322878510376
439,E01018944,8.0,8.237168560606069
440,E01018945,13.0,10.303306852869348
441,E01018946,11.0,12.843143217893214
442,E01018947,26.0,26.590668019480532
443,E01018948,16.0,16.06873872655123
444,E01018949,9.0,9.952203192640695
445,E01018950,13.0,18.789812860750363
446,E01018951,7.0,8.078222083472083
447,E01018952,4.0,5.235384379509381
448,E01018953,4.0,5.479467712842716
449,E01018954,7.0,9.144853001165496
450,E01018955,7.0,7.330097763347761
451,E01018956,2.0,4.895304924242426
452,E01018957,3.0,4.815371753246755
453,E01018958,8.0,8.806501533189032
454,E01018959,4.0,5.275464285714287
455,E01018960,6.0,7.625131313131313
456,E01018961,2.0,7.363539051226552
457,E01018962,3.0,5.67179761904762
458,E01018965,6.0,8.920571428571426
459,E01018966,0.0,3.797208964646461
460,E01018967,4.0,6.752030753968256
461,E01018968,6.0,8.549291451603947
462,E01018969,11.0,10.310966540404046
463,E01018970,3.0,5.496555555555556
464,E01018971,9.0,9.529382395382395
465,E01018972,6.0,9.697244859307359
466,E01018973,2.0,4.738761724386722
467,E01018974,7.0,8.716184204684202
468,E01018975,2.0,5.395270833333334
469,E01018976,8.0,9.410308351370851
470,E01018977,3.0,7.555742784992782
471,E01018978,10.0,12.45682990620491
472,E01018979,4.0,8.684126803751804
473,E01018980,22.0,18.58954202741703
474,E01018981,8.0,9.219224296536794
475,E01018982,8.0,10.790937139249644
476,E01018983,5.0,7.496468434343436
477,E01018984,9.0,11.513772546897547
478,E01018985,3.0,6.870621302308802
479,E01018986,2.0,5.461146735209232
480,E01018987,5.0,7.341172799422801
481,E01018988,21.0,16.261693091630594
482,E01018989,12.0,11.56792063492063
483,E01018990,6.0,7.2293009004884
484,E01018991,5.0,6.38005597180597
485,E01018992,11.0,10.221571338383836
486,E01018993,0.0,5.283748737373736
487,E01018994,10.0,11.462732323232316
488,E01018995,15.0,16.857439844877348
489,E01018996,27.0,23.238960248085235
490,E01018997,8.0,12.203146735209241
491,E01018998,6.0,11.36506195887446
492,E01018999,6.0,13.41782656926408
493,E01019000,10.0,10.59019778138528
494,E01019001,12.0,15.769624007936505
495,E01019002,6.0,7.009161886724387
496,E01019003,1.0,3.72321266233766
497,E01019004,5.0,9.338719606782114
498,E01019005,4.0,6.549661525974025
499,E01019006,0.0,4.382855519480518
500,E01019007,14.0,14.057002615440112
501,E01019008,8.0,8.536058441558437
502,E01019009,4.0,7.033049783549781
503,E01019010,4.0,6.078964459151958
504,E01019011,6.0,7.24958288239538
505,E01019012,7.0,10.787029942279942
506,E01019013,17.0,16.647812860750356
507,E01019014,11.0,11.275461399711398
508,E01019015,6.0,8.411697691197691
509,E01019016,6.0,9.88689448051948
510,E01019017,17.0,15.05051524170274
511,E01019018,35.0,23.217132936507934
512,E01019019,15.0,17.21192478354979
513,E01019020,43.0,36.35920698051949
514,E01019021,17.0,15.36453787878787
515,E01019022,16.0,16.704046717171707
516,E01019023,11.0,13.21362987012987
517,E01019024,11.0,10.909145382395375
518,E01019025,18.0,14.000396645021645
519,E01019026,23.0,18.085845494783
520,E01019027,13.0,12.034173250360752
521,E01019028,34.0,33.24659695165945
522,E01019029,29.0,27.626017586580105
523,E01019030,33.0,25.266734668109663
524,E01019031,13.0,13.237781655844142
525,E01019032,17.0,14.935915133477641
526,E01019033,32.0,24.984133387445887
527,E01019034,18.0,15.904368145743142
528,E01019035,11.0,10.717520472582978
529,E01019036,10.0,9.49524449855699
530,E01019037,7.0,7.85019624819625
531,E01019038,3.0,5.736550595238097
532,E01019039,8.0,7.917740155677658
533,E01019040,8.0,7.633739087301592
534,E01019041,15.0,17.043402597402604
535,E01019042,6.0,12.663297709235206
536,E01019043,22.0,18.804320165945168
537,E01019044,14.0,13.000982142857149
538,E01019045,17.0,19.30749305555556
539,E01019046,15.0,14.44685367063492
540,E01019047,23.0,21.83331944444443
541,E01019048,17.0,16.252792297979784
542,E01019049,24.0,23.09524496336995
543,E01019050,21.0,17.51399603174601
544,E01019051,14.0,12.173464240620484
545,E01019052,10.0,10.910817911255403
546,E01019053,19.0,16.80283198051948
547,E01019054,2.0,5.816174693362192
548,E01019055,2.0,5.342781024531027
549,E01019056,18.0,14.902128878066371
550,E01019057,16.0,14.483011724386722
551,E01019058,21.0,17.8076875
552,E01019059,28.0,20.167917658730158
553,E01019060,5.0,8.345703012265512
554,E01019061,6.0,6.932633422133417
555,E01019062,18.0,16.978641233766236
556,E01019063,12.0,12.450196789321794
557,E01019064,6.0,9.367695436507933
558,E01019065,6.0,8.959657738095235
559,E01019066,2.0,4.821837155899657
560,E01019067,12.0,11.519048826173828
561,E01019068,6.0,6.892719967532474
562,E01019069,13.0,12.41049891774892
563,E01019070,3.0,6.697334866522361
564,E01019071,2.0,5.359950396825396
565,E01019072,4.0,5.721290730103229
566,E01019073,13.0,10.181234758297261
567,E01019074,14.0,13.586324314574318
568,E01019075,7.0,7.904728354978354
569,E01019076,27.0,22.347156024531017
570,E01019077,12.0,14.978717893217881
571,E01019886,32.0,23.368679202741713
572,E01019887,12.0,12.476043921356428
573,E01019888,23.0,19.633110479797985
574,E01019889,4.0,7.158125048562546
575,E01019890,29.0,21.720992500555003
576,E01019891,24.0,18.840551587301576
577,E01019892,39.0,32.512738455988455
578,E01019893,42.0,32.26316143578644
579,E01019894,4.0,7.675344967532469
580,E01019895,17.0,14.164539141414137
581,E01019896,2.0,6.102449765512265
582,E01019897,14.0,12.515472739066485
583,E01019898,21.0,18.52121320346321
584,E01019899,7.0,7.862716360028859
585,E01019900,12.0,11.191667297979807
586,E01019901,11.0,10.169846500721501
587,E01019902,11.0,11.518643675768681
588,E01019903,9.0,10.31986706349207
589,E01019904,11.0,11.007280573593068
590,E01019905,7.0,10.794526515151512
591,E01019906,4.0,7.409375631313135
592,E01019907,4.0,6.628615079365079
593,E01019908,6.0,9.356907883782887
594,E01019909,10.0,10.691685966810972
595,E01019910,13.0,13.95484982378732
596,E01019911,9.0,9.215928932178935
597,E01019912,14.0,14.75712779581528
598,E01019913,14.0,13.84724089105339
599,E01019914,24.0,19.7988961940837
600,E01019915,19.0,16.30573097041848
601,E01019916,35.0,33.50353481240981
602,E01019917,14.0,14.062001893939394
603,E01019918,24.0,24.96017135642136
604,E01019919,17.0,17.50926930014431
605,E01019920,7.0,10.028542297979799
606,E01019921,8.0,9.57313546176046
607,E01019922,9.0,9.960252705627711
608,E01019923,11.0,11.213039592352095
609,E01019924,11.0,11.076039141414146
610,E01019925,4.0,6.61489587495838
611,E01019927,8.0,10.85638596819847
612,E01019928,6.0,8.184652507215015
613,E01019929,2.0,5.697568528693531
614,E01019930,18.0,14.92061111111111
615,E01019931,1.0,5.545218434343435
616,E01019932,28.0,23.399399981962475
617,E01019933,14.0,12.780776154401156
618,E01019934,15.0,13.189060425685438
619,E01019935,6.0,6.866288288100789
620,E01019936,19.0,14.819441336441333
621,E01019937,21.0,16.45859298340549
622,E01019938,9.0,9.949084276834277
623,E01019939,18.0,14.472308816183826
624,E01019940,9.0,10.227212301587311
625,E01019942,16.0,13.870345487845482
626,E01019943,9.0,9.858525432900437
627,E01019944,7.0,10.021769751082251
628,E01019945,39.0,27.13664384920633
629,E01019946,5.0,8.384621087246085
630,E01019947,18.0,20.228401875901874
631,E01019948,8.0,8.65712792069042
632,E01019949,4.0,6.845374007936511
633,E01019950,15.0,13.062681367243872
634,E01019951,41.0,26.203286075036075
635,E01019952,12.0,12.229624729437235
636,E01019953,4.0,5.972865349927852
637,E01019954,7.0,9.179914592352096
638,E01019955,6.0,8.206976551226553
639,E01019956,6.0,10.86447691197691
640,E01019957,22.0,20.113391594516596
641,E01019958,10.0,10.853752435064939
642,E01019959,8.0,8.228840999278505
643,E01019960,6.0,8.798413329725832
644,E01019961,22.0,17.378971590909092
645,E01019962,7.0,9.73036553030303
646,E01019963,6.0,8.16755753968254
647,E01019964,48.0,37.74981168831168
648,E01019965,2.0,6.201113171550673
649,E01019966,5.0,5.7561092171717245
650,E01019967,8.0,7.74211625180375
651,E01019968,18.0,17.850423791486296
652,E01019969,52.0,36.20244685869684
653,E01019970,46.0,31.56447023809523
654,E01019971,36.0,34.553886155511165
655,E01019972,13.0,17.175754655067166
656,E01019973,31.0,24.490542658730163
657,E01019974,16.0,15.032503156565657
658,E01019975,21.0,20.078317370129884
659,E01019976,4.0,8.169340367965372
660,E01019977,9.0,10.945326118326122
661,E01019980,9.0,14.7615000901876
662,E01019981,8.0,10.86913014069264
663,E01019982,11.0,16.117158910533924
664,E01019983,12.0,13.143481005106002
665,E01019984,6.0,9.436461129148626
666,E01019985,17.0,17.43688873626372
667,E01019986,18.0,19.327339736652238
668,E01019987,13.0,20.245709686147194
669,E01019988,8.0,14.236919642857139
670,E01019989,8.0,15.185072420634919
671,E01019990,7.0,11.70495896464646
672,E01019991,19.0,19.33401019119769
673,E01019992,18.0,17.94790061327562
674,E01019993,6.0,9.99870391414142
675,E01019994,19.0,24.695563041125556
676,E01019995,23.0,25.314497384559903
677,E01019996,20.0,26.75306727994228
678,E01019997,19.0,20.83579103535354
679,E01019998,14.0,16.135693452380945
680,E01019999,13.0,14.734013257575773
681,E01020000,18.0,19.450838834776324
682,E01020001,14.0,15.215762570762575
683,E01020002,29.0,26.48831466450217
684,E01020003,19.0,18.292658820346325
685,E01020004,11.0,14.771910624098128
686,E01020005,23.0,21.188422473359974
687,E01020006,42.0,33.24793560606059
688,E01020007,31.0,28.966482413419918
689,E01020008,12.0,18.485578282828286
690,E01020009,21.0,21.537702561327563
691,E01020010,24.0,24.17540674603175
692,E01020011,29.0,22.603942911255427
693,E01020012,31.0,25.80246428571427
694,E01020013,23.0,22.63477714646465
695,E01020014,8.0,13.934107864357866
696,E01020015,13.0,16.55980817099567
697,E01020016,69.0,53.893946248196244
698,E01020017,20.0,30.112473484848465
699,E01020018,41.0,38.21507729076478
700,E01020019,10.0,14.932078955766459
701,E01020020,25.0,25.266670496170494
702,E01020021,17.0,23.303241161616153
703,E01020022,31.0,31.63510574148074
704,E01020023,42.0,34.48927155483405
705,E01020024,27.0,23.801909673659665
706,E01020025,39.0,35.24981605894108
707,E01020026,11.0,14.343428481240988
708,E01020027,9.0,13.063501803751798
709,E01020029,18.0,18.698781024531023
710,E01020030,25.0,29.725875000000002
711,E01020031,12.0,16.20902110389611
712,E01020032,22.0,25.1928704906205
713,E01020033,19.0,17.920151785714296
714,E01020035,27.0,30.46677777777779
715,E01020036,9.0,14.659529852092346
716,E01020037,24.0,23.254727904040397
717,E01020038,33.0,28.917052489177514
718,E01020039,8.0,13.900112283549783
719,E01020040,12.0,14.217241432178925
720,E01020041,38.0,29.95790295815294
721,E01020042,16.0,13.85058405483406
722,E01020043,7.0,9.02666765873016
723,E01020044,7.0,8.259004148629147
724,E01020045,14.0,12.621168158230658
725,E01020046,13.0,11.096898164335657
726,E01020047,15.0,14.290172168109684
727,E01020048,38.0,32.30469056637807
728,E01020049,2.0,4.114655226717729
729,E01020050,8.0,8.529833590021088
730,E01020051,13.0,11.201702020202024
731,E01020052,21.0,18.75890827922078
732,E01020053,5.0,7.4122509920634965
733,E01020054,24.0,22.31325333694082
734,E01020055,13.0,16.35480573593074
735,E01020056,17.0,17.31697123015873
736,E01020057,7.0,13.440645382395381
737,E01020058,4.0,8.55443217893218
738,E01020059,16.0,13.908768953268964
739,E01020060,19.0,17.57831277056277
740,E01020061,10.0,10.924505050505047
741,E01020062,7.0,8.696831349206354
742,E01020063,12.0,14.018600198412694
743,E01020064,16.0,14.410143127705615
744,E01020065,23.0,23.332568722943737
745,E01020066,16.0,19.462774801587294
746,E01020067,7.0,10.752711670274167
747,E01020068,4.0,7.869974927849931
748,E01020069,2.0,5.053603715728716
749,E01020070,2.0,4.989853354978357
750,E01020071,7.0,8.951082868520366
751,E01020072,0.0,3.262503565878566
752,E01020073,7.0,7.729382215007213
753,E01020074,11.0,10.88995968614719
754,E01020075,10.0,10.020971590909086
755,E01020076,7.0,9.297001893939402
756,E01020077,1.0,4.048192807192804
757,E01020078,4.0,7.737041576479073
758,E01020079,14.0,12.412710775335773
759,E01020080,3.0,4.7099944083694085
760,E01020081,10.0,9.730791985791985
761,E01020082,1.0,3.769593073593071
762,E01020083,10.0,11.902368596681097
763,E01020084,7.0,8.271105248917742
764,E01020085,13.0,13.709821338383836
765,E01020086,7.0,8.101644480519479
766,E01020087,11.0,10.385912774725275
767,E01020088,10.0,9.639449134199133
768,E01020089,12.0,11.35533495670996
769,E01020090,4.0,5.962482503607504
770,E01020091,4.0,5.757365079365079
771,E01020092,2.0,4.576597395659895
772,E01020093,7.0,9.14365178571429
773,E01020094,34.0,30.612520292207787
774,E01020095,9.0,13.245807532745028
775,E01020096,33.0,27.891911525974013
776,E01020097,10.0,9.250573863636363
777,E01020098,11.0,9.712029130591624
778,E01020099,7.0,7.714692730880236
779,E01020100,16.0,12.115569805194811
780,E01020101,5.0,7.095057262182264
781,E01020102,18.0,16.59936805555556
782,E01020103,13.0,12.770670680014428
783,E01020104,9.0,12.13611102092353
784,E01020105,3.0,7.028785894660894
785,E01020106,2.0,4.824193272005774
786,E01020107,6.0,6.609386814574317
787,E01020108,21.0,17.47480925324675
788,E01020109,5.0,5.738650252525252
789,E01020110,16.0,20.895575126262624
790,E01020111,11.0,12.41100270562771
791,E01020112,11.0,16.64310254329004
792,E01020113,21.0,21.64514880952381
793,E01020114,15.0,13.768649114774107
794,E01020115,19.0,15.00307115107115
795,E01020116,21.0,17.88941224747476
796,E01020117,20.0,13.192737332112328
797,E01020118,10.0,10.667385732323233
798,E01020119,7.0,8.417372023809524
799,E01020120,7.0,11.665791756854258
800,E01020121,16.0,13.377711829836835
801,E01020122,22.0,16.133931277056277
802,E01020123,10.0,10.841764672827178
803,E01020124,10.0,11.922243215118213
804,E01020125,3.0,5.385350108225109
805,E01020126,13.0,12.536423340548337
806,E01020127,17.0,13.362278686591196
807,E01020128,12.0,11.320814789377287
808,E01020129,17.0,15.25877984515484
809,E01020130,13.0,15.193737103174595
810,E01020131,16.0,15.516728084415572
811,E01020132,27.0,21.768164953102445
812,E01020133,14.0,13.92379897186146
813,E01020134,5.0,9.146126713564207
814,E01020135,9.0,9.161886904761898
815,E01020136,13.0,11.894117784992773
816,E01020137,16.0,16.62022029359529
817,E01020138,9.0,9.534292658730152
818,E01020139,15.0,15.97150775613275
819,E01020140,8.0,10.7954659090909
820,E01020141,13.0,14.028466269841255
821,E01020142,18.0,16.470997835497844
822,E01020143,12.0,14.987597943722944
823,E01020144,13.0,14.369378101065593
824,E01020145,13.0,15.70162409812409
825,E01020146,2.0,9.216531385281385
826,E01020147,14.0,12.214530483405483
827,E01020148,9.0,8.703937770562767
828,E01020149,14.0,13.235006403318897
829,E01020150,6.0,8.896760371572869
830,E01020151,12.0,12.963802579365083
831,E01020152,7.0,9.963257215007214
832,E01020153,9.0,8.915529401154398
833,E01020154,10.0,13.119753336940839
834,E01020155,7.0,9.618020111832612
835,E01020156,10.0,11.994358676046177
836,E01020157,23.0,19.852599206349208
837,E01020158,11.0,11.32617117604618
838,E01020159,48.0,29.391503066378068
839,E01020160,19.0,15.979326028138546
840,E01020161,28.0,23.944584096459085
841,E01020162,13.0,11.754613816738818
842,E01020163,15.0,13.528320346320362
843,E01020164,18.0,14.708263437950928
844,E01020165,9.0,10.675184343434353
845,E01020166,19.0,16.08364384920634
846,E01020167,17.0,15.73469615800866
847,E01020168,8.0,9.717092352092356
848,E01020169,19.0,18.260201895326894
849,E01020170,22.0,17.253987484737475
850,E01020171,9.0,10.078423250360753
851,E01020172,13.0,12.079242334054841
852,E01020173,10.0,11.395867424242422
853,E01020174,2.0,4.994756944444443
854,E01020175,7.0,8.63278052503053
855,E01020176,10.0,11.47727173520924
856,E01020177,18.0,14.293786616161618
857,E01020178,10.0,8.992902777777777
858,E01020179,5.0,8.537166396103895
859,E01020180,44.0,28.374604777167264
860,E01020181,16.0,14.197815732878235
861,E01020182,12.0,12.349140422077921
862,E01020183,13.0,16.163825847763338
863,E01020184,10.0,11.414237373737373
864,E01020185,5.0,6.484069534632035
865,E01020186,7.0,8.100367063492069
866,E01020187,25.0,18.060801948051946
867,E01020188,19.0,15.830510732323223
868,E01020189,15.0,13.947784090909083
869,E01020190,19.0,16.12277895021646
870,E01020191,14.0,17.576307234432246
871,E01020192,15.0,13.993054383116885
872,E01020193,7.0,8.381426802364308
873,E01020194,25.0,19.75630086580086
874,E01020195,19.0,13.964991286491289
875,E01020196,22.0,18.254614267676768
876,E01020197,18.0,15.18579638417138
877,E01020198,13.0,11.804379148629154
878,E01020199,11.0,11.390992334054836
879,E01020200,9.0,9.491362810800311
880,E01020201,7.0,8.017843253968259
881,E01020202,15.0,12.904065656565665
882,E01020203,14.0,12.47448650654901
883,E01020204,25.0,19.99822222222223
884,E01020205,11.0,10.203987554112548
885,E01020206,11.0,9.810881132756139
886,E01020207,31.0,28.26440873015872
887,E01020208,9.0,10.515381042568547
888,E01020209,13.0,13.535155483405477
889,E01020210,15.0,12.10448791486291
890,E01020211,23.0,20.67444462481964
891,E01020212,7.0,8.935446067821063
892,E01020213,20.0,16.14242613636364
893,E01020214,24.0,19.225248376623373
894,E01020215,8.0,11.135161886724383
895,E01020216,43.0,31.029402777777765
896,E01020217,58.0,43.61615178571428
897,E01020218,38.0,33.05921085858585
898,E01020219,71.0,48.1746865703741
899,E01020220,2.0,6.570182539682543
900,E01020221,14.0,12.564261724386727
901,E01020222,12.0,10.932380321067818
902,E01020223,20.0,16.02971257215009
903,E01020224,21.0,18.102456619769114
904,E01020225,22.0,20.5217674963925
905,E01020226,35.0,25.555029761904745
906,E01020227,37.0,26.304931998556995
907,E01020228,19.0,19.365267766955267
908,E01020229,21.0,21.354443813131315
909,E01020230,4.0,6.958087572150072
910,E01020231,13.0,13.581001616439117
911,E01020232,6.0,8.335409000721501
912,E01020233,7.0,9.215857357919857
913,E01020234,4.0,7.536423701298705
914,E01020235,13.0,12.753708381895878
915,E01020236,9.0,9.8324071067821
916,E01020237,16.0,13.15617236235985
917,E01020238,5.0,6.775697115384619
918,E01020239,6.0,7.547083062770563
919,E01020240,25.0,20.114919462481954
920,E01020241,36.0,27.64387301587301
921,E01020242,19.0,18.913264339826835
922,E01020243,14.0,13.034681547619046
923,E01020244,11.0,11.249719696969702
924,E01020245,13.0,12.651723484848487
925,E01020246,13.0,12.183397817460317
926,E01020247,21.0,16.96845887445887
927,E01020248,19.0,15.776517316017312
928,E01020249,15.0,13.317029310966813
929,E01020250,14.0,12.921748820623826
930,E01020251,14.0,13.106282016594509
931,E01020252,34.0,26.007365481740486
932,E01020253,8.0,10.150615530303032
933,E01020254,3.0,7.789592893217893
934,E01020255,23.0,17.96089700577201
935,E01020256,19.0,16.10664087301587
936,E01020257,12.0,11.616227036852035
937,E01020258,20.0,18.253022095959604
938,E01020259,56.0,37.183609126984095
939,E01020260,2.0,5.592910353535354
940,E01020261,9.0,9.798813117438117
941,E01020262,1.0,4.509080176767677
942,E01020263,9.0,9.716992965367972
943,E01020264,12.0,14.403041985791988
944,E01020265,10.0,10.257759469696971
945,E01020266,7.0,11.838515782828276
946,E01020267,11.0,11.103493055555555
947,E01020268,6.0,9.277115384615382
948,E01020269,12.0,17.4238641983017
949,E01020270,4.0,6.885232101232102
950,E01020271,13.0,13.599918650793647
951,E01020272,11.0,11.7915248015873
952,E01020273,3.0,5.802949314574318
953,E01020274,5.0,7.4038446969697
954,E01020275,3.0,6.301198683261183
955,E01020276,5.0,7.61913211094461
956,E01020277,10.0,10.530425865800868
957,E01020278,6.0,7.282504238816738
958,E01020279,21.0,20.75347348484848
959,E01020280,19.0,19.5595446983572
960,E01020281,6.0,9.155332702020207
961,E01020282,15.0,15.169453948828949
962,E01020283,14.0,12.00435407647908
963,E01020284,15.0,15.25310272366522
964,E01020285,10.0,10.986478174603178
965,E01020286,3.0,4.489366702741704
966,E01020287,9.0,8.917556637806632
967,E01020288,5.0,7.458044101731604
968,E01020289,2.0,3.9483864538239546
969,E01020290,5.0,6.379278048340549
970,E01020291,3.0,4.612682720057722
971,E01020292,5.0,6.764483134920637
972,E01020293,11.0,11.736158369408367
973,E01020294,8.0,8.904128787878788
974,E01020295,11.0,10.259550595238093
975,E01020296,7.0,7.4901577380952356
976,E01020297,1.0,5.0843428030302995
977,E01020298,7.0,8.987728264790762
978,E01020299,11.0,10.25261263736264
979,E01020300,6.0,8.148049242424241
980,E01020301,9.0,8.772076388888888
981,E01020302,1.0,3.558286796536795
982,E01020303,6.0,6.58861895743146
983,E01020304,9.0,10.226040313852817
984,E01020305,11.0,11.47556935425686
985,E01020306,1.0,4.314685606060604
986,E01020307,14.0,11.823733710733709
987,E01020308,6.0,6.5269388111888125
988,E01020309,7.0,7.220840548340548
989,E01020310,13.0,13.155767586580076
990,E01020311,11.0,9.71623908730159
991,E01020312,6.0,7.603998196248202
992,E01020313,2.0,5.692434426684426
993,E01020314,13.0,10.9579384018759
994,E01020315,1.0,5.849333423520921
995,E01020316,6.0,8.663669642857148
996,E01020317,13.0,11.958694985569986
997,E01020318,25.0,18.6566553030303
998,E01020319,9.0,10.261548791486291
999,E01020320,1.0,4.745904983904981
1000,E01020321,15.0,14.0272003968254
1001,E01020322,16.0,16.257829642579647
1002,E01020323,46.0,35.03199801587301
1003,E01020324,25.0,17.32372691197691
1004,E01020325,2.0,5.884258297258296
1005,E01020326,11.0,10.792344877344881
1006,E01020327,11.0,11.277576479076473
1007,E01020328,25.0,22.776652104839606
1008,E01020329,29.0,20.136161886724384
1009,E01020330,13.0,15.003573613886108
1010,E01020331,5.0,7.507211489898996
1011,E01020332,17.0,16.537466471028967
1012,E01020333,3.0,7.418170634920641
1013,E01020334,16.0,14.94924720418471
1014,E01020335,12.0,11.49558946608947
1015,E01020336,5.0,7.819605193417691
1016,E01020337,3.0,8.285873459873459
1017,E01020338,10.0,13.187052849927863
1018,E01020339,9.0,8.679989448051941
1019,E01020340,4.0,5.335035714285717
1020,E01020341,11.0,10.132753246753252
1021,E01020342,2.0,5.168843427405928
1022,E01032628,10.0,10.675083423520928
1023,E01032657,25.0,29.434082070707074
1024,E01032658,23.0,30.66333594877346
1025,E01033232,6.0,14.758464375901884
1026,E01033233,19.0,22.283428932178932
1027,E01033234,83.0,55.62864682539683
1028,E01033235,7.0,11.16528075396825
1029,E01033236,6.0,9.533775883838382
1030,E01033289,11.0,10.932301316738823
1031,E01033291,9.0,7.917027507215007
1032,E01033292,13.0,13.73065413059163
1033,E01033294,8.0,12.484794191919198
