,lsoa_code,actual,predicted
0,E01015023,283.0,283.0
1,E01015024,102.0,102.0
2,E01015025,80.0,80.0
3,E01015026,208.0,208.0
4,E01015027,134.0,134.0
5,E01015028,375.0,375.0
6,E01015029,265.0,265.0
7,E01015030,329.0,329.0
8,E01015031,125.0,125.0
9,E01015032,438.0,438.0
10,E01015033,67.0,67.0
11,E01015034,60.0,60.0
12,E01015035,67.0,67.0
13,E01015036,98.0,98.0
14,E01015037,85.0,85.0
15,E01015038,65.0,65.0
16,E01015039,152.0,152.0
17,E01015040,267.0,267.0
18,E01015041,134.0,134.0
19,E01015042,142.0,142.0
20,E01015043,328.0,328.0
21,E01015044,295.0,295.0
22,E01015045,327.0,327.0
23,E01015046,361.0,361.0
24,E01015047,388.0,388.0
25,E01015048,371.0,371.0
26,E01015049,112.0,112.0
27,E01015050,292.0,292.0
28,E01015051,180.0,180.0
29,E01015052,336.0,336.0
30,E01015053,147.0,147.0
31,E01015054,533.0,533.0
32,E01015055,192.0,192.0
33,E01015056,148.0,148.0
34,E01015057,357.0,357.0
35,E01015058,243.0,243.0
36,E01015059,120.0,120.0
37,E01015060,207.0,207.0
38,E01015061,273.0,273.0
39,E01015062,270.0,270.0
40,E01015063,141.0,141.0
41,E01015064,67.0,67.0
42,E01015065,47.0,47.0
43,E01015066,65.0,65.0
44,E01015067,32.0,32.0
45,E01015068,61.0,61.0
46,E01015069,131.0,131.0
47,E01015070,155.0,155.0
48,E01015071,121.0,121.0
49,E01015072,128.0,128.0
50,E01015073,158.0,158.0
51,E01015074,205.0,205.0
52,E01015075,236.0,236.0
53,E01015076,87.0,87.0
54,E01015077,123.0,123.0
55,E01015078,195.0,195.0
56,E01015079,163.0,163.0
57,E01015080,192.0,192.0
58,E01015081,176.0,176.0
59,E01015082,192.0,192.0
60,E01015083,221.0,221.0
61,E01015084,140.0,140.0
62,E01015085,198.0,198.0
63,E01015086,140.0,140.0
64,E01015087,321.0,321.0
65,E01015088,296.0,296.0
66,E01015089,218.0,218.0
67,E01015090,44.0,44.0
68,E01015091,91.0,91.0
69,E01015092,518.0,518.0
70,E01015093,147.0,147.0
71,E01015094,173.0,173.0
72,E01015095,116.0,116.0
73,E01015096,148.0,148.0
74,E01015097,76.0,76.0
75,E01015098,65.0,65.0
76,E01015099,62.0,62.0
77,E01015100,106.0,106.0
78,E01015101,91.0,91.0
79,E01015102,175.0,175.0
80,E01015103,104.0,104.0
81,E01015104,40.0,40.0
82,E01015105,67.0,67.0
83,E01015106,160.0,160.0
84,E01015107,79.0,79.0
85,E01015108,114.0,114.0
86,E01015109,75.0,75.0
87,E01015110,33.0,33.0
88,E01015111,140.0,140.0
89,E01015112,114.0,114.0
90,E01015113,107.0,107.0
91,E01015114,88.0,88.0
92,E01015115,142.0,142.0
93,E01015116,85.0,85.0
94,E01015117,55.0,55.0
95,E01015118,66.0,66.0
96,E01015119,57.0,57.0
97,E01015120,66.0,66.0
98,E01015121,30.0,30.0
99,E01015122,70.0,70.0
100,E01015123,127.0,127.0
101,E01015124,51.0,51.0
102,E01015125,67.0,67.0
103,E01015126,62.0,62.0
104,E01015127,75.0,75.0
105,E01015128,83.0,83.0
106,E01015129,84.0,84.0
107,E01015130,70.0,70.0
108,E01015131,33.0,33.0
109,E01015132,81.0,81.0
110,E01015133,41.0,41.0
111,E01015134,77.0,77.0
112,E01015135,234.0,234.0
113,E01015136,122.0,122.0
114,E01015137,72.0,72.0
115,E01015138,89.0,89.0
116,E01015139,81.0,81.0
117,E01015140,44.0,44.0
118,E01015141,67.0,67.0
119,E01015142,120.0,120.0
120,E01015143,120.0,120.0
121,E01015144,329.0,329.0
122,E01015145,300.0,300.0
123,E01015146,324.0,324.0
124,E01015147,107.0,107.0
125,E01015148,244.0,244.0
126,E01015149,214.0,214.0
127,E01015150,115.0,115.0
128,E01015151,520.0,520.0
129,E01015152,928.0,928.0
130,E01015153,482.0,482.0
131,E01015155,1133.0,1133.0
132,E01015156,1042.0,1042.0
133,E01015157,608.0,608.0
134,E01015158,1230.0,1230.0
135,E01015159,214.0,214.0
136,E01015160,60.0,60.0
137,E01015161,105.0,105.0
138,E01015162,175.0,175.0
139,E01015163,133.0,133.0
140,E01015164,124.0,124.0
141,E01015165,93.0,93.0
142,E01015166,265.0,265.0
143,E01015167,157.0,157.0
144,E01015168,290.0,290.0
145,E01015169,187.0,187.0
146,E01015170,264.0,264.0
147,E01015171,279.0,279.0
148,E01015172,242.0,242.0
149,E01015173,239.0,239.0
150,E01015174,101.0,101.0
151,E01015175,188.0,188.0
152,E01015176,185.0,185.0
153,E01015177,152.0,152.0
154,E01015178,191.0,191.0
155,E01015179,170.0,170.0
156,E01015180,394.0,394.0
157,E01015181,355.0,355.0
158,E01015182,565.0,565.0
159,E01015183,116.0,116.0
160,E01015184,37.0,37.0
161,E01015185,65.0,65.0
162,E01015186,246.0,246.0
163,E01015187,73.0,73.0
164,E01015188,74.0,74.0
165,E01015189,94.0,94.0
166,E01015190,233.0,233.0
167,E01015191,181.0,181.0
168,E01015192,142.0,142.0
169,E01015193,199.0,199.0
170,E01015194,99.0,99.0
171,E01015195,316.0,316.0
172,E01015196,235.0,235.0
173,E01015197,24.0,24.0
174,E01015198,105.0,105.0
175,E01015199,28.0,28.0
176,E01015200,62.0,62.0
177,E01015201,69.0,69.0
178,E01015202,91.0,91.0
179,E01015203,37.0,37.0
180,E01015204,134.0,134.0
181,E01015205,71.0,71.0
182,E01015206,134.0,134.0
183,E01015207,91.0,91.0
184,E01015208,120.0,120.0
185,E01015209,163.0,163.0
186,E01015210,229.0,229.0
187,E01015211,73.0,73.0
188,E01015212,142.0,142.0
189,E01015213,80.0,80.0
190,E01015214,312.0,312.0
191,E01015215,91.0,91.0
192,E01015216,134.0,134.0
193,E01015217,576.0,576.0
194,E01015218,108.0,108.0
195,E01015219,95.0,95.0
196,E01015220,96.0,96.0
197,E01015221,129.0,129.0
198,E01015222,113.0,113.0
199,E01015223,45.0,45.0
200,E01015224,86.0,86.0
201,E01015225,99.0,99.0
202,E01015226,41.0,41.0
203,E01015227,35.0,35.0
204,E01015228,132.0,132.0
205,E01015229,198.0,198.0
206,E01015230,45.0,45.0
207,E01015231,696.0,696.0
208,E01015232,766.0,766.0
209,E01015233,232.0,232.0
210,E01015234,134.0,134.0
211,E01015235,174.0,174.0
212,E01015236,257.0,257.0
213,E01015237,113.0,113.0
214,E01015238,115.0,115.0
215,E01015239,113.0,113.0
216,E01015240,199.0,199.0
217,E01015241,196.0,196.0
218,E01015242,198.0,198.0
219,E01015243,51.0,51.0
220,E01015244,65.0,65.0
221,E01015245,82.0,82.0
222,E01015246,81.0,81.0
223,E01015247,135.0,135.0
224,E01015248,140.0,140.0
225,E01015249,144.0,144.0
226,E01015250,88.0,88.0
227,E01015251,182.0,182.0
228,E01015252,402.0,402.0
229,E01015253,127.0,127.0
230,E01015254,134.0,134.0
231,E01015255,795.0,795.0
232,E01015256,1806.0,1806.0
233,E01015257,331.0,331.0
234,E01015258,328.0,328.0
235,E01015259,183.0,183.0
236,E01015260,252.0,252.0
237,E01015261,477.0,477.0
238,E01015262,211.0,211.0
239,E01015263,205.0,205.0
240,E01015264,38.0,38.0
241,E01015265,117.0,117.0
242,E01015266,242.0,242.0
243,E01015267,415.0,415.0
244,E01015268,125.0,125.0
245,E01015269,118.0,118.0
246,E01015270,152.0,152.0
247,E01015271,54.0,54.0
248,E01018750,104.0,104.0
249,E01018751,210.0,210.0
250,E01018752,96.0,96.0
251,E01018753,34.0,34.0
252,E01018754,104.0,104.0
253,E01018755,51.0,51.0
254,E01018756,70.0,70.0
255,E01018757,74.0,74.0
256,E01018758,157.0,157.0
257,E01018759,65.0,65.0
258,E01018760,36.0,36.0
259,E01018761,91.0,91.0
260,E01018762,106.0,106.0
261,E01018763,68.0,68.0
262,E01018764,40.0,40.0
263,E01018765,72.0,72.0
264,E01018766,67.0,67.0
265,E01018767,182.0,182.0
266,E01018768,163.0,163.0
267,E01018769,217.0,217.0
268,E01018770,186.0,186.0
269,E01018771,416.0,416.0
270,E01018772,141.0,141.0
271,E01018773,77.0,77.0
272,E01018774,132.0,132.0
273,E01018775,96.0,96.0
274,E01018776,122.0,122.0
275,E01018777,73.0,73.0
276,E01018778,70.0,70.0
277,E01018779,83.0,83.0
278,E01018780,79.0,79.0
279,E01018781,82.0,82.0
280,E01018782,55.0,55.0
281,E01018783,58.0,58.0
282,E01018784,50.0,50.0
283,E01018785,93.0,93.0
284,E01018786,50.0,50.0
285,E01018787,117.0,117.0
286,E01018788,98.0,98.0
287,E01018789,93.0,93.0
288,E01018790,149.0,149.0
289,E01018791,111.0,111.0
290,E01018792,167.0,167.0
291,E01018793,178.0,178.0
292,E01018794,82.0,82.0
293,E01018795,43.0,43.0
294,E01018796,34.0,34.0
295,E01018797,219.0,219.0
296,E01018798,75.0,75.0
297,E01018799,137.0,137.0
298,E01018800,76.0,76.0
299,E01018803,108.0,108.0
300,E01018804,338.0,338.0
301,E01018805,98.0,98.0
302,E01018806,51.0,51.0
303,E01018807,104.0,104.0
304,E01018808,80.0,80.0
305,E01018809,867.0,867.0
306,E01018810,94.0,94.0
307,E01018811,70.0,70.0
308,E01018812,95.0,95.0
309,E01018813,59.0,59.0
310,E01018814,54.0,54.0
311,E01018815,130.0,130.0
312,E01018816,40.0,40.0
313,E01018817,43.0,43.0
314,E01018818,64.0,64.0
315,E01018819,104.0,104.0
316,E01018820,116.0,116.0
317,E01018821,75.0,75.0
318,E01018822,52.0,52.0
319,E01018823,54.0,54.0
320,E01018824,157.0,157.0
321,E01018825,76.0,76.0
322,E01018826,114.0,114.0
323,E01018827,19.0,19.0
324,E01018828,62.0,62.0
325,E01018829,50.0,50.0
326,E01018830,29.0,29.0
327,E01018831,57.0,57.0
328,E01018832,43.0,43.0
329,E01018833,80.0,80.0
330,E01018834,140.0,140.0
331,E01018835,101.0,101.0
332,E01018836,166.0,166.0
333,E01018837,136.0,136.0
334,E01018838,118.0,118.0
335,E01018839,88.0,88.0
336,E01018840,215.0,215.0
337,E01018841,168.0,168.0
338,E01018842,97.0,97.0
339,E01018843,57.0,57.0
340,E01018844,236.0,236.0
341,E01018845,71.0,71.0
342,E01018846,38.0,38.0
343,E01018847,62.0,62.0
344,E01018848,38.0,38.0
345,E01018849,65.0,65.0
346,E01018850,52.0,52.0
347,E01018851,62.0,62.0
348,E01018852,86.0,86.0
349,E01018853,214.0,214.0
350,E01018854,191.0,191.0
351,E01018855,309.0,309.0
352,E01018856,174.0,174.0
353,E01018857,134.0,134.0
354,E01018858,65.0,65.0
355,E01018859,83.0,83.0
356,E01018860,190.0,190.0
357,E01018861,39.0,39.0
358,E01018862,36.0,36.0
359,E01018863,56.0,56.0
360,E01018864,67.0,67.0
361,E01018865,254.0,254.0
362,E01018866,109.0,109.0
363,E01018867,190.0,190.0
364,E01018868,327.0,327.0
365,E01018869,173.0,173.0
366,E01018870,180.0,180.0
367,E01018871,185.0,185.0
368,E01018872,128.0,128.0
369,E01018873,41.0,41.0
370,E01018874,44.0,44.0
371,E01018875,192.0,192.0
372,E01018876,71.0,71.0
373,E01018877,127.0,127.0
374,E01018878,598.0,598.0
375,E01018879,57.0,57.0
376,E01018880,66.0,66.0
377,E01018881,120.0,120.0
378,E01018882,35.0,35.0
379,E01018883,70.0,70.0
380,E01018884,50.0,50.0
381,E01018885,224.0,224.0
382,E01018886,131.0,131.0
383,E01018887,117.0,117.0
384,E01018888,168.0,168.0
385,E01018889,25.0,25.0
386,E01018890,71.0,71.0
387,E01018891,77.0,77.0
388,E01018892,82.0,82.0
389,E01018893,121.0,121.0
390,E01018894,123.0,123.0
391,E01018895,242.0,242.0
392,E01018896,53.0,53.0
393,E01018897,306.0,306.0
394,E01018898,142.0,142.0
395,E01018899,85.0,85.0
396,E01018900,44.0,44.0
397,E01018901,41.0,41.0
398,E01018902,22.0,22.0
399,E01018903,49.0,49.0
400,E01018904,78.0,78.0
401,E01018905,45.0,45.0
402,E01018906,59.0,59.0
403,E01018907,85.0,85.0
404,E01018908,101.0,101.0
405,E01018909,106.0,106.0
406,E01018910,277.0,277.0
407,E01018911,352.0,352.0
408,E01018912,108.0,108.0
409,E01018913,164.0,164.0
410,E01018914,104.0,104.0
411,E01018915,105.0,105.0
412,E01018916,77.0,77.0
413,E01018917,71.0,71.0
414,E01018918,113.0,113.0
415,E01018919,40.0,40.0
416,E01018920,61.0,61.0
417,E01018921,80.0,80.0
418,E01018922,88.0,88.0
419,E01018923,19.0,19.0
420,E01018924,73.0,73.0
421,E01018925,70.0,70.0
422,E01018926,58.0,58.0
423,E01018927,94.0,94.0
424,E01018928,287.0,287.0
425,E01018929,262.0,262.0
426,E01018930,198.0,198.0
427,E01018931,64.0,64.0
428,E01018932,204.0,204.0
429,E01018933,415.0,415.0
430,E01018934,151.0,151.0
431,E01018935,233.0,233.0
432,E01018936,166.0,166.0
433,E01018937,210.0,210.0
434,E01018938,91.0,91.0
435,E01018940,67.0,67.0
436,E01018941,79.0,79.0
437,E01018942,96.0,96.0
438,E01018943,85.0,85.0
439,E01018944,65.0,65.0
440,E01018945,84.0,84.0
441,E01018946,112.0,112.0
442,E01018947,259.0,259.0
443,E01018948,132.0,132.0
444,E01018949,125.0,125.0
445,E01018950,245.0,245.0
446,E01018951,65.0,65.0
447,E01018952,50.0,50.0
448,E01018953,58.0,58.0
449,E01018954,50.0,50.0
450,E01018955,77.0,77.0
451,E01018956,22.0,22.0
452,E01018957,59.0,59.0
453,E01018958,89.0,89.0
454,E01018959,38.0,38.0
455,E01018960,97.0,97.0
456,E01018961,86.0,86.0
457,E01018962,60.0,60.0
458,E01018965,132.0,132.0
459,E01018966,19.0,19.0
460,E01018967,46.0,46.0
461,E01018968,68.0,68.0
462,E01018969,62.0,62.0
463,E01018970,85.0,85.0
464,E01018971,89.0,89.0
465,E01018972,166.0,166.0
466,E01018973,48.0,48.0
467,E01018974,92.0,92.0
468,E01018975,55.0,55.0
469,E01018976,79.0,79.0
470,E01018977,122.0,122.0
471,E01018978,122.0,122.0
472,E01018979,56.0,56.0
473,E01018980,78.0,78.0
474,E01018981,97.0,97.0
475,E01018982,160.0,160.0
476,E01018983,59.0,59.0
477,E01018984,272.0,272.0
478,E01018985,88.0,88.0
479,E01018986,61.0,61.0
480,E01018987,48.0,48.0
481,E01018988,88.0,88.0
482,E01018989,113.0,113.0
483,E01018990,75.0,75.0
484,E01018991,80.0,80.0
485,E01018992,70.0,70.0
486,E01018993,97.0,97.0
487,E01018994,87.0,87.0
488,E01018995,349.0,349.0
489,E01018996,192.0,192.0
490,E01018997,270.0,270.0
491,E01018998,103.0,103.0
492,E01018999,473.0,473.0
493,E01019000,58.0,58.0
494,E01019001,179.0,179.0
495,E01019002,53.0,53.0
496,E01019003,63.0,63.0
497,E01019004,128.0,128.0
498,E01019005,74.0,74.0
499,E01019006,61.0,61.0
500,E01019007,117.0,117.0
501,E01019008,138.0,138.0
502,E01019009,145.0,145.0
503,E01019010,50.0,50.0
504,E01019011,89.0,89.0
505,E01019012,213.0,213.0
506,E01019013,178.0,178.0
507,E01019014,88.0,88.0
508,E01019015,66.0,66.0
509,E01019016,53.0,53.0
510,E01019017,112.0,112.0
511,E01019018,69.0,69.0
512,E01019019,108.0,108.0
513,E01019020,272.0,272.0
514,E01019021,47.0,47.0
515,E01019022,133.0,133.0
516,E01019023,66.0,66.0
517,E01019024,75.0,75.0
518,E01019025,97.0,97.0
519,E01019026,112.0,112.0
520,E01019027,73.0,73.0
521,E01019028,219.0,219.0
522,E01019029,556.0,556.0
523,E01019030,88.0,88.0
524,E01019031,71.0,71.0
525,E01019032,90.0,90.0
526,E01019033,326.0,326.0
527,E01019034,126.0,126.0
528,E01019035,77.0,77.0
529,E01019036,74.0,74.0
530,E01019037,62.0,62.0
531,E01019038,76.0,76.0
532,E01019039,39.0,39.0
533,E01019040,51.0,51.0
534,E01019041,223.0,223.0
535,E01019042,135.0,135.0
536,E01019043,232.0,232.0
537,E01019044,58.0,58.0
538,E01019045,150.0,150.0
539,E01019046,140.0,140.0
540,E01019047,477.0,477.0
541,E01019048,175.0,175.0
542,E01019049,177.0,177.0
543,E01019050,102.0,102.0
544,E01019051,93.0,93.0
545,E01019052,124.0,124.0
546,E01019053,133.0,133.0
547,E01019054,79.0,79.0
548,E01019055,132.0,132.0
549,E01019056,192.0,192.0
550,E01019057,98.0,98.0
551,E01019058,117.0,117.0
552,E01019059,125.0,125.0
553,E01019060,42.0,42.0
554,E01019061,101.0,101.0
555,E01019062,105.0,105.0
556,E01019063,101.0,101.0
557,E01019064,73.0,73.0
558,E01019065,82.0,82.0
559,E01019066,51.0,51.0
560,E01019067,60.0,60.0
561,E01019068,37.0,37.0
562,E01019069,80.0,80.0
563,E01019070,121.0,121.0
564,E01019071,81.0,81.0
565,E01019072,134.0,134.0
566,E01019073,72.0,72.0
567,E01019074,190.0,190.0
568,E01019075,103.0,103.0
569,E01019076,151.0,151.0
570,E01019077,75.0,75.0
571,E01019886,160.0,160.0
572,E01019887,163.0,163.0
573,E01019888,154.0,154.0
574,E01019889,80.0,80.0
575,E01019890,52.0,52.0
576,E01019891,53.0,53.0
577,E01019892,306.0,306.0
578,E01019893,276.0,276.0
579,E01019894,40.0,40.0
580,E01019895,27.0,27.0
581,E01019896,58.0,58.0
582,E01019897,79.0,79.0
583,E01019898,125.0,125.0
584,E01019899,54.0,54.0
585,E01019900,31.0,31.0
586,E01019901,37.0,37.0
587,E01019902,62.0,62.0
588,E01019903,65.0,65.0
589,E01019904,104.0,104.0
590,E01019905,36.0,36.0
591,E01019906,55.0,55.0
592,E01019907,28.0,28.0
593,E01019908,77.0,77.0
594,E01019909,33.0,33.0
595,E01019910,146.0,146.0
596,E01019911,47.0,47.0
597,E01019912,111.0,111.0
598,E01019913,91.0,91.0
599,E01019914,310.0,310.0
600,E01019915,59.0,59.0
601,E01019916,698.0,698.0
602,E01019917,129.0,129.0
603,E01019918,198.0,198.0
604,E01019919,127.0,127.0
605,E01019920,151.0,151.0
606,E01019921,36.0,36.0
607,E01019922,106.0,106.0
608,E01019923,67.0,67.0
609,E01019924,122.0,122.0
610,E01019925,40.0,40.0
611,E01019927,138.0,138.0
612,E01019928,98.0,98.0
613,E01019929,37.0,37.0
614,E01019930,63.0,63.0
615,E01019931,17.0,17.0
616,E01019932,262.0,262.0
617,E01019933,74.0,74.0
618,E01019934,137.0,137.0
619,E01019935,30.0,30.0
620,E01019936,28.0,28.0
621,E01019937,60.0,60.0
622,E01019938,57.0,57.0
623,E01019939,57.0,57.0
624,E01019940,21.0,21.0
625,E01019942,160.0,160.0
626,E01019943,51.0,51.0
627,E01019944,98.0,98.0
628,E01019945,85.0,85.0
629,E01019946,57.0,57.0
630,E01019947,132.0,132.0
631,E01019948,39.0,39.0
632,E01019949,35.0,35.0
633,E01019950,66.0,66.0
634,E01019951,53.0,53.0
635,E01019952,55.0,55.0
636,E01019953,71.0,71.0
637,E01019954,134.0,134.0
638,E01019955,103.0,103.0
639,E01019956,112.0,112.0
640,E01019957,43.0,43.0
641,E01019958,70.0,70.0
642,E01019959,32.0,32.0
643,E01019960,80.0,80.0
644,E01019961,50.0,50.0
645,E01019962,96.0,96.0
646,E01019963,41.0,41.0
647,E01019964,40.0,40.0
648,E01019965,67.0,67.0
649,E01019966,35.0,35.0
650,E01019967,35.0,35.0
651,E01019968,73.0,73.0
652,E01019969,127.0,127.0
653,E01019970,96.0,96.0
654,E01019971,220.0,220.0
655,E01019972,93.0,93.0
656,E01019973,81.0,81.0
657,E01019974,80.0,80.0
658,E01019975,171.0,171.0
659,E01019976,51.0,51.0
660,E01019977,100.0,100.0
661,E01019980,140.0,140.0
662,E01019981,150.0,150.0
663,E01019982,138.0,138.0
664,E01019983,66.0,66.0
665,E01019984,53.0,53.0
666,E01019985,159.0,159.0
667,E01019986,109.0,109.0
668,E01019987,83.0,83.0
669,E01019988,52.0,52.0
670,E01019989,26.0,26.0
671,E01019990,125.0,125.0
672,E01019991,270.0,270.0
673,E01019992,133.0,133.0
674,E01019993,34.0,34.0
675,E01019994,173.0,173.0
676,E01019995,554.0,554.0
677,E01019996,68.0,68.0
678,E01019997,45.0,45.0
679,E01019998,57.0,57.0
680,E01019999,25.0,25.0
681,E01020000,111.0,111.0
682,E01020001,30.0,30.0
683,E01020002,196.0,196.0
684,E01020003,65.0,65.0
685,E01020004,53.0,53.0
686,E01020005,266.0,266.0
687,E01020006,252.0,252.0
688,E01020007,83.0,83.0
689,E01020008,68.0,68.0
690,E01020009,50.0,50.0
691,E01020010,251.0,251.0
692,E01020011,90.0,90.0
693,E01020012,227.0,227.0
694,E01020013,454.0,454.0
695,E01020014,186.0,186.0
696,E01020015,244.0,244.0
697,E01020016,1599.0,1599.0
698,E01020017,365.0,365.0
699,E01020018,1194.0,1194.0
700,E01020019,56.0,56.0
701,E01020020,139.0,139.0
702,E01020021,398.0,398.0
703,E01020022,555.0,555.0
704,E01020023,200.0,200.0
705,E01020024,54.0,54.0
706,E01020025,144.0,144.0
707,E01020026,42.0,42.0
708,E01020027,55.0,55.0
709,E01020029,94.0,94.0
710,E01020030,345.0,345.0
711,E01020031,71.0,71.0
712,E01020032,137.0,137.0
713,E01020033,108.0,108.0
714,E01020035,119.0,119.0
715,E01020036,119.0,119.0
716,E01020037,245.0,245.0
717,E01020038,97.0,97.0
718,E01020039,132.0,132.0
719,E01020040,89.0,89.0
720,E01020041,203.0,203.0
721,E01020042,61.0,61.0
722,E01020043,81.0,81.0
723,E01020044,27.0,27.0
724,E01020045,75.0,75.0
725,E01020046,61.0,61.0
726,E01020047,89.0,89.0
727,E01020048,492.0,492.0
728,E01020049,25.0,25.0
729,E01020050,76.0,76.0
730,E01020051,36.0,36.0
731,E01020052,234.0,234.0
732,E01020053,76.0,76.0
733,E01020054,166.0,166.0
734,E01020055,294.0,294.0
735,E01020056,73.0,73.0
736,E01020057,100.0,100.0
737,E01020058,73.0,73.0
738,E01020059,68.0,68.0
739,E01020060,221.0,221.0
740,E01020061,128.0,128.0
741,E01020062,49.0,49.0
742,E01020063,138.0,138.0
743,E01020064,102.0,102.0
744,E01020065,240.0,240.0
745,E01020066,142.0,142.0
746,E01020067,175.0,175.0
747,E01020068,30.0,30.0
748,E01020069,29.0,29.0
749,E01020070,50.0,50.0
750,E01020071,65.0,65.0
751,E01020072,33.0,33.0
752,E01020073,104.0,104.0
753,E01020074,33.0,33.0
754,E01020075,51.0,51.0
755,E01020076,64.0,64.0
756,E01020077,58.0,58.0
757,E01020078,185.0,185.0
758,E01020079,119.0,119.0
759,E01020080,39.0,39.0
760,E01020081,45.0,45.0
761,E01020082,35.0,35.0
762,E01020083,85.0,85.0
763,E01020084,78.0,78.0
764,E01020085,175.0,175.0
765,E01020086,48.0,48.0
766,E01020087,70.0,70.0
767,E01020088,73.0,73.0
768,E01020089,119.0,119.0
769,E01020090,35.0,35.0
770,E01020091,37.0,37.0
771,E01020092,27.0,27.0
772,E01020093,94.0,94.0
773,E01020094,1110.0,1110.0
774,E01020095,144.0,144.0
775,E01020096,216.0,216.0
776,E01020097,69.0,69.0
777,E01020098,80.0,80.0
778,E01020099,87.0,87.0
779,E01020100,46.0,46.0
780,E01020101,109.0,109.0
781,E01020102,65.0,65.0
782,E01020103,249.0,249.0
783,E01020104,171.0,171.0
784,E01020105,72.0,72.0
785,E01020106,14.0,14.0
786,E01020107,45.0,45.0
787,E01020108,153.0,153.0
788,E01020109,63.0,63.0
789,E01020110,138.0,138.0
790,E01020111,236.0,236.0
791,E01020112,310.0,310.0
792,E01020113,330.0,330.0
793,E01020114,87.0,87.0
794,E01020115,65.0,65.0
795,E01020116,104.0,104.0
796,E01020117,73.0,73.0
797,E01020118,107.0,107.0
798,E01020119,52.0,52.0
799,E01020120,47.0,47.0
800,E01020121,79.0,79.0
801,E01020122,105.0,105.0
802,E01020123,118.0,118.0
803,E01020124,120.0,120.0
804,E01020125,35.0,35.0
805,E01020126,77.0,77.0
806,E01020127,71.0,71.0
807,E01020128,133.0,133.0
808,E01020129,159.0,159.0
809,E01020130,99.0,99.0
810,E01020131,86.0,86.0
811,E01020132,103.0,103.0
812,E01020133,117.0,117.0
813,E01020134,250.0,250.0
814,E01020135,127.0,127.0
815,E01020136,83.0,83.0
816,E01020137,140.0,140.0
817,E01020138,96.0,96.0
818,E01020139,164.0,164.0
819,E01020140,59.0,59.0
820,E01020141,182.0,182.0
821,E01020142,70.0,70.0
822,E01020143,83.0,83.0
823,E01020144,30.0,30.0
824,E01020145,91.0,91.0
825,E01020146,32.0,32.0
826,E01020147,59.0,59.0
827,E01020148,29.0,29.0
828,E01020149,96.0,96.0
829,E01020150,73.0,73.0
830,E01020151,49.0,49.0
831,E01020152,87.0,87.0
832,E01020153,29.0,29.0
833,E01020154,73.0,73.0
834,E01020155,73.0,73.0
835,E01020156,48.0,48.0
836,E01020157,79.0,79.0
837,E01020158,37.0,37.0
838,E01020159,45.0,45.0
839,E01020160,85.0,85.0
840,E01020161,208.0,208.0
841,E01020162,64.0,64.0
842,E01020163,49.0,49.0
843,E01020164,93.0,93.0
844,E01020165,30.0,30.0
845,E01020166,47.0,47.0
846,E01020167,33.0,33.0
847,E01020168,111.0,111.0
848,E01020169,167.0,167.0
849,E01020170,61.0,61.0
850,E01020171,52.0,52.0
851,E01020172,83.0,83.0
852,E01020173,44.0,44.0
853,E01020174,58.0,58.0
854,E01020175,76.0,76.0
855,E01020176,37.0,37.0
856,E01020177,85.0,85.0
857,E01020178,40.0,40.0
858,E01020179,69.0,69.0
859,E01020180,240.0,240.0
860,E01020181,93.0,93.0
861,E01020182,86.0,86.0
862,E01020183,172.0,172.0
863,E01020184,128.0,128.0
864,E01020185,33.0,33.0
865,E01020186,15.0,15.0
866,E01020187,94.0,94.0
867,E01020188,66.0,66.0
868,E01020189,139.0,139.0
869,E01020190,95.0,95.0
870,E01020191,204.0,204.0
871,E01020192,42.0,42.0
872,E01020193,41.0,41.0
873,E01020194,34.0,34.0
874,E01020195,98.0,98.0
875,E01020196,137.0,137.0
876,E01020197,46.0,46.0
877,E01020198,175.0,175.0
878,E01020199,118.0,118.0
879,E01020200,25.0,25.0
880,E01020201,26.0,26.0
881,E01020202,73.0,73.0
882,E01020203,55.0,55.0
883,E01020204,143.0,143.0
884,E01020205,41.0,41.0
885,E01020206,72.0,72.0
886,E01020207,162.0,162.0
887,E01020208,103.0,103.0
888,E01020209,70.0,70.0
889,E01020210,39.0,39.0
890,E01020211,224.0,224.0
891,E01020212,115.0,115.0
892,E01020213,75.0,75.0
893,E01020214,45.0,45.0
894,E01020215,32.0,32.0
895,E01020216,243.0,243.0
896,E01020217,292.0,292.0
897,E01020218,730.0,730.0
898,E01020219,181.0,181.0
899,E01020220,70.0,70.0
900,E01020221,73.0,73.0
901,E01020222,43.0,43.0
902,E01020223,69.0,69.0
903,E01020224,115.0,115.0
904,E01020225,188.0,188.0
905,E01020226,89.0,89.0
906,E01020227,130.0,130.0
907,E01020228,188.0,188.0
908,E01020229,347.0,347.0
909,E01020230,110.0,110.0
910,E01020231,100.0,100.0
911,E01020232,81.0,81.0
912,E01020233,53.0,53.0
913,E01020234,98.0,98.0
914,E01020235,123.0,123.0
915,E01020236,53.0,53.0
916,E01020237,107.0,107.0
917,E01020238,39.0,39.0
918,E01020239,34.0,34.0
919,E01020240,108.0,108.0
920,E01020241,98.0,98.0
921,E01020242,29.0,29.0
922,E01020243,36.0,36.0
923,E01020244,51.0,51.0
924,E01020245,58.0,58.0
925,E01020246,89.0,89.0
926,E01020247,121.0,121.0
927,E01020248,84.0,84.0
928,E01020249,52.0,52.0
929,E01020250,70.0,70.0
930,E01020251,82.0,82.0
931,E01020252,201.0,201.0
932,E01020253,66.0,66.0
933,E01020254,84.0,84.0
934,E01020255,85.0,85.0
935,E01020256,94.0,94.0
936,E01020257,38.0,38.0
937,E01020258,54.0,54.0
938,E01020259,33.0,33.0
939,E01020260,27.0,27.0
940,E01020261,47.0,47.0
941,E01020262,46.0,46.0
942,E01020263,31.0,31.0
943,E01020264,88.0,88.0
944,E01020265,55.0,55.0
945,E01020266,80.0,80.0
946,E01020267,68.0,68.0
947,E01020268,83.0,83.0
948,E01020269,307.0,307.0
949,E01020270,67.0,67.0
950,E01020271,118.0,118.0
951,E01020272,177.0,177.0
952,E01020273,33.0,33.0
953,E01020274,28.0,28.0
954,E01020275,56.0,56.0
955,E01020276,33.0,33.0
956,E01020277,235.0,235.0
957,E01020278,51.0,51.0
958,E01020279,304.0,304.0
959,E01020280,434.0,434.0
960,E01020281,47.0,47.0
961,E01020282,248.0,248.0
962,E01020283,90.0,90.0
963,E01020284,187.0,187.0
964,E01020285,184.0,184.0
965,E01020286,34.0,34.0
966,E01020287,65.0,65.0
967,E01020288,77.0,77.0
968,E01020289,40.0,40.0
969,E01020290,72.0,72.0
970,E01020291,73.0,73.0
971,E01020292,56.0,56.0
972,E01020293,153.0,153.0
973,E01020294,181.0,181.0
974,E01020295,31.0,31.0
975,E01020296,46.0,46.0
976,E01020297,78.0,78.0
977,E01020298,69.0,69.0
978,E01020299,82.0,82.0
979,E01020300,82.0,82.0
980,E01020301,106.0,106.0
981,E01020302,56.0,56.0
982,E01020303,36.0,36.0
983,E01020304,76.0,76.0
984,E01020305,102.0,102.0
985,E01020306,28.0,28.0
986,E01020307,123.0,123.0
987,E01020308,45.0,45.0
988,E01020309,56.0,56.0
989,E01020310,176.0,176.0
990,E01020311,86.0,86.0
991,E01020312,57.0,57.0
992,E01020313,76.0,76.0
993,E01020314,35.0,35.0
994,E01020315,44.0,44.0
995,E01020316,32.0,32.0
996,E01020317,35.0,35.0
997,E01020318,47.0,47.0
998,E01020319,80.0,80.0
999,E01020320,30.0,30.0
1000,E01020321,132.0,132.0
1001,E01020322,133.0,133.0
1002,E01020323,193.0,193.0
1003,E01020324,35.0,35.0
1004,E01020325,63.0,63.0
1005,E01020326,106.0,106.0
1006,E01020327,84.0,84.0
1007,E01020328,248.0,248.0
1008,E01020329,93.0,93.0
1009,E01020330,223.0,223.0
1010,E01020331,72.0,72.0
1011,E01020332,206.0,206.0
1012,E01020333,50.0,50.0
1013,E01020334,165.0,165.0
1014,E01020335,73.0,73.0
1015,E01020336,26.0,26.0
1016,E01020337,92.0,92.0
1017,E01020338,106.0,106.0
1018,E01020339,45.0,45.0
1019,E01020340,86.0,86.0
1020,E01020341,47.0,47.0
1021,E01020342,87.0,87.0
1022,E01032628,61.0,61.0
1023,E01032657,270.0,270.0
1024,E01032658,796.0,796.0
1025,E01033232,115.0,115.0
1026,E01033233,173.0,173.0
1027,E01033234,277.0,277.0
1028,E01033235,41.0,41.0
1029,E01033236,40.0,40.0
1030,E01033289,81.0,81.0
1031,E01033291,157.0,157.0
1032,E01033292,185.0,185.0
1033,E01033294,119.0,119.0
