,lsoa_code,actual,predicted
0,E01015023,1.0,10.555868802580394
1,E01015024,0.0,7.3111703431066815
2,E01015025,0.0,3.085796802354173
3,E01015026,0.0,9.852996824158128
4,E01015027,49.0,36.6710825072435
5,E01015028,0.0,9.173786128888123
6,E01015029,22.0,18.054788898138252
7,E01015030,87.0,61.12426165687803
8,E01015031,0.0,11.639094675179653
9,E01015032,180.0,168.10248816195826
10,E01015033,1.0,4.2021641267410885
11,E01015034,0.0,6.304828340116663
12,E01015035,37.0,17.06842149335742
13,E01015036,4.0,10.591031992515033
14,E01015037,0.0,8.348073914306388
15,E01015038,0.0,5.843325847188462
16,E01015039,0.0,12.399027327271606
17,E01015040,1.0,11.857685693016956
18,E01015041,1.0,9.86634572328782
19,E01015042,4.0,12.885705878173388
20,E01015043,1.0,20.216514516771095
21,E01015044,69.0,71.16102033108876
22,E01015045,88.0,94.80751103087637
23,E01015046,52.0,76.84036071902787
24,E01015047,6.0,15.987166588361019
25,E01015048,36.0,54.90739974076742
26,E01015049,0.0,7.845601104641341
27,E01015050,1.0,18.441451873948886
28,E01015051,23.0,24.167853543019657
29,E01015052,13.0,28.723855809305302
30,E01015053,0.0,26.312353965364206
31,E01015054,23.0,33.21378897788944
32,E01015055,92.0,42.47468173338486
33,E01015056,0.0,10.99008956816697
34,E01015057,16.0,17.27236146918622
35,E01015058,0.0,9.533500955257502
36,E01015059,5.0,11.676999039208265
37,E01015060,0.0,9.99948487910435
38,E01015061,36.0,33.671298919194996
39,E01015062,38.0,31.90364042995531
40,E01015063,0.0,8.147471974004924
41,E01015064,13.0,5.814480633878319
42,E01015065,4.0,7.639748814972992
43,E01015066,0.0,6.15772797165414
44,E01015067,0.0,3.0063713540728245
45,E01015068,10.0,5.102383961621774
46,E01015069,11.0,8.875425396708145
47,E01015070,2.0,12.501553259347345
48,E01015071,19.0,11.723711618275166
49,E01015072,7.0,12.357978622275787
50,E01015073,2.0,10.098862060280666
51,E01015074,0.0,10.661566827336646
52,E01015075,4.0,9.726571337322744
53,E01015076,0.0,8.580542330262414
54,E01015077,5.0,13.999015736966959
55,E01015078,6.0,12.061693739584769
56,E01015079,2.0,8.90833099129842
57,E01015080,1.0,9.298246534708346
58,E01015081,0.0,9.876222042756233
59,E01015082,11.0,15.186441849004753
60,E01015083,0.0,16.668534792940935
61,E01015084,0.0,8.506958422782773
62,E01015085,7.0,10.569857991361241
63,E01015086,2.0,7.749780831144059
64,E01015087,12.0,13.431079874163265
65,E01015088,8.0,14.73857953559704
66,E01015089,157.0,87.04164497911688
67,E01015090,0.0,5.469438091966783
68,E01015091,0.0,6.721752783178144
69,E01015092,7.0,14.122145205440395
70,E01015093,5.0,9.929693109214998
71,E01015094,44.0,21.34346130818392
72,E01015095,86.0,45.902013815211824
73,E01015096,0.0,8.81316435967255
74,E01015097,1.0,5.672475598367444
75,E01015098,5.0,9.38721668160983
76,E01015099,3.0,8.545186914003486
77,E01015100,0.0,10.731163929344062
78,E01015101,41.0,25.58102618833678
79,E01015102,19.0,17.748860346768318
80,E01015103,18.0,16.868663575680266
81,E01015104,1.0,7.802387858054988
82,E01015105,0.0,7.737512120558046
83,E01015106,31.0,21.250904918613028
84,E01015107,0.0,5.480501540207562
85,E01015108,4.0,9.48088868143063
86,E01015109,1.0,11.03059897611007
87,E01015110,0.0,2.7755762220752485
88,E01015111,59.0,41.28890418601426
89,E01015112,14.0,12.139677568807572
90,E01015113,7.0,6.3357159915143555
91,E01015114,2.0,6.61367806294503
92,E01015115,50.0,26.303821772794297
93,E01015116,0.0,2.9348438297709474
94,E01015117,0.0,4.674740959882855
95,E01015118,20.0,11.743438464967376
96,E01015119,0.0,3.0727350093518178
97,E01015120,1.0,4.990435012974675
98,E01015121,0.0,6.927772212062399
99,E01015122,29.0,15.91705583281119
100,E01015123,43.0,25.08573382227229
101,E01015124,3.0,5.555052507551625
102,E01015125,0.0,3.927325414844122
103,E01015126,0.0,7.1990338636050035
104,E01015127,1.0,7.684338545218434
105,E01015128,3.0,4.560090708335671
106,E01015129,0.0,7.513035872800107
107,E01015130,0.0,5.7097045682227945
108,E01015131,0.0,2.2608119019507456
109,E01015132,0.0,6.0999409520613215
110,E01015133,0.0,2.764229373032675
111,E01015134,4.0,12.064594557901888
112,E01015135,127.0,73.20945991179993
113,E01015136,68.0,26.90696072913555
114,E01015137,0.0,4.616759857045943
115,E01015138,1.0,7.084708985779693
116,E01015139,0.0,6.19504075776698
117,E01015140,0.0,5.548350742173587
118,E01015141,0.0,2.913762676346844
119,E01015142,0.0,8.554595250037101
120,E01015143,22.0,17.59565341870175
121,E01015144,102.0,50.29225883662372
122,E01015145,0.0,13.49011081981487
123,E01015146,24.0,20.597757628211383
124,E01015147,1.0,7.641842726681868
125,E01015148,1.0,9.339681838977176
126,E01015149,4.0,12.903124840753406
127,E01015150,6.0,11.924351773274504
128,E01015151,85.0,99.5819217746313
129,E01015152,549.0,455.4440972222224
130,E01015153,13.0,47.048501931968175
131,E01015155,106.0,212.19738627344833
132,E01015156,1160.0,843.0101388888872
133,E01015157,138.0,179.35755640384164
134,E01015158,33.0,102.92437106974808
135,E01015159,43.0,34.75931217046826
136,E01015160,0.0,4.07304546085041
137,E01015161,0.0,8.668640163655379
138,E01015162,0.0,7.11164750729319
139,E01015163,4.0,7.667627951084743
140,E01015164,42.0,33.61846173609653
141,E01015165,0.0,5.593985394573686
142,E01015166,3.0,13.211217513266174
143,E01015167,12.0,16.126849719704698
144,E01015168,97.0,80.1223477522119
145,E01015169,4.0,16.252586533407197
146,E01015170,83.0,74.8508009782371
147,E01015171,4.0,23.31568534653869
148,E01015172,37.0,39.33358946539615
149,E01015173,2.0,13.78595396764146
150,E01015174,0.0,8.562541097814888
151,E01015175,13.0,20.59759068497225
152,E01015176,1.0,10.11591815090797
153,E01015177,14.0,16.882110095233788
154,E01015178,29.0,31.316299872228548
155,E01015179,1.0,14.748050656953822
156,E01015180,44.0,64.5025907780293
157,E01015181,191.0,178.34981077294594
158,E01015182,18.0,43.94064713543277
159,E01015183,9.0,12.070225528273756
160,E01015184,1.0,7.117907200468503
161,E01015185,11.0,15.395035028664694
162,E01015186,93.0,81.94738590836832
163,E01015187,0.0,5.198876018179184
164,E01015188,3.0,4.754857423997177
165,E01015189,1.0,10.386294255246616
166,E01015190,1.0,6.3765963941267
167,E01015191,0.0,4.691205805826808
168,E01015192,0.0,8.365278545699391
169,E01015193,8.0,7.729368417624164
170,E01015194,0.0,8.668638593739672
171,E01015195,99.0,69.64060815812826
172,E01015196,0.0,11.180997648994357
173,E01015197,12.0,5.42367952407101
174,E01015198,3.0,5.48325934917687
175,E01015199,2.0,3.887683641029824
176,E01015200,1.0,4.479823153171186
177,E01015201,0.0,3.7991398930626548
178,E01015202,0.0,5.640481307531639
179,E01015203,7.0,3.017522642927548
180,E01015204,0.0,10.862431587689821
181,E01015205,0.0,5.93264552480433
182,E01015206,0.0,8.169151228827976
183,E01015207,0.0,5.709356379036305
184,E01015208,24.0,11.63266564462579
185,E01015209,25.0,24.142375219451086
186,E01015210,1.0,12.216678054628028
187,E01015211,0.0,4.659411409228246
188,E01015212,1.0,11.342828545256642
189,E01015213,3.0,9.05073385054996
190,E01015214,6.0,20.713784658024153
191,E01015215,0.0,7.761128758328723
192,E01015216,2.0,12.915915428526832
193,E01015217,209.0,188.78658297366283
194,E01015218,0.0,11.497021737739994
195,E01015219,0.0,10.879028643905269
196,E01015220,0.0,5.012393474353434
197,E01015221,23.0,11.363576070764163
198,E01015222,12.0,20.423404418968023
199,E01015223,2.0,5.226961815380249
200,E01015224,12.0,9.768300286375831
201,E01015225,51.0,21.509857140084996
202,E01015226,0.0,2.2815803852765013
203,E01015227,0.0,3.7285974068347523
204,E01015228,23.0,18.10236811886668
205,E01015229,0.0,10.559496353705365
206,E01015230,0.0,3.0700281350100287
207,E01015231,265.0,255.04912799564264
208,E01015232,167.0,171.04139048670038
209,E01015233,5.0,24.74662941479589
210,E01015234,0.0,11.83181405262957
211,E01015235,1.0,14.597832786510123
212,E01015236,5.0,7.378746215278972
213,E01015237,0.0,7.857286639549344
214,E01015238,4.0,10.781968425129362
215,E01015239,34.0,47.92343373287346
216,E01015240,54.0,43.62707334981827
217,E01015241,2.0,10.838617463590072
218,E01015242,126.0,78.50541546277846
219,E01015243,0.0,7.267262886585557
220,E01015244,0.0,4.53195078865353
221,E01015245,0.0,28.366341708867804
222,E01015246,7.0,5.8529011297028095
223,E01015247,0.0,7.113044464535507
224,E01015248,3.0,13.40926686039269
225,E01015249,0.0,11.2594834763985
226,E01015250,0.0,8.150651111378608
227,E01015251,76.0,39.61614756157163
228,E01015252,75.0,57.97745574471472
229,E01015253,112.0,72.20255497390389
230,E01015254,5.0,5.416544963394156
231,E01015255,12.0,55.37174243462297
232,E01015256,571.0,490.305555555556
233,E01015257,3.0,10.69070069080129
234,E01015258,80.0,64.28991359581401
235,E01015259,64.0,33.386781999228646
236,E01015260,19.0,42.321103826713085
237,E01015261,4.0,27.259531193471446
238,E01015262,0.0,7.83553483855364
239,E01015263,2.0,9.862366945559938
240,E01015264,0.0,4.007325151252145
241,E01015265,0.0,4.692051583817877
242,E01015266,1.0,9.237233485346515
243,E01015267,73.0,85.19015345129579
244,E01015268,14.0,20.49115813810027
245,E01015269,37.0,30.410984593279476
246,E01015270,0.0,14.73774856385443
247,E01015271,1.0,3.9492548697368237
248,E01018750,0.0,6.123611491323151
249,E01018751,59.0,69.71940896723927
250,E01018752,1.0,5.787141169263425
251,E01018753,1.0,2.1341913584604377
252,E01018754,3.0,6.246350775564717
253,E01018755,8.0,3.9401526309117645
254,E01018756,0.0,4.292627281192344
255,E01018757,0.0,2.3050856904408117
256,E01018758,1.0,4.7130592136352485
257,E01018759,0.0,2.7942415255318354
258,E01018760,0.0,2.33806739791584
259,E01018761,1.0,5.71022526712289
260,E01018762,0.0,4.8776938998575465
261,E01018763,1.0,4.664678962747621
262,E01018764,0.0,1.9131184219254453
263,E01018765,1.0,2.365154770529548
264,E01018766,0.0,4.216994927829712
265,E01018767,0.0,8.445390182731181
266,E01018768,61.0,39.7444623487495
267,E01018769,8.0,11.403862521340555
268,E01018770,1.0,10.075520068581826
269,E01018771,115.0,108.89148942186038
270,E01018772,17.0,8.34921309896001
271,E01018773,6.0,10.778075643493782
272,E01018774,0.0,9.31588312242195
273,E01018775,5.0,4.712969734454165
274,E01018776,33.0,38.017062010605535
275,E01018777,0.0,2.025641286883125
276,E01018778,10.0,3.1795980990634893
277,E01018779,0.0,3.2547947146386913
278,E01018780,4.0,7.0733424268984875
279,E01018781,1.0,5.066405098815679
280,E01018782,0.0,3.097110117609437
281,E01018783,0.0,2.175885089001222
282,E01018784,32.0,4.808010292716985
283,E01018785,0.0,2.2736195158239245
284,E01018786,6.0,6.231747387602662
285,E01018787,89.0,46.16707723881123
286,E01018788,3.0,11.051711265232393
287,E01018789,12.0,9.892004162930832
288,E01018790,2.0,10.557750859487559
289,E01018791,0.0,8.245322247272139
290,E01018792,41.0,23.59753464248543
291,E01018793,90.0,56.29938616900409
292,E01018794,0.0,5.89236658424177
293,E01018795,0.0,2.351918758472226
294,E01018796,0.0,3.8664626877394372
295,E01018797,36.0,38.373656309987524
296,E01018798,1.0,7.133592252008821
297,E01018799,26.0,24.048441448435298
298,E01018800,0.0,6.827077272923668
299,E01018803,11.0,27.527156067192895
300,E01018804,145.0,108.34726421723778
301,E01018805,1.0,7.3227078822683005
302,E01018806,1.0,10.95551442000345
303,E01018807,8.0,11.412499064285408
304,E01018808,0.0,8.495203494199213
305,E01018809,732.0,552.9050694444452
306,E01018810,48.0,29.132085321850322
307,E01018811,0.0,5.061227681507407
308,E01018812,5.0,12.206661140591093
309,E01018813,0.0,3.1926826865224234
310,E01018814,2.0,7.848044652866039
311,E01018815,0.0,3.2230662458204367
312,E01018816,0.0,2.8560832246264587
313,E01018817,1.0,2.398164627098026
314,E01018818,5.0,3.179809585846358
315,E01018819,28.0,12.206907072919755
316,E01018820,2.0,5.136774151020065
317,E01018821,1.0,2.5984027725728143
318,E01018822,11.0,10.18927056374356
319,E01018823,1.0,7.311551728628938
320,E01018824,32.0,16.648860687171947
321,E01018825,1.0,4.781184191427726
322,E01018826,2.0,4.583182467376232
323,E01018827,1.0,2.4347490169630293
324,E01018828,0.0,4.634374974443618
325,E01018829,0.0,3.1374251085945755
326,E01018830,0.0,2.1351019127281496
327,E01018831,11.0,4.337095384324115
328,E01018832,1.0,2.803202542206366
329,E01018833,5.0,3.206427215905264
330,E01018834,75.0,38.85433787027852
331,E01018835,0.0,9.91898325511054
332,E01018836,20.0,23.60443428693533
333,E01018837,19.0,23.752008413235195
334,E01018838,0.0,9.989426456890499
335,E01018839,26.0,25.925452262557943
336,E01018840,34.0,38.23648618648595
337,E01018841,1.0,10.052059152821517
338,E01018842,1.0,5.7641130125176145
339,E01018843,0.0,2.9050506168396737
340,E01018844,26.0,27.286485057842835
341,E01018845,0.0,5.0388531047858605
342,E01018846,4.0,4.996699057493098
343,E01018847,2.0,2.8936437336691676
344,E01018848,3.0,4.020150793021542
345,E01018849,1.0,4.5181302778017765
346,E01018850,0.0,2.3885429299566288
347,E01018851,4.0,7.878273314172038
348,E01018852,0.0,3.2856515312363115
349,E01018853,7.0,10.545845230358351
350,E01018854,0.0,9.14630465262224
351,E01018855,30.0,25.50737378226876
352,E01018856,20.0,14.277854235513187
353,E01018857,35.0,16.89875451142824
354,E01018858,0.0,5.174773335549082
355,E01018859,9.0,5.304323570790172
356,E01018860,30.0,17.51136506231053
357,E01018861,1.0,2.6662868092269094
358,E01018862,0.0,2.6356135396913145
359,E01018863,2.0,3.7938899653056524
360,E01018864,0.0,2.4311270537456418
361,E01018865,3.0,12.800868234300049
362,E01018866,0.0,8.501624279128674
363,E01018867,0.0,11.603838560917092
364,E01018868,79.0,54.706573766841224
365,E01018869,0.0,6.213021102971218
366,E01018870,0.0,14.970310750646123
367,E01018871,0.0,6.490908185134247
368,E01018872,0.0,4.485316618228464
369,E01018873,3.0,6.528288931488133
370,E01018874,0.0,7.26945661277045
371,E01018875,0.0,19.99904169133851
372,E01018876,3.0,4.233863251979304
373,E01018877,0.0,4.409060852615803
374,E01018878,188.0,165.78816261775347
375,E01018879,0.0,2.731627925486248
376,E01018880,0.0,2.674741829068836
377,E01018881,0.0,4.001641164029177
378,E01018882,0.0,3.193420269088738
379,E01018883,0.0,4.1596801161831305
380,E01018884,0.0,4.1550617952091535
381,E01018885,17.0,14.598566752923762
382,E01018886,28.0,27.11020592529741
383,E01018887,5.0,14.676499965603531
384,E01018888,44.0,35.41358956791968
385,E01018889,0.0,3.4986730821050407
386,E01018890,0.0,4.029258265542293
387,E01018891,3.0,3.3675351822053226
388,E01018892,1.0,3.326242411180254
389,E01018893,18.0,11.918550802991236
390,E01018894,1.0,3.303752010877111
391,E01018895,65.0,33.73468579264858
392,E01018896,0.0,4.323942196052337
393,E01018897,137.0,115.94976600997322
394,E01018898,15.0,15.895595880831628
395,E01018899,2.0,5.949414082687095
396,E01018900,0.0,2.7476076051945855
397,E01018901,0.0,3.681826308758426
398,E01018902,1.0,3.039360693984015
399,E01018903,0.0,6.504523415825792
400,E01018904,1.0,4.694410121170404
401,E01018905,0.0,2.721218258772737
402,E01018906,11.0,6.955374046322248
403,E01018907,0.0,6.640031786454602
404,E01018908,0.0,7.5492579748458075
405,E01018909,0.0,11.287515548999274
406,E01018910,21.0,19.661594215209966
407,E01018911,112.0,102.02680277190592
408,E01018912,27.0,8.84837155407797
409,E01018913,64.0,60.35435191275947
410,E01018914,0.0,8.464678488491746
411,E01018915,2.0,9.42131599091174
412,E01018916,0.0,4.014444936120813
413,E01018917,2.0,3.9782320944052088
414,E01018918,3.0,4.320791991513741
415,E01018919,0.0,3.3262556181190517
416,E01018920,0.0,3.2426252864124443
417,E01018921,1.0,2.894916689176461
418,E01018922,0.0,2.5058744607249963
419,E01018923,0.0,2.8454616751595774
420,E01018924,45.0,19.452917029692863
421,E01018925,2.0,2.5936639663433594
422,E01018926,1.0,2.6848683283074823
423,E01018927,0.0,8.232462873974214
424,E01018928,124.0,121.17636959507098
425,E01018929,31.0,15.267575176703243
426,E01018930,50.0,33.05476472440518
427,E01018931,0.0,6.675779897950972
428,E01018932,154.0,116.30050580285909
429,E01018933,129.0,133.65762940779942
430,E01018934,35.0,8.14994644702556
431,E01018935,0.0,8.527295038263368
432,E01018936,50.0,38.29210661819551
433,E01018937,38.0,21.529620540036493
434,E01018938,7.0,6.802759298568356
435,E01018940,1.0,3.2437885494101435
436,E01018941,0.0,6.798771227483943
437,E01018942,2.0,6.226810670598038
438,E01018943,4.0,2.907119127708906
439,E01018944,0.0,4.248309471786443
440,E01018945,13.0,3.5229155804665644
441,E01018946,24.0,19.69638140172985
442,E01018947,55.0,56.64257276581659
443,E01018948,15.0,25.598032819342503
444,E01018949,0.0,8.595598286988189
445,E01018950,67.0,75.5832666354621
446,E01018951,2.0,2.51465287500301
447,E01018952,1.0,2.6349777355661783
448,E01018953,0.0,3.1938435782297687
449,E01018954,0.0,7.615378755809484
450,E01018955,0.0,3.810793368242887
451,E01018956,1.0,5.298475876483
452,E01018957,11.0,8.854548212494858
453,E01018958,9.0,15.135621517559448
454,E01018959,0.0,4.124452078399602
455,E01018960,0.0,7.9573512045896875
456,E01018961,0.0,9.422736304344028
457,E01018962,7.0,3.7611103382294058
458,E01018965,0.0,3.030772251724499
459,E01018966,0.0,2.334029982947567
460,E01018967,1.0,2.381120595518624
461,E01018968,0.0,2.152986772661331
462,E01018969,0.0,3.0615651705592932
463,E01018970,2.0,3.406440460695695
464,E01018971,1.0,5.139876583181367
465,E01018972,44.0,40.915012181180074
466,E01018973,0.0,6.468339835418426
467,E01018974,1.0,2.6510608385867447
468,E01018975,0.0,2.865249622779779
469,E01018976,2.0,6.042782263871358
470,E01018977,1.0,10.949283394564258
471,E01018978,24.0,14.376047868986031
472,E01018979,0.0,3.1826892340857067
473,E01018980,4.0,4.9503292792427045
474,E01018981,44.0,12.555079475942055
475,E01018982,1.0,13.211093857134745
476,E01018983,18.0,5.874389363817427
477,E01018984,129.0,70.23329178148269
478,E01018985,2.0,5.17011876226967
479,E01018986,0.0,6.739599468826885
480,E01018987,0.0,2.6463318244337444
481,E01018988,41.0,11.869227218094439
482,E01018989,1.0,4.284540373372805
483,E01018990,1.0,5.741172717459553
484,E01018991,0.0,6.102776041867191
485,E01018992,0.0,4.7432851288742635
486,E01018993,2.0,11.795775676905611
487,E01018994,0.0,12.457042839310779
488,E01018995,105.0,94.2639996999717
489,E01018996,151.0,125.89523177293381
490,E01018997,1.0,15.855821904497304
491,E01018998,4.0,13.851508003106765
492,E01018999,359.0,366.0211111111113
493,E01019000,64.0,32.32964159582335
494,E01019001,20.0,45.383957212664285
495,E01019002,0.0,5.709978289258914
496,E01019003,0.0,4.282742180309169
497,E01019004,8.0,10.860713720666457
498,E01019005,2.0,5.41128623398704
499,E01019006,0.0,2.6185610118170657
500,E01019007,1.0,3.9944581407291313
501,E01019008,27.0,20.58594668867031
502,E01019009,4.0,10.735737607057473
503,E01019010,0.0,10.802713577783143
504,E01019011,18.0,14.801451797192367
505,E01019012,58.0,69.87579016885877
506,E01019013,21.0,10.780620741880567
507,E01019014,0.0,4.79747482072007
508,E01019015,38.0,27.93527225207441
509,E01019016,0.0,3.1889039890736757
510,E01019017,0.0,3.1251229875480364
511,E01019018,0.0,3.498571585503834
512,E01019019,19.0,17.063700018891595
513,E01019020,189.0,187.55634244265184
514,E01019021,1.0,5.994326988371741
515,E01019022,1.0,11.53644886575093
516,E01019023,5.0,11.498564426108402
517,E01019024,0.0,4.185297606983579
518,E01019025,0.0,3.1546643046054466
519,E01019026,96.0,34.04129369067139
520,E01019027,15.0,12.121184711051027
521,E01019028,4.0,27.433849169456742
522,E01019029,316.0,248.98542025327902
523,E01019030,1.0,6.084856357672251
524,E01019031,1.0,10.628157829563243
525,E01019032,0.0,5.225651825422584
526,E01019033,407.0,268.386760270775
527,E01019034,4.0,12.997055065088494
528,E01019035,11.0,11.655764376575469
529,E01019036,0.0,3.001600728191688
530,E01019037,0.0,5.9580852777688165
531,E01019038,4.0,8.401661158352258
532,E01019039,3.0,2.993508280297538
533,E01019040,0.0,6.9147231136271285
534,E01019041,13.0,29.138663313591067
535,E01019042,1.0,12.1020915003833
536,E01019043,225.0,110.82405356143579
537,E01019044,11.0,9.343830174673398
538,E01019045,11.0,8.893692166191387
539,E01019046,78.0,39.78430355571785
540,E01019047,23.0,16.068310317130376
541,E01019048,0.0,7.383687057120213
542,E01019049,78.0,60.88698781759066
543,E01019050,4.0,9.786753287064748
544,E01019051,17.0,15.178380268365572
545,E01019052,20.0,17.81353330082001
546,E01019053,2.0,6.877225419544349
547,E01019054,0.0,3.732593114877931
548,E01019055,3.0,11.738098432085664
549,E01019056,33.0,33.77522348050159
550,E01019057,4.0,8.240985684659304
551,E01019058,5.0,5.410419110968709
552,E01019059,8.0,7.2563512614134895
553,E01019060,0.0,2.9557141844971815
554,E01019061,1.0,4.95797905163612
555,E01019062,27.0,14.576342759320823
556,E01019063,16.0,4.992292500462703
557,E01019064,0.0,4.543790918096622
558,E01019065,9.0,7.88524126394546
559,E01019066,2.0,3.1956441451688824
560,E01019067,0.0,2.6630697823333276
561,E01019068,5.0,3.4669073365593666
562,E01019069,1.0,5.543704988443856
563,E01019070,3.0,14.738034689272332
564,E01019071,6.0,4.342978361771463
565,E01019072,16.0,12.631663158041421
566,E01019073,1.0,3.1189309908041265
567,E01019074,3.0,7.281756839370958
568,E01019075,4.0,4.506260098523542
569,E01019076,6.0,10.973214034933882
570,E01019077,9.0,33.0644238961955
571,E01019886,5.0,8.911541140153476
572,E01019887,1.0,11.534047609086214
573,E01019888,153.0,108.17705323259702
574,E01019889,2.0,5.760073181133549
575,E01019890,0.0,5.078759958636063
576,E01019891,0.0,5.943196790567038
577,E01019892,13.0,8.02176797394621
578,E01019893,0.0,2.6190700222586547
579,E01019894,6.0,8.973580282482944
580,E01019895,1.0,2.569977221925391
581,E01019896,1.0,5.653830971191339
582,E01019897,0.0,9.612287623052454
583,E01019898,33.0,7.246069202070721
584,E01019899,0.0,6.301580161572389
585,E01019900,0.0,2.696386861042928
586,E01019901,0.0,2.7685865570716754
587,E01019902,1.0,3.120950846914684
588,E01019903,2.0,2.9723093856158007
589,E01019904,3.0,8.311458345301714
590,E01019905,0.0,3.807966277925122
591,E01019906,0.0,4.800522513548601
592,E01019907,0.0,4.178173567952681
593,E01019908,0.0,6.122490603901815
594,E01019909,1.0,3.8953400047451563
595,E01019910,19.0,8.805515659212523
596,E01019911,3.0,3.6786836747376013
597,E01019912,36.0,28.44740479930609
598,E01019913,2.0,9.08874870555089
599,E01019914,0.0,9.845912944663866
600,E01019915,46.0,21.903710442894745
601,E01019916,314.0,272.6980947164216
602,E01019917,3.0,12.018011459076932
603,E01019918,26.0,35.92301613549918
604,E01019919,19.0,21.994721563195238
605,E01019920,0.0,7.383248489106716
606,E01019921,33.0,10.057810134489499
607,E01019922,1.0,10.10110892986513
608,E01019923,0.0,6.890315919296339
609,E01019924,52.0,21.73416863018213
610,E01019925,2.0,3.6978269930194196
611,E01019927,12.0,24.89162730785311
612,E01019928,0.0,5.543242005552673
613,E01019929,0.0,6.188220413883371
614,E01019930,34.0,8.029654699991744
615,E01019931,0.0,3.3043631028591203
616,E01019932,116.0,81.79463591656113
617,E01019933,0.0,13.169334667786671
618,E01019934,2.0,4.704496739272778
619,E01019935,0.0,2.4125990494360408
620,E01019936,4.0,3.5785375464919085
621,E01019937,0.0,2.355491464135442
622,E01019938,0.0,2.6182508296814313
623,E01019939,0.0,1.980987616485011
624,E01019940,1.0,1.8548419741633397
625,E01019942,19.0,8.164343379853566
626,E01019943,0.0,3.515658523912553
627,E01019944,17.0,14.53041024118239
628,E01019945,4.0,3.4404170326099908
629,E01019946,0.0,3.6049974857260576
630,E01019947,41.0,56.01373098900619
631,E01019948,0.0,4.640427851228589
632,E01019949,1.0,4.191991242431281
633,E01019950,4.0,8.391092647007032
634,E01019951,0.0,3.2393590129405223
635,E01019952,3.0,4.8527361882632665
636,E01019953,1.0,4.204562540694354
637,E01019954,3.0,7.727688243835108
638,E01019955,25.0,11.36507482778148
639,E01019956,80.0,69.22273185784704
640,E01019957,5.0,13.842415953660426
641,E01019958,4.0,5.472461647444758
642,E01019959,0.0,1.9903891598166232
643,E01019960,0.0,1.938992272897412
644,E01019961,0.0,2.4747738222498588
645,E01019962,0.0,2.4069115971277264
646,E01019963,0.0,3.3797453396407167
647,E01019964,2.0,10.024355750375088
648,E01019965,1.0,8.05910823088877
649,E01019966,0.0,1.9175608947360903
650,E01019967,0.0,1.8715492427079032
651,E01019968,4.0,10.788835197143452
652,E01019969,92.0,51.01473357886486
653,E01019970,7.0,5.030061690824278
654,E01019971,32.0,39.04378232976922
655,E01019972,92.0,66.98064205579058
656,E01019973,0.0,6.449856340699984
657,E01019974,0.0,5.400386842075181
658,E01019975,0.0,9.454011944207009
659,E01019976,10.0,5.427571014550657
660,E01019977,1.0,7.7414527402083255
661,E01019980,0.0,11.955542205819633
662,E01019981,51.0,21.366055436279122
663,E01019982,0.0,10.584642258080391
664,E01019983,12.0,9.282622785583078
665,E01019984,0.0,4.987200166313714
666,E01019985,0.0,11.502377334258966
667,E01019986,7.0,8.844099052175517
668,E01019987,24.0,33.69073548414198
669,E01019988,1.0,10.69810683029604
670,E01019989,0.0,22.63529531200737
671,E01019990,0.0,8.844880098670512
672,E01019991,20.0,14.288516696975654
673,E01019992,5.0,8.172348768409634
674,E01019993,1.0,3.9103631298584
675,E01019994,4.0,20.208608771923306
676,E01019995,32.0,63.903929228350535
677,E01019996,117.0,106.29964818577221
678,E01019997,0.0,5.579690368475942
679,E01019998,0.0,6.4156068350403
680,E01019999,0.0,6.967853796754549
681,E01020000,1.0,13.208864173541485
682,E01020001,0.0,4.764701547595621
683,E01020002,0.0,9.734786218045977
684,E01020003,20.0,12.399819963004981
685,E01020004,0.0,5.9374160433882
686,E01020005,86.0,40.6940151710144
687,E01020006,117.0,79.2933576991992
688,E01020007,0.0,7.649950750058209
689,E01020008,14.0,18.900184674570934
690,E01020009,6.0,11.6202330679453
691,E01020010,3.0,12.99432069808826
692,E01020011,0.0,5.104595896886529
693,E01020012,9.0,11.488263245582734
694,E01020013,2.0,14.360820446239599
695,E01020014,18.0,20.67475770947908
696,E01020015,3.0,12.650605943585207
697,E01020016,628.0,650.7537499999987
698,E01020017,26.0,102.33518426430778
699,E01020018,573.0,566.464861111111
700,E01020019,9.0,20.59599651975334
701,E01020020,5.0,20.477516446097948
702,E01020021,0.0,7.760784095227096
703,E01020022,488.0,394.79395833333297
704,E01020023,0.0,8.264456646032704
705,E01020024,17.0,21.630160750844222
706,E01020025,0.0,18.94085307083179
707,E01020026,0.0,6.088588977287484
708,E01020027,15.0,14.614757385232839
709,E01020029,1.0,9.274583130469269
710,E01020030,414.0,314.0655555555553
711,E01020031,1.0,10.131822488514102
712,E01020032,7.0,17.358205951725125
713,E01020033,3.0,7.62789315623528
714,E01020035,14.0,16.360133081989517
715,E01020036,2.0,7.790604412424833
716,E01020037,3.0,10.204619105396675
717,E01020038,2.0,7.138665305354586
718,E01020039,0.0,11.16551285478954
719,E01020040,0.0,6.84203403188514
720,E01020041,26.0,21.533589472446806
721,E01020042,23.0,16.73972324330064
722,E01020043,1.0,4.4223059642258935
723,E01020044,0.0,2.3179674427716535
724,E01020045,4.0,2.2904115621178103
725,E01020046,0.0,1.9985034553819052
726,E01020047,0.0,7.50995921263052
727,E01020048,120.0,110.78077586055869
728,E01020049,0.0,1.9982094244998325
729,E01020050,6.0,4.064494044953901
730,E01020051,0.0,3.754405886676149
731,E01020052,172.0,140.547026048017
732,E01020053,0.0,7.684478541925026
733,E01020054,18.0,15.895382854535201
734,E01020055,44.0,39.006850024273625
735,E01020056,1.0,2.9364085348095825
736,E01020057,1.0,12.94653215938873
737,E01020058,14.0,13.109689426312409
738,E01020059,0.0,2.062170017257394
739,E01020060,46.0,50.74313774261863
740,E01020061,0.0,10.111999265815458
741,E01020062,0.0,3.377120436101701
742,E01020063,9.0,7.989950372298415
743,E01020064,4.0,8.906205232509691
744,E01020065,117.0,76.24822387641744
745,E01020066,26.0,28.88259716198881
746,E01020067,15.0,16.09215683143254
747,E01020068,0.0,2.479662701487576
748,E01020069,0.0,2.2771512400046348
749,E01020070,0.0,2.0101355189307473
750,E01020071,5.0,3.4039304570800035
751,E01020072,0.0,1.9138629300319618
752,E01020073,17.0,4.973971407416346
753,E01020074,0.0,2.5787844065408025
754,E01020075,2.0,2.8898068150347687
755,E01020076,1.0,3.625285515689176
756,E01020077,0.0,2.143134691057911
757,E01020078,2.0,17.652619897478292
758,E01020079,44.0,25.100908339750347
759,E01020080,1.0,4.245034116950711
760,E01020081,0.0,6.104356041049085
761,E01020082,2.0,3.349965032364454
762,E01020083,4.0,3.3051395288855328
763,E01020084,1.0,4.456568748148416
764,E01020085,56.0,25.713877902695053
765,E01020086,0.0,3.9366736676976126
766,E01020087,0.0,2.1014975354921654
767,E01020088,0.0,2.744029014824534
768,E01020089,34.0,14.540349206157758
769,E01020090,1.0,3.0592670067954777
770,E01020091,0.0,5.461408693689601
771,E01020092,0.0,5.355463704551276
772,E01020093,7.0,12.440324269756042
773,E01020094,601.0,506.4702777777784
774,E01020095,2.0,15.291664301127605
775,E01020096,15.0,30.87664966105546
776,E01020097,0.0,2.3656382444380353
777,E01020098,1.0,2.9191552271593846
778,E01020099,0.0,3.9468158231877326
779,E01020100,0.0,3.028471190261856
780,E01020101,0.0,6.581545966417861
781,E01020102,0.0,5.097016505171788
782,E01020103,9.0,16.263339227054953
783,E01020104,0.0,10.911320992889069
784,E01020105,7.0,7.563156989303143
785,E01020106,0.0,2.6790093007571003
786,E01020107,0.0,3.8648531842854874
787,E01020108,2.0,7.052534947365158
788,E01020109,0.0,3.5509936663663924
789,E01020110,13.0,25.197781641914247
790,E01020111,117.0,107.5249153728734
791,E01020112,53.0,88.33626608361266
792,E01020113,80.0,78.37220409397729
793,E01020114,0.0,8.823634911255283
794,E01020115,10.0,5.700781918603539
795,E01020116,0.0,12.513370340965011
796,E01020117,0.0,4.436472638922253
797,E01020118,0.0,10.064385625363858
798,E01020119,0.0,3.557205781189981
799,E01020120,0.0,8.250666365141061
800,E01020121,0.0,4.0200232889478915
801,E01020122,8.0,4.841571052050247
802,E01020123,2.0,6.551506790736332
803,E01020124,101.0,72.3775302286915
804,E01020125,0.0,4.331821347920721
805,E01020126,4.0,7.5536807994107855
806,E01020127,0.0,2.1158524257154636
807,E01020128,61.0,22.718492031105836
808,E01020129,100.0,39.25591782739471
809,E01020130,2.0,14.897156920911494
810,E01020131,0.0,5.090583211061385
811,E01020132,11.0,12.712328941906616
812,E01020133,0.0,5.785823531150193
813,E01020134,0.0,9.226054389874097
814,E01020135,17.0,13.993998050688745
815,E01020136,12.0,8.652991470254086
816,E01020137,19.0,22.461800214784414
817,E01020138,2.0,3.2369657040464386
818,E01020139,26.0,20.474687590612536
819,E01020140,0.0,5.62874001471768
820,E01020141,5.0,12.229704669632211
821,E01020142,1.0,3.04431268466795
822,E01020143,4.0,3.746578918488974
823,E01020144,0.0,6.038372006727707
824,E01020145,10.0,9.58567097295178
825,E01020146,4.0,12.87580459129402
826,E01020147,0.0,2.3944769042164813
827,E01020148,1.0,2.338752734751172
828,E01020149,1.0,3.6953686923360607
829,E01020150,16.0,7.5588141728947384
830,E01020151,10.0,8.826478708771237
831,E01020152,101.0,88.63421608218705
832,E01020153,1.0,3.824407623039052
833,E01020154,2.0,9.225591710604427
834,E01020155,4.0,14.903248501695002
835,E01020156,0.0,2.234568449702686
836,E01020157,0.0,2.247639958633389
837,E01020158,8.0,5.002116155685703
838,E01020159,69.0,26.598243643269548
839,E01020160,2.0,2.98102557635504
840,E01020161,71.0,55.57447967763568
841,E01020162,0.0,4.841268168063279
842,E01020163,0.0,3.146955452086007
843,E01020164,0.0,4.897469472535945
844,E01020165,0.0,7.324359272439566
845,E01020166,0.0,3.868399545793633
846,E01020167,17.0,10.521897227385102
847,E01020168,1.0,6.70563775231851
848,E01020169,51.0,37.20808553745645
849,E01020170,2.0,2.5307559511498545
850,E01020171,1.0,2.477625239126216
851,E01020172,3.0,3.8472621247595398
852,E01020173,10.0,12.526230488077577
853,E01020174,1.0,2.8650734767047368
854,E01020175,5.0,2.6742792729934552
855,E01020176,6.0,5.547351587948725
856,E01020177,0.0,6.915868184993163
857,E01020178,0.0,3.1946020712768335
858,E01020179,0.0,2.841166875776467
859,E01020180,8.0,15.782794798327641
860,E01020181,0.0,7.00944779749163
861,E01020182,0.0,7.978355100080868
862,E01020183,106.0,105.06098351592156
863,E01020184,4.0,26.78401859569777
864,E01020185,1.0,3.3210234264960983
865,E01020186,0.0,2.0014075138644567
866,E01020187,13.0,7.028668238262523
867,E01020188,0.0,2.637470694765263
868,E01020189,30.0,19.038251493573494
869,E01020190,2.0,3.277410783437208
870,E01020191,0.0,5.576217533871653
871,E01020192,0.0,2.8948905538225955
872,E01020193,0.0,2.468886622780973
873,E01020194,0.0,3.215086240226611
874,E01020195,2.0,4.2843430818662425
875,E01020196,29.0,22.562304350536937
876,E01020197,3.0,3.729241314697688
877,E01020198,12.0,13.312969190968237
878,E01020199,3.0,8.200971985853263
879,E01020200,0.0,2.943019232603602
880,E01020201,12.0,5.176535639486527
881,E01020202,10.0,5.77558944318062
882,E01020203,11.0,4.80041352240148
883,E01020204,40.0,29.67044238252821
884,E01020205,0.0,1.8083631787149117
885,E01020206,4.0,10.06690419820394
886,E01020207,0.0,9.10841476843127
887,E01020208,1.0,17.470542346586416
888,E01020209,4.0,9.075670720617328
889,E01020210,0.0,3.030290690679604
890,E01020211,0.0,11.237755338322598
891,E01020212,9.0,10.22555621133053
892,E01020213,2.0,7.6237793908519205
893,E01020214,2.0,5.4870810725688735
894,E01020215,0.0,3.3044057743032154
895,E01020216,0.0,12.607839839004608
896,E01020217,35.0,40.3006430129907
897,E01020218,274.0,214.5344193792246
898,E01020219,0.0,7.268905203804146
899,E01020220,28.0,16.289868178430364
900,E01020221,3.0,3.5434137969701474
901,E01020222,0.0,3.805850124075358
902,E01020223,2.0,3.672088364977496
903,E01020224,0.0,11.29543213104081
904,E01020225,186.0,147.21177385099816
905,E01020226,0.0,3.7166077116018648
906,E01020227,86.0,43.781181946065296
907,E01020228,60.0,66.40753359484486
908,E01020229,20.0,19.403106657262388
909,E01020230,0.0,7.371663155119304
910,E01020231,0.0,4.528398930448848
911,E01020232,1.0,9.001810941155457
912,E01020233,0.0,2.7045901664308367
913,E01020234,0.0,7.879383629229324
914,E01020235,11.0,11.164339742567224
915,E01020236,74.0,19.473422298125964
916,E01020237,0.0,2.1219909038024087
917,E01020238,15.0,4.910756786117136
918,E01020239,11.0,3.4132345802487913
919,E01020240,6.0,7.640023339275829
920,E01020241,5.0,6.014964543544855
921,E01020242,1.0,4.919021561600303
922,E01020243,0.0,2.372591553113406
923,E01020244,1.0,5.932691428701217
924,E01020245,0.0,2.7270016763900142
925,E01020246,0.0,2.84781692255658
926,E01020247,6.0,6.913132098593225
927,E01020248,0.0,2.6763705480770863
928,E01020249,0.0,3.6044040974466856
929,E01020250,0.0,6.388446595577439
930,E01020251,0.0,3.338649176909902
931,E01020252,114.0,67.82786894641974
932,E01020253,7.0,3.5136461948498594
933,E01020254,11.0,9.849546863927854
934,E01020255,12.0,7.994985488651176
935,E01020256,0.0,2.943886647508437
936,E01020257,0.0,2.201595257938822
937,E01020258,13.0,8.466872772989872
938,E01020259,0.0,3.72899559246139
939,E01020260,1.0,4.771076207902076
940,E01020261,1.0,2.78197034824179
941,E01020262,3.0,2.372578206730243
942,E01020263,1.0,5.239606401968612
943,E01020264,0.0,12.328473305986249
944,E01020265,0.0,3.353344105095018
945,E01020266,0.0,3.7423476143534353
946,E01020267,0.0,6.803535208506975
947,E01020268,0.0,2.8930290877516933
948,E01020269,257.0,259.3331659484305
949,E01020270,3.0,5.384670911101149
950,E01020271,12.0,15.12442041265614
951,E01020272,10.0,12.46014817528467
952,E01020273,0.0,2.417420686268934
953,E01020274,1.0,2.08844624663212
954,E01020275,1.0,11.80216141628708
955,E01020276,0.0,4.795645594567747
956,E01020277,2.0,12.300534846316971
957,E01020278,0.0,3.701170492852631
958,E01020279,14.0,20.04872286132409
959,E01020280,291.0,255.33448898786406
960,E01020281,0.0,4.884173946244943
961,E01020282,129.0,95.16063877476769
962,E01020283,217.0,106.46176452138018
963,E01020284,1.0,14.752589368968135
964,E01020285,1.0,12.08848102415453
965,E01020286,0.0,2.6284906913083934
966,E01020287,0.0,2.438685170685211
967,E01020288,1.0,4.705898941771232
968,E01020289,0.0,2.105061203110905
969,E01020290,0.0,2.3271087872906535
970,E01020291,0.0,3.272723273082653
971,E01020292,0.0,4.823428453151052
972,E01020293,75.0,37.87984306665147
973,E01020294,1.0,11.104252967284253
974,E01020295,0.0,1.9933285205427047
975,E01020296,0.0,2.2639753217055785
976,E01020297,15.0,14.137604071308257
977,E01020298,0.0,4.830292323985265
978,E01020299,7.0,4.380919709933856
979,E01020300,2.0,4.280211135303406
980,E01020301,0.0,2.413388134630928
981,E01020302,0.0,2.649886141549837
982,E01020303,0.0,2.2358412803514427
983,E01020304,0.0,6.315865124585229
984,E01020305,17.0,20.555033152764633
985,E01020306,0.0,7.953294780412175
986,E01020307,0.0,8.183557587028957
987,E01020308,0.0,1.980564467397013
988,E01020309,0.0,2.6137731007980247
989,E01020310,20.0,18.643448441770353
990,E01020311,1.0,3.1619954295602097
991,E01020312,0.0,2.355153842683723
992,E01020313,2.0,7.67451357001237
993,E01020314,5.0,2.1789232918872847
994,E01020315,10.0,6.362273165840838
995,E01020316,0.0,2.4313283783407584
996,E01020317,0.0,2.0801215216793487
997,E01020318,0.0,4.670219161826083
998,E01020319,3.0,2.501329698422547
999,E01020320,0.0,1.9373276726687845
1000,E01020321,4.0,7.5093826857545505
1001,E01020322,3.0,3.8681375074117743
1002,E01020323,1.0,7.160847278885506
1003,E01020324,0.0,2.087285292923214
1004,E01020325,0.0,3.0163445854383553
1005,E01020326,2.0,5.001495785766934
1006,E01020327,6.0,6.508503508847693
1007,E01020328,0.0,10.310886590515894
1008,E01020329,0.0,5.277536056932612
1009,E01020330,183.0,137.34117595997498
1010,E01020331,0.0,2.646378249302741
1011,E01020332,64.0,50.502985611327766
1012,E01020333,0.0,3.4706902026208004
1013,E01020334,2.0,7.578050771597268
1014,E01020335,0.0,5.241474339047565
1015,E01020336,0.0,2.840278481961241
1016,E01020337,0.0,8.012494583668433
1017,E01020338,22.0,16.29193147425446
1018,E01020339,11.0,3.7305920940703086
1019,E01020340,3.0,2.9960773853068696
1020,E01020341,0.0,2.079932822880925
1021,E01020342,0.0,5.59505224982863
1022,E01032628,13.0,3.2473017917273768
1023,E01032657,61.0,92.26107089559736
1024,E01032658,695.0,771.5373611111097
1025,E01033232,0.0,9.545143080407916
1026,E01033233,23.0,22.207126890064966
1027,E01033234,94.0,64.43849042927346
1028,E01033235,14.0,17.90885049929354
1029,E01033236,3.0,7.495848774707935
1030,E01033289,2.0,4.630532184412074
1031,E01033291,9.0,4.032805128253747
1032,E01033292,35.0,23.15658306969076
1033,E01033294,8.0,12.490209259731797
