,lsoa_code,actual,predicted
0,E01015023,4.0,3.206
1,E01015024,0.0,0.187
2,E01015025,1.0,0.729
3,E01015026,6.0,4.697
4,E01015027,1.0,0.885
5,E01015028,1.0,1.639
6,E01015029,6.0,4.088
7,E01015030,1.0,1.892
8,E01015031,1.0,2.222
9,E01015032,24.0,21.592
10,E01015033,0.0,0.224
11,E01015034,2.0,1.516
12,E01015035,0.0,0.107
13,E01015036,2.0,1.597
14,E01015037,0.0,0.28
15,E01015038,5.0,3.195
16,E01015039,0.0,0.936
17,E01015040,2.0,2.185
18,E01015041,0.0,0.77
19,E01015042,1.0,1.73
20,E01015043,5.0,7.408
21,E01015044,4.0,4.893
22,E01015045,9.0,11.348
23,E01015046,8.0,12.416
24,E01015047,6.0,6.817
25,E01015048,3.0,7.807
26,E01015049,3.0,4.09
27,E01015050,12.0,12.761
28,E01015051,15.0,11.114
29,E01015052,13.0,14.567
30,E01015053,8.0,11.369
31,E01015054,12.0,11.928
32,E01015055,0.0,0.939
33,E01015056,1.0,1.121
34,E01015057,1.0,2.116
35,E01015058,1.0,1.419
36,E01015059,0.0,0.607
37,E01015060,3.0,2.688
38,E01015061,5.0,5.321
39,E01015062,6.0,6.077
40,E01015063,0.0,0.617
41,E01015064,0.0,0.13
42,E01015065,0.0,0.663
43,E01015066,1.0,0.823
44,E01015067,1.0,0.863
45,E01015068,1.0,0.82
46,E01015069,1.0,1.204
47,E01015070,3.0,2.672
48,E01015071,2.0,1.695
49,E01015072,2.0,1.993
50,E01015073,1.0,1.36
51,E01015074,4.0,3.206
52,E01015075,1.0,1.294
53,E01015076,1.0,0.955
54,E01015077,4.0,3.16
55,E01015078,5.0,4.204
56,E01015079,1.0,0.885
57,E01015080,0.0,1.572
58,E01015081,0.0,0.58
59,E01015082,0.0,0.941
60,E01015083,4.0,3.412
61,E01015084,0.0,0.463
62,E01015085,2.0,1.795
63,E01015086,1.0,1.38
64,E01015087,3.0,2.642
65,E01015088,1.0,1.566
66,E01015089,3.0,2.417
67,E01015090,0.0,0.241
68,E01015091,1.0,0.886
69,E01015092,0.0,1.471
70,E01015093,3.0,2.461
71,E01015094,1.0,1.088
72,E01015095,1.0,1.01
73,E01015096,0.0,0.678
74,E01015097,0.0,0.114
75,E01015098,1.0,1.231
76,E01015099,1.0,1.208
77,E01015100,1.0,1.573
78,E01015101,2.0,1.596
79,E01015102,3.0,2.5
80,E01015103,0.0,0.324
81,E01015104,0.0,0.289
82,E01015105,1.0,0.976
83,E01015106,5.0,3.526
84,E01015107,1.0,0.869
85,E01015108,0.0,0.253
86,E01015109,0.0,0.311
87,E01015110,0.0,0.201
88,E01015111,0.0,0.232
89,E01015112,1.0,0.823
90,E01015113,0.0,0.323
91,E01015114,0.0,0.224
92,E01015115,0.0,0.667
93,E01015116,0.0,0.155
94,E01015117,0.0,0.14
95,E01015118,0.0,0.291
96,E01015119,1.0,0.794
97,E01015120,0.0,0.149
98,E01015121,0.0,0.235
99,E01015122,0.0,0.218
100,E01015123,1.0,0.901
101,E01015124,1.0,0.759
102,E01015125,1.0,0.831
103,E01015126,0.0,0.144
104,E01015127,0.0,0.17
105,E01015128,0.0,0.126
106,E01015129,2.0,1.779
107,E01015130,0.0,0.164
108,E01015131,0.0,0.11
109,E01015132,1.0,0.901
110,E01015133,0.0,0.15
111,E01015134,0.0,0.401
112,E01015135,2.0,1.696
113,E01015136,1.0,0.781
114,E01015137,1.0,0.773
115,E01015138,0.0,0.246
116,E01015139,0.0,0.257
117,E01015140,0.0,0.19
118,E01015141,2.0,1.346
119,E01015142,2.0,1.86
120,E01015143,1.0,1.013
121,E01015144,7.0,5.188
122,E01015145,1.0,3.094
123,E01015146,4.0,3.376
124,E01015147,2.0,1.6
125,E01015148,4.0,2.922
126,E01015149,2.0,2.334
127,E01015150,2.0,1.773
128,E01015151,31.0,26.832
129,E01015152,45.0,38.734
130,E01015153,14.0,19.164
131,E01015155,61.0,48.018
132,E01015156,31.0,26.729
133,E01015157,15.0,17.341
134,E01015158,29.0,26.341
135,E01015159,3.0,2.386
136,E01015160,0.0,0.112
137,E01015161,0.0,0.593
138,E01015162,2.0,1.791
139,E01015163,1.0,1.106
140,E01015164,0.0,0.534
141,E01015165,0.0,0.279
142,E01015166,3.0,2.389
143,E01015167,1.0,1.457
144,E01015168,2.0,2.776
145,E01015169,2.0,3.958
146,E01015170,1.0,2.067
147,E01015171,5.0,5.327
148,E01015172,9.0,8.053
149,E01015173,4.0,3.648
150,E01015174,0.0,0.771
151,E01015175,5.0,5.126
152,E01015176,2.0,2.288
153,E01015177,1.0,1.913
154,E01015178,5.0,4.896
155,E01015179,4.0,5.117
156,E01015180,3.0,5.526
157,E01015181,12.0,11.532
158,E01015182,6.0,6.329
159,E01015183,0.0,0.404
160,E01015184,0.0,0.28
161,E01015185,0.0,0.524
162,E01015186,1.0,1.912
163,E01015187,1.0,0.873
164,E01015188,0.0,0.16
165,E01015189,0.0,0.63
166,E01015190,0.0,0.446
167,E01015191,1.0,0.806
168,E01015192,0.0,0.253
169,E01015193,3.0,2.166
170,E01015194,0.0,0.405
171,E01015195,3.0,2.269
172,E01015196,2.0,2.597
173,E01015197,0.0,0.149
174,E01015198,1.0,0.817
175,E01015199,0.0,0.156
176,E01015200,0.0,0.181
177,E01015201,0.0,0.153
178,E01015202,1.0,0.795
179,E01015203,0.0,0.101
180,E01015204,0.0,0.651
181,E01015205,0.0,0.213
182,E01015206,4.0,3.206
183,E01015207,0.0,0.248
184,E01015208,3.0,2.347
185,E01015209,4.0,3.474
186,E01015210,3.0,2.763
187,E01015211,1.0,0.756
188,E01015212,3.0,2.888
189,E01015213,0.0,0.31
190,E01015214,3.0,3.329
191,E01015215,0.0,0.359
192,E01015216,3.0,3.228
193,E01015217,19.0,15.159
194,E01015218,5.0,3.863
195,E01015219,1.0,1.187
196,E01015220,1.0,0.736
197,E01015221,2.0,1.606
198,E01015222,1.0,0.8
199,E01015223,0.0,0.216
200,E01015224,1.0,0.988
201,E01015225,0.0,0.289
202,E01015226,0.0,0.048
203,E01015227,0.0,0.107
204,E01015228,1.0,1.56
205,E01015229,3.0,2.743
206,E01015230,0.0,0.093
207,E01015231,43.0,34.517
208,E01015232,20.0,16.68
209,E01015233,3.0,4.565
210,E01015234,5.0,4.253
211,E01015235,2.0,2.79
212,E01015236,10.0,6.5
213,E01015237,0.0,0.28
214,E01015238,0.0,0.607
215,E01015239,0.0,1.671
216,E01015240,5.0,4.243
217,E01015241,4.0,3.122
218,E01015242,8.0,5.936
219,E01015243,0.0,0.29
220,E01015244,0.0,0.188
221,E01015245,0.0,0.267
222,E01015246,0.0,0.162
223,E01015247,0.0,0.183
224,E01015248,0.0,0.668
225,E01015249,3.0,2.384
226,E01015250,0.0,0.251
227,E01015251,0.0,0.336
228,E01015252,2.0,1.803
229,E01015253,1.0,0.988
230,E01015254,0.0,0.129
231,E01015255,25.0,22.783
232,E01015256,53.0,40.104
233,E01015257,9.0,6.706
234,E01015258,0.0,0.897
235,E01015259,4.0,3.482
236,E01015260,10.0,10.801
237,E01015261,8.0,6.893
238,E01015262,1.0,1.018
239,E01015263,3.0,2.886
240,E01015264,1.0,0.782
241,E01015265,1.0,0.866
242,E01015266,1.0,1.664
243,E01015267,6.0,6.594
244,E01015268,1.0,1.649
245,E01015269,1.0,1.402
246,E01015270,1.0,2.078
247,E01015271,1.0,0.957
248,E01018750,0.0,0.161
249,E01018751,3.0,2.95
250,E01018752,1.0,0.842
251,E01018753,0.0,0.09
252,E01018754,0.0,0.175
253,E01018755,0.0,0.12
254,E01018756,0.0,0.103
255,E01018757,0.0,0.069
256,E01018758,0.0,0.24
257,E01018759,0.0,0.086
258,E01018760,0.0,0.048
259,E01018761,0.0,0.284
260,E01018762,0.0,0.184
261,E01018763,0.0,0.109
262,E01018764,1.0,0.717
263,E01018765,0.0,0.067
264,E01018766,0.0,0.069
265,E01018767,2.0,2.016
266,E01018768,0.0,0.201
267,E01018769,0.0,0.326
268,E01018770,2.0,1.826
269,E01018771,6.0,5.384
270,E01018772,1.0,0.793
271,E01018773,0.0,0.338
272,E01018774,0.0,0.447
273,E01018775,0.0,0.124
274,E01018776,7.0,4.894
275,E01018777,0.0,0.03
276,E01018778,0.0,0.075
277,E01018779,1.0,0.726
278,E01018780,0.0,0.153
279,E01018781,0.0,0.138
280,E01018782,0.0,0.069
281,E01018783,0.0,0.071
282,E01018784,0.0,0.122
283,E01018785,0.0,0.074
284,E01018786,0.0,0.145
285,E01018787,0.0,0.046
286,E01018788,0.0,0.52
287,E01018789,0.0,0.121
288,E01018790,1.0,0.948
289,E01018791,0.0,0.269
290,E01018792,0.0,0.221
291,E01018793,2.0,1.687
292,E01018794,0.0,0.201
293,E01018795,1.0,0.693
294,E01018796,0.0,0.229
295,E01018797,3.0,2.582
296,E01018798,0.0,0.239
297,E01018799,0.0,1.154
298,E01018800,0.0,0.251
299,E01018803,1.0,2.786
300,E01018804,3.0,3.344
301,E01018805,0.0,0.391
302,E01018806,0.0,0.684
303,E01018807,3.0,2.283
304,E01018808,0.0,0.385
305,E01018809,19.0,15.17
306,E01018810,0.0,0.332
307,E01018811,0.0,0.225
308,E01018812,1.0,0.944
309,E01018813,0.0,0.252
310,E01018814,0.0,0.133
311,E01018815,0.0,0.138
312,E01018816,0.0,0.134
313,E01018817,0.0,0.063
314,E01018818,0.0,0.085
315,E01018819,1.0,0.798
316,E01018820,0.0,0.087
317,E01018821,0.0,0.08
318,E01018822,0.0,0.201
319,E01018823,0.0,0.316
320,E01018824,1.0,0.906
321,E01018825,0.0,0.216
322,E01018826,0.0,0.184
323,E01018827,0.0,0.061
324,E01018828,0.0,0.141
325,E01018829,0.0,0.147
326,E01018830,0.0,0.062
327,E01018831,0.0,0.166
328,E01018832,0.0,0.056
329,E01018833,1.0,0.656
330,E01018834,0.0,0.214
331,E01018835,0.0,0.462
332,E01018836,2.0,2.652
333,E01018837,1.0,1.399
334,E01018838,3.0,2.365
335,E01018839,3.0,2.697
336,E01018840,6.0,4.877
337,E01018841,0.0,0.655
338,E01018842,0.0,0.152
339,E01018843,0.0,0.094
340,E01018844,2.0,2.061
341,E01018845,0.0,0.08
342,E01018846,0.0,0.116
343,E01018847,0.0,0.13
344,E01018848,0.0,0.119
345,E01018849,0.0,0.145
346,E01018850,0.0,0.064
347,E01018851,1.0,0.798
348,E01018852,0.0,0.126
349,E01018853,0.0,0.361
350,E01018854,0.0,0.446
351,E01018855,0.0,0.339
352,E01018856,0.0,0.453
353,E01018857,0.0,0.43
354,E01018858,1.0,0.763
355,E01018859,1.0,0.848
356,E01018860,1.0,1.146
357,E01018861,0.0,0.074
358,E01018862,0.0,0.12
359,E01018863,0.0,0.089
360,E01018864,0.0,0.231
361,E01018865,5.0,4.341
362,E01018866,2.0,1.529
363,E01018867,0.0,0.972
364,E01018868,4.0,3.616
365,E01018869,1.0,0.984
366,E01018870,4.0,4.526
367,E01018871,0.0,0.169
368,E01018872,0.0,0.105
369,E01018873,0.0,0.171
370,E01018874,0.0,0.508
371,E01018875,1.0,1.872
372,E01018876,1.0,0.732
373,E01018877,1.0,0.845
374,E01018878,5.0,5.07
375,E01018879,0.0,0.077
376,E01018880,0.0,0.055
377,E01018881,0.0,0.11
378,E01018882,1.0,0.695
379,E01018883,0.0,0.094
380,E01018884,0.0,0.077
381,E01018885,4.0,2.778
382,E01018886,0.0,0.508
383,E01018887,1.0,1.29
384,E01018888,1.0,1.293
385,E01018889,0.0,0.125
386,E01018890,0.0,0.15
387,E01018891,1.0,0.779
388,E01018892,0.0,0.195
389,E01018893,0.0,0.444
390,E01018894,1.0,0.821
391,E01018895,2.0,1.607
392,E01018896,0.0,0.241
393,E01018897,6.0,4.982
394,E01018898,1.0,1.727
395,E01018899,0.0,0.697
396,E01018900,0.0,0.09
397,E01018901,1.0,0.888
398,E01018902,0.0,0.077
399,E01018903,0.0,0.301
400,E01018904,2.0,1.303
401,E01018905,0.0,0.059
402,E01018906,1.0,0.787
403,E01018907,0.0,0.199
404,E01018908,0.0,0.129
405,E01018909,0.0,0.204
406,E01018910,1.0,2.388
407,E01018911,4.0,4.174
408,E01018912,0.0,0.13
409,E01018913,4.0,3.639
410,E01018914,0.0,0.334
411,E01018915,0.0,0.264
412,E01018916,0.0,0.082
413,E01018917,0.0,0.234
414,E01018918,1.0,0.731
415,E01018919,0.0,0.204
416,E01018920,0.0,0.071
417,E01018921,1.0,0.693
418,E01018922,0.0,0.144
419,E01018923,0.0,0.057
420,E01018924,1.0,0.707
421,E01018925,1.0,0.704
422,E01018926,0.0,0.061
423,E01018927,2.0,1.514
424,E01018928,7.0,5.977
425,E01018929,0.0,0.126
426,E01018930,2.0,2.317
427,E01018931,1.0,0.749
428,E01018932,1.0,1.457
429,E01018933,12.0,9.282
430,E01018934,1.0,0.763
431,E01018935,1.0,0.868
432,E01018936,0.0,0.527
433,E01018937,0.0,0.312
434,E01018938,0.0,0.256
435,E01018940,0.0,0.054
436,E01018941,0.0,0.152
437,E01018942,0.0,0.136
438,E01018943,0.0,0.107
439,E01018944,0.0,0.131
440,E01018945,1.0,0.71
441,E01018946,2.0,1.559
442,E01018947,0.0,0.603
443,E01018948,1.0,1.107
444,E01018949,1.0,1.44
445,E01018950,0.0,2.317
446,E01018951,1.0,0.709
447,E01018952,0.0,0.116
448,E01018953,0.0,0.117
449,E01018954,0.0,0.241
450,E01018955,0.0,0.085
451,E01018956,0.0,0.096
452,E01018957,0.0,0.132
453,E01018958,1.0,1.01
454,E01018959,0.0,0.155
455,E01018960,0.0,0.229
456,E01018961,1.0,1.198
457,E01018962,0.0,0.12
458,E01018965,0.0,0.146
459,E01018966,0.0,0.129
460,E01018967,0.0,0.034
461,E01018968,0.0,0.168
462,E01018969,0.0,0.082
463,E01018970,0.0,0.063
464,E01018971,0.0,0.139
465,E01018972,0.0,1.144
466,E01018973,0.0,0.104
467,E01018974,0.0,0.139
468,E01018975,0.0,0.087
469,E01018976,1.0,0.728
470,E01018977,3.0,2.347
471,E01018978,0.0,0.335
472,E01018979,0.0,0.203
473,E01018980,0.0,0.192
474,E01018981,0.0,0.174
475,E01018982,0.0,0.392
476,E01018983,0.0,0.19
477,E01018984,1.0,1.126
478,E01018985,1.0,0.821
479,E01018986,0.0,0.388
480,E01018987,0.0,0.072
481,E01018988,1.0,0.744
482,E01018989,0.0,0.163
483,E01018990,0.0,0.227
484,E01018991,0.0,0.125
485,E01018992,0.0,0.118
486,E01018993,0.0,0.495
487,E01018994,2.0,1.727
488,E01018995,8.0,6.968
489,E01018996,3.0,3.156
490,E01018997,4.0,3.935
491,E01018998,2.0,2.36
492,E01018999,12.0,11.013
493,E01019000,0.0,0.283
494,E01019001,0.0,2.402
495,E01019002,0.0,0.192
496,E01019003,1.0,0.753
497,E01019004,0.0,1.133
498,E01019005,0.0,0.177
499,E01019006,0.0,0.048
500,E01019007,0.0,0.094
501,E01019008,1.0,1.096
502,E01019009,0.0,0.286
503,E01019010,1.0,0.947
504,E01019011,0.0,0.343
505,E01019012,5.0,4.411
506,E01019013,5.0,3.457
507,E01019014,1.0,0.718
508,E01019015,1.0,0.913
509,E01019016,0.0,0.218
510,E01019017,0.0,0.174
511,E01019018,0.0,0.117
512,E01019019,0.0,0.487
513,E01019020,4.0,5.608
514,E01019021,1.0,0.756
515,E01019022,2.0,1.773
516,E01019023,1.0,1.067
517,E01019024,0.0,0.123
518,E01019025,1.0,0.719
519,E01019026,2.0,1.393
520,E01019027,1.0,0.855
521,E01019028,5.0,5.417
522,E01019029,7.0,6.975
523,E01019030,2.0,1.638
524,E01019031,1.0,1.234
525,E01019032,0.0,0.161
526,E01019033,10.0,7.582
527,E01019034,4.0,3.368
528,E01019035,0.0,0.249
529,E01019036,0.0,0.11
530,E01019037,0.0,0.127
531,E01019038,0.0,0.397
532,E01019039,0.0,0.066
533,E01019040,1.0,0.714
534,E01019041,6.0,5.174
535,E01019042,1.0,1.466
536,E01019043,1.0,0.819
537,E01019044,0.0,0.138
538,E01019045,1.0,0.812
539,E01019046,0.0,0.557
540,E01019047,9.0,6.253
541,E01019048,3.0,2.156
542,E01019049,0.0,0.59
543,E01019050,2.0,1.322
544,E01019051,0.0,0.523
545,E01019052,0.0,0.257
546,E01019053,2.0,1.626
547,E01019054,1.0,0.721
548,E01019055,0.0,0.434
549,E01019056,0.0,0.543
550,E01019057,2.0,1.444
551,E01019058,0.0,0.147
552,E01019059,1.0,0.754
553,E01019060,0.0,0.177
554,E01019061,1.0,0.82
555,E01019062,0.0,0.293
556,E01019063,0.0,0.163
557,E01019064,0.0,0.217
558,E01019065,0.0,0.162
559,E01019066,0.0,0.104
560,E01019067,0.0,0.123
561,E01019068,0.0,0.102
562,E01019069,0.0,0.177
563,E01019070,0.0,0.252
564,E01019071,2.0,1.301
565,E01019072,0.0,0.156
566,E01019073,0.0,0.114
567,E01019074,0.0,0.361
568,E01019075,0.0,0.136
569,E01019076,1.0,1.071
570,E01019077,0.0,0.995
571,E01019886,1.0,0.825
572,E01019887,0.0,0.253
573,E01019888,0.0,0.396
574,E01019889,0.0,0.133
575,E01019890,0.0,0.157
576,E01019891,0.0,0.273
577,E01019892,1.0,0.995
578,E01019893,1.0,0.812
579,E01019894,0.0,0.504
580,E01019895,0.0,0.106
581,E01019896,1.0,0.954
582,E01019897,0.0,0.313
583,E01019898,0.0,0.227
584,E01019899,0.0,0.116
585,E01019900,0.0,0.066
586,E01019901,1.0,0.673
587,E01019902,1.0,0.777
588,E01019903,0.0,0.129
589,E01019904,0.0,0.167
590,E01019905,0.0,0.134
591,E01019906,0.0,0.191
592,E01019907,0.0,0.163
593,E01019908,1.0,0.956
594,E01019909,0.0,0.27
595,E01019910,7.0,4.484
596,E01019911,2.0,1.494
597,E01019912,0.0,0.435
598,E01019913,0.0,0.613
599,E01019914,1.0,1.136
600,E01019915,1.0,0.873
601,E01019916,10.0,8.483
602,E01019917,1.0,1.138
603,E01019918,7.0,6.984
604,E01019919,2.0,2.243
605,E01019920,0.0,0.139
606,E01019921,1.0,0.77
607,E01019922,3.0,2.239
608,E01019923,0.0,0.218
609,E01019924,4.0,2.761
610,E01019925,1.0,0.978
611,E01019927,0.0,0.883
612,E01019928,0.0,0.134
613,E01019929,0.0,0.175
614,E01019930,2.0,1.382
615,E01019931,0.0,0.118
616,E01019932,4.0,3.096
617,E01019933,0.0,0.331
618,E01019934,0.0,0.145
619,E01019935,0.0,0.085
620,E01019936,0.0,0.052
621,E01019937,0.0,0.104
622,E01019938,0.0,0.145
623,E01019939,0.0,0.147
624,E01019940,0.0,0.231
625,E01019942,0.0,0.166
626,E01019943,0.0,0.226
627,E01019944,1.0,0.838
628,E01019945,1.0,0.816
629,E01019946,0.0,0.165
630,E01019947,2.0,2.649
631,E01019948,0.0,0.204
632,E01019949,0.0,0.178
633,E01019950,1.0,0.862
634,E01019951,0.0,0.15
635,E01019952,0.0,0.164
636,E01019953,0.0,0.111
637,E01019954,0.0,0.337
638,E01019955,1.0,0.871
639,E01019956,1.0,1.136
640,E01019957,0.0,0.419
641,E01019958,1.0,0.789
642,E01019959,0.0,0.088
643,E01019960,0.0,0.226
644,E01019961,0.0,0.063
645,E01019962,0.0,0.065
646,E01019963,0.0,0.108
647,E01019964,0.0,0.389
648,E01019965,0.0,0.132
649,E01019966,0.0,0.048
650,E01019967,0.0,0.119
651,E01019968,0.0,0.29
652,E01019969,1.0,0.839
653,E01019970,1.0,0.783
654,E01019971,5.0,5.102
655,E01019972,0.0,0.863
656,E01019973,2.0,1.557
657,E01019974,0.0,0.208
658,E01019975,0.0,0.691
659,E01019976,0.0,0.164
660,E01019977,0.0,0.238
661,E01019980,3.0,2.938
662,E01019981,0.0,0.351
663,E01019982,1.0,1.433
664,E01019983,0.0,0.311
665,E01019984,0.0,0.207
666,E01019985,3.0,2.653
667,E01019986,3.0,2.489
668,E01019987,1.0,2.154
669,E01019988,0.0,0.402
670,E01019989,0.0,0.844
671,E01019990,0.0,0.92
672,E01019991,4.0,3.241
673,E01019992,0.0,0.273
674,E01019993,0.0,0.141
675,E01019994,2.0,3.977
676,E01019995,8.0,10.706
677,E01019996,2.0,4.463
678,E01019997,7.0,5.886
679,E01019998,0.0,0.469
680,E01019999,1.0,1.247
681,E01020000,4.0,3.873
682,E01020001,0.0,0.318
683,E01020002,0.0,0.553
684,E01020003,1.0,0.814
685,E01020004,1.0,0.84
686,E01020005,2.0,1.918
687,E01020006,4.0,3.466
688,E01020007,3.0,3.714
689,E01020008,0.0,1.863
690,E01020009,2.0,1.994
691,E01020010,2.0,2.051
692,E01020011,0.0,0.162
693,E01020012,0.0,0.609
694,E01020013,1.0,1.45
695,E01020014,1.0,1.668
696,E01020015,1.0,1.757
697,E01020016,49.0,39.582
698,E01020017,16.0,16.793
699,E01020018,22.0,21.202
700,E01020019,2.0,3.285
701,E01020020,1.0,3.683
702,E01020021,9.0,7.336
703,E01020022,29.0,23.133
704,E01020023,5.0,3.738
705,E01020024,2.0,1.896
706,E01020025,6.0,5.752
707,E01020026,0.0,0.285
708,E01020027,2.0,1.664
709,E01020029,2.0,1.8
710,E01020030,12.0,9.514
711,E01020031,2.0,1.688
712,E01020032,3.0,3.09
713,E01020033,0.0,0.214
714,E01020035,1.0,1.039
715,E01020036,1.0,0.989
716,E01020037,1.0,1.267
717,E01020038,3.0,2.114
718,E01020039,0.0,0.931
719,E01020040,0.0,0.307
720,E01020041,1.0,1.112
721,E01020042,0.0,0.193
722,E01020043,1.0,0.746
723,E01020044,1.0,0.692
724,E01020045,0.0,0.071
725,E01020046,0.0,0.069
726,E01020047,1.0,0.876
727,E01020048,7.0,6.071
728,E01020049,0.0,0.077
729,E01020050,2.0,1.374
730,E01020051,0.0,0.11
731,E01020052,5.0,3.937
732,E01020053,0.0,0.338
733,E01020054,0.0,0.165
734,E01020055,7.0,5.03
735,E01020056,1.0,0.741
736,E01020057,0.0,1.104
737,E01020058,0.0,0.197
738,E01020059,0.0,0.068
739,E01020060,3.0,2.524
740,E01020061,0.0,0.181
741,E01020062,0.0,0.112
742,E01020063,0.0,0.235
743,E01020064,1.0,0.818
744,E01020065,2.0,1.885
745,E01020066,1.0,0.947
746,E01020067,1.0,1.447
747,E01020068,0.0,0.145
748,E01020069,0.0,0.112
749,E01020070,0.0,0.087
750,E01020071,0.0,0.105
751,E01020072,0.0,0.089
752,E01020073,1.0,0.747
753,E01020074,0.0,0.115
754,E01020075,0.0,0.071
755,E01020076,0.0,0.107
756,E01020077,0.0,0.093
757,E01020078,8.0,5.942
758,E01020079,4.0,2.968
759,E01020080,0.0,0.173
760,E01020081,0.0,0.161
761,E01020082,1.0,0.713
762,E01020083,1.0,0.755
763,E01020084,0.0,0.143
764,E01020085,0.0,0.174
765,E01020086,0.0,0.177
766,E01020087,0.0,0.048
767,E01020088,0.0,0.1
768,E01020089,0.0,0.271
769,E01020090,0.0,0.084
770,E01020091,1.0,0.769
771,E01020092,0.0,0.099
772,E01020093,0.0,0.445
773,E01020094,16.0,13.901
774,E01020095,1.0,1.951
775,E01020096,5.0,4.65
776,E01020097,0.0,0.085
777,E01020098,0.0,0.065
778,E01020099,2.0,1.482
779,E01020100,0.0,0.082
780,E01020101,0.0,0.147
781,E01020102,0.0,0.206
782,E01020103,2.0,2.102
783,E01020104,2.0,2.351
784,E01020105,0.0,0.13
785,E01020106,0.0,0.1
786,E01020107,0.0,0.208
787,E01020108,1.0,1.169
788,E01020109,0.0,0.161
789,E01020110,1.0,1.16
790,E01020111,5.0,4.383
791,E01020112,5.0,6.75
792,E01020113,3.0,3.235
793,E01020114,3.0,2.451
794,E01020115,1.0,0.725
795,E01020116,0.0,0.344
796,E01020117,0.0,0.146
797,E01020118,0.0,0.435
798,E01020119,0.0,0.114
799,E01020120,1.0,0.873
800,E01020121,1.0,0.692
801,E01020122,0.0,0.067
802,E01020123,0.0,0.192
803,E01020124,1.0,1.02
804,E01020125,0.0,0.113
805,E01020126,1.0,0.896
806,E01020127,0.0,0.115
807,E01020128,2.0,1.328
808,E01020129,1.0,1.01
809,E01020130,3.0,2.852
810,E01020131,0.0,0.134
811,E01020132,0.0,0.35
812,E01020133,0.0,0.159
813,E01020134,1.0,1.293
814,E01020135,1.0,0.945
815,E01020136,0.0,0.136
816,E01020137,1.0,1.167
817,E01020138,0.0,0.104
818,E01020139,5.0,4.229
819,E01020140,1.0,0.91
820,E01020141,3.0,2.638
821,E01020142,0.0,0.218
822,E01020143,0.0,0.176
823,E01020144,0.0,0.222
824,E01020145,0.0,0.112
825,E01020146,0.0,0.352
826,E01020147,0.0,0.078
827,E01020148,0.0,0.066
828,E01020149,3.0,1.956
829,E01020150,1.0,0.761
830,E01020151,0.0,0.318
831,E01020152,1.0,1.316
832,E01020153,1.0,0.898
833,E01020154,0.0,0.377
834,E01020155,0.0,0.779
835,E01020156,0.0,0.086
836,E01020157,0.0,0.126
837,E01020158,0.0,0.112
838,E01020159,1.0,0.795
839,E01020160,0.0,0.14
840,E01020161,4.0,2.782
841,E01020162,1.0,0.793
842,E01020163,0.0,0.102
843,E01020164,0.0,0.15
844,E01020165,0.0,0.132
845,E01020166,0.0,0.317
846,E01020167,0.0,0.118
847,E01020168,0.0,0.306
848,E01020169,0.0,0.613
849,E01020170,0.0,0.081
850,E01020171,2.0,1.319
851,E01020172,0.0,0.15
852,E01020173,0.0,0.265
853,E01020174,0.0,0.107
854,E01020175,0.0,0.069
855,E01020176,0.0,0.224
856,E01020177,0.0,0.155
857,E01020178,0.0,0.05
858,E01020179,0.0,0.094
859,E01020180,2.0,1.631
860,E01020181,2.0,1.449
861,E01020182,1.0,0.933
862,E01020183,1.0,2.034
863,E01020184,0.0,0.781
864,E01020185,0.0,0.088
865,E01020186,0.0,0.093
866,E01020187,0.0,0.129
867,E01020188,0.0,0.076
868,E01020189,1.0,1.21
869,E01020190,0.0,0.078
870,E01020191,0.0,0.442
871,E01020192,0.0,0.06
872,E01020193,0.0,0.074
873,E01020194,1.0,0.791
874,E01020195,0.0,0.1
875,E01020196,1.0,1.081
876,E01020197,0.0,0.183
877,E01020198,0.0,0.523
878,E01020199,0.0,0.256
879,E01020200,0.0,0.086
880,E01020201,0.0,0.081
881,E01020202,0.0,0.127
882,E01020203,0.0,0.153
883,E01020204,2.0,1.622
884,E01020205,0.0,0.139
885,E01020206,0.0,0.16
886,E01020207,0.0,0.486
887,E01020208,0.0,0.254
888,E01020209,1.0,0.883
889,E01020210,0.0,0.092
890,E01020211,0.0,0.781
891,E01020212,0.0,0.467
892,E01020213,0.0,0.143
893,E01020214,1.0,0.741
894,E01020215,0.0,0.076
895,E01020216,4.0,3.276
896,E01020217,8.0,6.599
897,E01020218,12.0,9.323
898,E01020219,0.0,0.382
899,E01020220,0.0,0.135
900,E01020221,1.0,0.746
901,E01020222,0.0,0.134
902,E01020223,0.0,0.09
903,E01020224,3.0,2.458
904,E01020225,4.0,3.489
905,E01020226,0.0,0.28
906,E01020227,1.0,0.928
907,E01020228,4.0,3.911
908,E01020229,3.0,2.336
909,E01020230,0.0,0.194
910,E01020231,0.0,0.16
911,E01020232,2.0,1.472
912,E01020233,1.0,0.754
913,E01020234,1.0,0.917
914,E01020235,3.0,2.115
915,E01020236,1.0,0.701
916,E01020237,1.0,0.688
917,E01020238,0.0,0.098
918,E01020239,0.0,0.08
919,E01020240,2.0,1.304
920,E01020241,1.0,0.771
921,E01020242,0.0,0.108
922,E01020243,0.0,0.093
923,E01020244,0.0,0.121
924,E01020245,0.0,0.107
925,E01020246,2.0,1.41
926,E01020247,0.0,0.287
927,E01020248,0.0,0.061
928,E01020249,0.0,0.095
929,E01020250,0.0,0.187
930,E01020251,3.0,1.955
931,E01020252,0.0,0.383
932,E01020253,0.0,0.088
933,E01020254,0.0,0.244
934,E01020255,0.0,0.143
935,E01020256,0.0,0.163
936,E01020257,0.0,0.125
937,E01020258,0.0,0.228
938,E01020259,0.0,0.122
939,E01020260,0.0,0.182
940,E01020261,3.0,2.145
941,E01020262,0.0,0.102
942,E01020263,1.0,0.798
943,E01020264,1.0,1.438
944,E01020265,1.0,0.728
945,E01020266,0.0,0.32
946,E01020267,2.0,1.516
947,E01020268,1.0,0.822
948,E01020269,5.0,7.053
949,E01020270,1.0,0.68
950,E01020271,3.0,2.701
951,E01020272,0.0,0.565
952,E01020273,0.0,0.083
953,E01020274,0.0,0.099
954,E01020275,0.0,0.33
955,E01020276,0.0,0.198
956,E01020277,1.0,1.208
957,E01020278,0.0,0.109
958,E01020279,2.0,1.648
959,E01020280,5.0,5.45
960,E01020281,0.0,0.208
961,E01020282,1.0,1.273
962,E01020283,0.0,0.187
963,E01020284,2.0,1.73
964,E01020285,1.0,1.142
965,E01020286,0.0,0.138
966,E01020287,1.0,0.828
967,E01020288,0.0,0.187
968,E01020289,0.0,0.073
969,E01020290,0.0,0.048
970,E01020291,0.0,0.053
971,E01020292,0.0,0.136
972,E01020293,0.0,0.137
973,E01020294,0.0,0.242
974,E01020295,0.0,0.062
975,E01020296,0.0,0.036
976,E01020297,0.0,0.341
977,E01020298,0.0,0.255
978,E01020299,0.0,0.135
979,E01020300,1.0,0.733
980,E01020301,0.0,0.201
981,E01020302,0.0,0.1
982,E01020303,0.0,0.077
983,E01020304,0.0,0.161
984,E01020305,0.0,0.566
985,E01020306,0.0,0.091
986,E01020307,0.0,0.197
987,E01020308,0.0,0.081
988,E01020309,0.0,0.086
989,E01020310,0.0,0.651
990,E01020311,0.0,0.164
991,E01020312,0.0,0.082
992,E01020313,0.0,0.29
993,E01020314,0.0,0.033
994,E01020315,0.0,0.238
995,E01020316,0.0,0.12
996,E01020317,0.0,0.08
997,E01020318,1.0,0.768
998,E01020319,0.0,0.133
999,E01020320,2.0,1.327
1000,E01020321,0.0,0.137
1001,E01020322,0.0,0.135
1002,E01020323,1.0,1.054
1003,E01020324,0.0,0.097
1004,E01020325,0.0,0.088
1005,E01020326,1.0,0.742
1006,E01020327,1.0,0.735
1007,E01020328,1.0,0.892
1008,E01020329,0.0,0.266
1009,E01020330,0.0,0.645
1010,E01020331,0.0,0.067
1011,E01020332,2.0,2.164
1012,E01020333,0.0,0.095
1013,E01020334,0.0,0.267
1014,E01020335,1.0,0.755
1015,E01020336,0.0,0.059
1016,E01020337,1.0,0.998
1017,E01020338,1.0,0.884
1018,E01020339,1.0,0.677
1019,E01020340,0.0,0.048
1020,E01020341,1.0,0.655
1021,E01020342,1.0,0.773
1022,E01032628,0.0,0.087
1023,E01032657,7.0,11.387
1024,E01032658,15.0,20.951
1025,E01033232,0.0,0.555
1026,E01033233,5.0,4.699
1027,E01033234,2.0,1.713
1028,E01033235,0.0,0.607
1029,E01033236,0.0,0.319
1030,E01033289,0.0,0.111
1031,E01033291,2.0,1.349
1032,E01033292,1.0,1.135
1033,E01033294,1.0,0.937
